digraph {
	"b.OSPF.default.OUT" -> "c.OSPF.default.IN" [label="100.0 [BLOCKED]"]
	"b.OSPF.default.OUT" -> "d.OSPF.default.IN" [label="100.0"]
	"c.OSPF.default.OUT" -> "b.OSPF.default.IN" [label="100.0 [BLOCKED]"]
	"c.OSPF.default.OUT" -> "d.OSPF.default.IN" [label="300.0"]
	"d.OSPF.default.OUT" -> "c.OSPF.default.IN" [label="300.0"]
	"d.OSPF.default.OUT" -> "b.OSPF.default.IN" [label="100.0 [BLOCKED]"]
	"b.OSPF.default.IN" -> "b.OSPF.default.OUT" [label="0.0"]
	"c.OSPF.default.IN" -> "c.OSPF.default.OUT" [label="0.0"]
	"d.OSPF.default.IN" -> "d.OSPF.default.OUT" [label="0.0"]
	"e.OSPF.default.IN" -> "e.OSPF.default.OUT" [label="0.0"]
	"e.OSPF.default.IN" -> "DESTINATION" [label="0.0"]
	"SOURCE" -> "DESTINATION" [label="0.0"]
	"d.OSPF.default.IN" -> "DESTINATION" [label="0.0"]
	"b.OSPF.default.IN"[shape=oval, style=filled, fillcolor=orange]
	"b.OSPF.default.OUT"[shape=oval, style=filled, fillcolor=orange]
	"c.OSPF.default.IN"[shape=oval, style=filled, fillcolor=orange]
	"c.OSPF.default.OUT"[shape=oval, style=filled, fillcolor=orange]
	"d.OSPF.default.IN"[shape=oval, style=filled, fillcolor=orange]
	"d.OSPF.default.OUT"[shape=oval, style=filled, fillcolor=orange]
	"e.OSPF.default.IN"[shape=oval, style=filled, fillcolor=orange]
	"e.OSPF.default.OUT"[shape=oval, style=filled, fillcolor=orange]
	"SOURCE"[shape=oval, style=filled, fillcolor=red]
	"DESTINATION"[shape=oval, style=filled, fillcolor=red]
label="12.0.0.0-12.255.255.255 -> 4.0.0.0-4.0.255.255"
}