digraph {
	"a.ospf.1.OUT" -> "b.ospf.1.IN" [label="20.0"]
	"a.ospf.1.OUT" -> "d.ospf.2.IN" [label="0.0"]
	"b.ospf.1.OUT" -> "a.ospf.1.IN" [label="20.0"]
	"b.ospf.2.OUT" -> "c.ospf.2.IN" [label="20.0"]
	"b.ospf.2.OUT" -> "d.ospf.2.IN" [label="20.0"]
	"c.ospf.2.OUT" -> "b.ospf.2.IN" [label="20.0"]
	"c.ospf.2.OUT" -> "d.ospf.2.IN" [label="100.0"]
	"d.ospf.2.OUT" -> "b.ospf.2.IN" [label="20.0"]
	"d.ospf.2.OUT" -> "c.ospf.2.IN" [label="100.0"]
	"d.ospf.2.OUT" -> "a.ospf.1.IN" [label="0.0"]
	"a.ospf.1.IN" -> "a.ospf.1.OUT" [label="0.0"]
	"b.ospf.1.IN" -> "b.ospf.1.OUT" [label="0.0"]
	"b.ospf.2.IN" -> "b.ospf.1.OUT" [label="50.0"]
	"b.ospf.2.IN" -> "b.ospf.2.OUT" [label="500.0"]
	"c.ospf.2.IN" -> "c.ospf.2.OUT" [label="0.0"]
	"d.ospf.2.IN" -> "d.ospf.2.OUT" [label="0.0"]
	"a.ospf.1.IN" -> "DESTINATION" [label="0.0"]
	"SOURCE" -> "c.ospf.2.OUT" [label="0.0"]
	"d.ospf.2.IN" -> "DESTINATION" [label="0.0"]
	"SOURCE" -> "b.ospf.1.OUT" [label="0.0"]
	"SOURCE" -> "b.ospf.2.OUT" [label="0.0"]
	"a.ospf.1.IN"[shape=oval, style=filled, fillcolor=orange]
	"a.ospf.1.OUT"[shape=oval, style=filled, fillcolor=orange]
	"b.ospf.1.IN"[shape=oval, style=filled, fillcolor=orange]
	"b.ospf.1.OUT"[shape=oval, style=filled, fillcolor=orange]
	"b.ospf.2.IN"[shape=oval, style=filled, fillcolor=orange]
	"b.ospf.2.OUT"[shape=oval, style=filled, fillcolor=orange]
	"c.ospf.2.IN"[shape=oval, style=filled, fillcolor=orange]
	"c.ospf.2.OUT"[shape=oval, style=filled, fillcolor=orange]
	"d.ospf.2.IN"[shape=oval, style=filled, fillcolor=orange]
	"d.ospf.2.OUT"[shape=oval, style=filled, fillcolor=orange]
	"SOURCE"[shape=oval, style=filled, fillcolor=red]
	"DESTINATION"[shape=oval, style=filled, fillcolor=red]
label="11.0.0.0-11.255.255.255 -> 20.0.0.0-20.255.255.255"
}