digraph {
	"e0-0.OSPF.default.OUT" -> "agg0-0.OSPF.default.IN" [label="1.0E8"]
	"e0-0.OSPF.default.OUT" -> "agg0-1.OSPF.default.IN" [label="1.0E8"]
	"e0-1.OSPF.default.OUT" -> "agg0-0.OSPF.default.IN" [label="1.0E8"]
	"e0-1.OSPF.default.OUT" -> "agg0-1.OSPF.default.IN" [label="1.0E8"]
	"e1-0.OSPF.default.OUT" -> "agg1-0.OSPF.default.IN" [label="1.0E8"]
	"e1-0.OSPF.default.OUT" -> "agg1-1.OSPF.default.IN" [label="1.0E8"]
	"agg0-1.OSPF.default.OUT" -> "e0-0.OSPF.default.IN" [label="1.0E8"]
	"agg0-1.OSPF.default.OUT" -> "e0-1.OSPF.default.IN" [label="1.0E8"]
	"agg1-0.OSPF.default.OUT" -> "e1-0.OSPF.default.IN" [label="1.0E8"]
	"agg1-0.OSPF.default.OUT" -> "e1-1.OSPF.default.IN" [label="1.0E8"]
	"agg0-0.OSPF.default.OUT" -> "e0-0.OSPF.default.IN" [label="1.0E8"]
	"agg0-0.OSPF.default.OUT" -> "e0-1.OSPF.default.IN" [label="1.0E8"]
	"agg2-1.OSPF.default.OUT" -> "e2-0.OSPF.default.IN" [label="1.0E8"]
	"agg2-1.OSPF.default.OUT" -> "e2-1.OSPF.default.IN" [label="1.0E8"]
	"agg3-0.OSPF.default.OUT" -> "e3-0.OSPF.default.IN" [label="1.0E8"]
	"agg3-0.OSPF.default.OUT" -> "e3-1.OSPF.default.IN" [label="1.0E8"]
	"agg1-1.OSPF.default.OUT" -> "e1-0.OSPF.default.IN" [label="1.0E8"]
	"agg1-1.OSPF.default.OUT" -> "e1-1.OSPF.default.IN" [label="1.0E8"]
	"agg2-0.OSPF.default.OUT" -> "e2-0.OSPF.default.IN" [label="1.0E8"]
	"agg2-0.OSPF.default.OUT" -> "e2-1.OSPF.default.IN" [label="1.0E8"]
	"agg3-1.OSPF.default.OUT" -> "e3-0.OSPF.default.IN" [label="1.0E8"]
	"agg3-1.OSPF.default.OUT" -> "e3-1.OSPF.default.IN" [label="1.0E8"]
	"e3-1.OSPF.default.OUT" -> "agg3-0.OSPF.default.IN" [label="1.0E8"]
	"e3-1.OSPF.default.OUT" -> "agg3-1.OSPF.default.IN" [label="1.0E8"]
	"e1-1.OSPF.default.OUT" -> "agg1-0.OSPF.default.IN" [label="1.0E8"]
	"e1-1.OSPF.default.OUT" -> "agg1-1.OSPF.default.IN" [label="1.0E8"]
	"e2-0.OSPF.default.OUT" -> "agg2-0.OSPF.default.IN" [label="1.0E8"]
	"e2-0.OSPF.default.OUT" -> "agg2-1.OSPF.default.IN" [label="1.0E8"]
	"e2-1.OSPF.default.OUT" -> "agg2-0.OSPF.default.IN" [label="1.0E8"]
	"e2-1.OSPF.default.OUT" -> "agg2-1.OSPF.default.IN" [label="1.0E8"]
	"e3-0.OSPF.default.OUT" -> "agg3-0.OSPF.default.IN" [label="1.0E8"]
	"e3-0.OSPF.default.OUT" -> "agg3-1.OSPF.default.IN" [label="1.0E8"]
	"e0-0.OSPF.default.IN" -> "e0-0.OSPF.default.OUT" [label="0.0"]
	"e0-1.OSPF.default.IN" -> "e0-1.OSPF.default.OUT" [label="0.0"]
	"e1-0.OSPF.default.IN" -> "e1-0.OSPF.default.OUT" [label="0.0"]
	"c0.OSPF.default.IN" -> "c0.OSPF.default.OUT" [label="0.0"]
	"c1.OSPF.default.IN" -> "c1.OSPF.default.OUT" [label="0.0"]
	"c2.OSPF.default.IN" -> "c2.OSPF.default.OUT" [label="0.0"]
	"c3.OSPF.default.IN" -> "c3.OSPF.default.OUT" [label="0.0"]
	"agg0-1.OSPF.default.IN" -> "agg0-1.OSPF.default.OUT" [label="0.0"]
	"agg1-0.OSPF.default.IN" -> "agg1-0.OSPF.default.OUT" [label="0.0"]
	"agg0-0.OSPF.default.IN" -> "agg0-0.OSPF.default.OUT" [label="0.0"]
	"agg2-1.OSPF.default.IN" -> "agg2-1.OSPF.default.OUT" [label="0.0"]
	"agg3-0.OSPF.default.IN" -> "agg3-0.OSPF.default.OUT" [label="0.0"]
	"agg1-1.OSPF.default.IN" -> "agg1-1.OSPF.default.OUT" [label="0.0"]
	"agg2-0.OSPF.default.IN" -> "agg2-0.OSPF.default.OUT" [label="0.0"]
	"agg3-1.OSPF.default.IN" -> "agg3-1.OSPF.default.OUT" [label="0.0"]
	"e3-1.OSPF.default.IN" -> "e3-1.OSPF.default.OUT" [label="0.0"]
	"e1-1.OSPF.default.IN" -> "e1-1.OSPF.default.OUT" [label="0.0"]
	"e2-0.OSPF.default.IN" -> "e2-0.OSPF.default.OUT" [label="0.0"]
	"e2-1.OSPF.default.IN" -> "e2-1.OSPF.default.OUT" [label="0.0"]
	"e3-0.OSPF.default.IN" -> "e3-0.OSPF.default.OUT" [label="0.0"]
	"SOURCE" -> "agg0-1.OSPF.default.OUT" [label="0.0"]
	"SOURCE" -> "e0-0.OSPF.default.OUT" [label="0.0"]
	"agg0-0.OSPF.default.IN" -> "DESTINATION" [label="0.0"]
	"e0-1.OSPF.default.IN" -> "DESTINATION" [label="0.0"]
	"e0-0.OSPF.default.IN"[shape=oval, style=filled, fillcolor=orange]
	"e0-0.OSPF.default.OUT"[shape=oval, style=filled, fillcolor=orange]
	"e0-1.OSPF.default.IN"[shape=oval, style=filled, fillcolor=orange]
	"e0-1.OSPF.default.OUT"[shape=oval, style=filled, fillcolor=orange]
	"e1-0.OSPF.default.IN"[shape=oval, style=filled, fillcolor=orange]
	"e1-0.OSPF.default.OUT"[shape=oval, style=filled, fillcolor=orange]
	"c0.OSPF.default.IN"[shape=oval, style=filled, fillcolor=orange]
	"c0.OSPF.default.OUT"[shape=oval, style=filled, fillcolor=orange]
	"c1.OSPF.default.IN"[shape=oval, style=filled, fillcolor=orange]
	"c1.OSPF.default.OUT"[shape=oval, style=filled, fillcolor=orange]
	"c2.OSPF.default.IN"[shape=oval, style=filled, fillcolor=orange]
	"c2.OSPF.default.OUT"[shape=oval, style=filled, fillcolor=orange]
	"c3.OSPF.default.IN"[shape=oval, style=filled, fillcolor=orange]
	"c3.OSPF.default.OUT"[shape=oval, style=filled, fillcolor=orange]
	"agg0-1.OSPF.default.IN"[shape=oval, style=filled, fillcolor=orange]
	"agg0-1.OSPF.default.OUT"[shape=oval, style=filled, fillcolor=orange]
	"agg1-0.OSPF.default.IN"[shape=oval, style=filled, fillcolor=orange]
	"agg1-0.OSPF.default.OUT"[shape=oval, style=filled, fillcolor=orange]
	"agg0-0.OSPF.default.IN"[shape=oval, style=filled, fillcolor=orange]
	"agg0-0.OSPF.default.OUT"[shape=oval, style=filled, fillcolor=orange]
	"agg2-1.OSPF.default.IN"[shape=oval, style=filled, fillcolor=orange]
	"agg2-1.OSPF.default.OUT"[shape=oval, style=filled, fillcolor=orange]
	"agg3-0.OSPF.default.IN"[shape=oval, style=filled, fillcolor=orange]
	"agg3-0.OSPF.default.OUT"[shape=oval, style=filled, fillcolor=orange]
	"agg1-1.OSPF.default.IN"[shape=oval, style=filled, fillcolor=orange]
	"agg1-1.OSPF.default.OUT"[shape=oval, style=filled, fillcolor=orange]
	"agg2-0.OSPF.default.IN"[shape=oval, style=filled, fillcolor=orange]
	"agg2-0.OSPF.default.OUT"[shape=oval, style=filled, fillcolor=orange]
	"agg3-1.OSPF.default.IN"[shape=oval, style=filled, fillcolor=orange]
	"agg3-1.OSPF.default.OUT"[shape=oval, style=filled, fillcolor=orange]
	"e3-1.OSPF.default.IN"[shape=oval, style=filled, fillcolor=orange]
	"e3-1.OSPF.default.OUT"[shape=oval, style=filled, fillcolor=orange]
	"e1-1.OSPF.default.IN"[shape=oval, style=filled, fillcolor=orange]
	"e1-1.OSPF.default.OUT"[shape=oval, style=filled, fillcolor=orange]
	"e2-0.OSPF.default.IN"[shape=oval, style=filled, fillcolor=orange]
	"e2-0.OSPF.default.OUT"[shape=oval, style=filled, fillcolor=orange]
	"e2-1.OSPF.default.IN"[shape=oval, style=filled, fillcolor=orange]
	"e2-1.OSPF.default.OUT"[shape=oval, style=filled, fillcolor=orange]
	"e3-0.OSPF.default.IN"[shape=oval, style=filled, fillcolor=orange]
	"e3-0.OSPF.default.OUT"[shape=oval, style=filled, fillcolor=orange]
	"SOURCE"[shape=oval, style=filled, fillcolor=red]
	"DESTINATION"[shape=oval, style=filled, fillcolor=red]
label="20.0.1.0-20.0.1.1 -> 20.0.0.2-20.0.0.3"
}