digraph {
	"a.BGP.default.OUT" -> "h.BGP.default.IN" [label="92.45562130177514"]
	"a.BGP.default.OUT" -> "b.BGP.default.IN" [label="92.45562130177514"]
	"b.BGP.default.OUT" -> "a.BGP.default.IN" [label="92.45562130177514"]
	"b.OSPF.default.OUT" -> "c.OSPF.default.IN" [label="369.82248520710056"]
	"c.BGP.default.OUT" -> "d.BGP.default.IN" [label="9615.384615384615"]
	"c.OSPF.default.OUT" -> "b.OSPF.default.IN" [label="369.82248520710056"]
	"d.BGP.default.OUT" -> "c.BGP.default.IN" [label="9615.384615384615"]
	"d.OSPF.default.OUT" -> "e.OSPF.default.IN" [label="38461.53846153846"]
	"e.BGP.default.OUT" -> "f.BGP.default.IN" [label="1000000.0"]
	"e.OSPF.default.OUT" -> "d.OSPF.default.IN" [label="38461.53846153846"]
	"f.BGP.default.OUT" -> "e.BGP.default.IN" [label="1000000.0"]
	"f.BGP.default.OUT" -> "g.BGP.default.IN" [label="1000000.0"]
	"g.BGP.default.OUT" -> "f.BGP.default.IN" [label="1000000.0"]
	"g.OSPF.default.OUT" -> "h.OSPF.default.IN" [label="125000.0"]
	"h.BGP.default.OUT" -> "a.BGP.default.IN" [label="92.45562130177514"]
	"h.OSPF.default.OUT" -> "g.OSPF.default.IN" [label="125000.0"]
	"a.BGP.default.IN" -> "a.BGP.default.OUT" [label="0.0"]
	"b.BGP.default.IN" -> "b.BGP.default.OUT" [label="0.0"]
	"b.OSPF.default.IN" -> "b.BGP.default.OUT" [label="7396.449704142012"]
	"b.OSPF.default.IN" -> "b.OSPF.default.OUT" [label="739.6449704142011"]
	"c.BGP.default.IN" -> "c.BGP.default.OUT" [label="0.0"]
	"c.BGP.default.IN" -> "c.OSPF.default.OUT" [label="19230.76923076923"]
	"c.OSPF.default.IN" -> "c.OSPF.default.OUT" [label="739.6449704142011"]
	"d.BGP.default.IN" -> "d.BGP.default.OUT" [label="0.0"]
	"d.OSPF.default.IN" -> "d.BGP.default.OUT" [label="769230.7692307692"]
	"d.OSPF.default.IN" -> "d.OSPF.default.OUT" [label="76923.07692307692"]
	"e.BGP.default.IN" -> "e.BGP.default.OUT" [label="0.0"]
	"e.BGP.default.IN" -> "e.OSPF.default.OUT" [label="3000000.0"]
	"e.OSPF.default.IN" -> "e.OSPF.default.OUT" [label="76923.07692307692"]
	"f.BGP.default.IN" -> "f.BGP.default.OUT" [label="0.0"]
	"g.BGP.default.IN" -> "g.BGP.default.OUT" [label="0.0"]
	"g.BGP.default.IN" -> "g.OSPF.default.OUT" [label="3000000.0"]
	"g.OSPF.default.IN" -> "g.OSPF.default.OUT" [label="250000.0"]
	"h.BGP.default.IN" -> "h.BGP.default.OUT" [label="0.0"]
	"h.OSPF.default.IN" -> "h.BGP.default.OUT" [label="250000.0"]
	"h.OSPF.default.IN" -> "h.OSPF.default.OUT" [label="250000.0"]
	"SOURCE" -> "g.BGP.default.OUT" [label="0.0"]
	"SOURCE" -> "g.OSPF.default.OUT" [label="400.0"]
	"SOURCE" -> "h.BGP.default.OUT" [label="0.0"]
	"SOURCE" -> "h.OSPF.default.OUT" [label="400.0"]
	"a.BGP.default.IN"[shape=oval, style=filled, fillcolor=blue]
	"a.BGP.default.OUT"[shape=oval, style=filled, fillcolor=blue]
	"b.BGP.default.IN"[shape=oval, style=filled, fillcolor=blue]
	"b.BGP.default.OUT"[shape=oval, style=filled, fillcolor=blue]
	"b.OSPF.default.IN"[shape=oval, style=filled, fillcolor=orange]
	"b.OSPF.default.OUT"[shape=oval, style=filled, fillcolor=orange]
	"c.BGP.default.IN"[shape=oval, style=filled, fillcolor=blue]
	"c.BGP.default.OUT"[shape=oval, style=filled, fillcolor=blue]
	"c.OSPF.default.IN"[shape=oval, style=filled, fillcolor=orange]
	"c.OSPF.default.OUT"[shape=oval, style=filled, fillcolor=orange]
	"d.BGP.default.IN"[shape=oval, style=filled, fillcolor=blue]
	"d.BGP.default.OUT"[shape=oval, style=filled, fillcolor=blue]
	"d.OSPF.default.IN"[shape=oval, style=filled, fillcolor=orange]
	"d.OSPF.default.OUT"[shape=oval, style=filled, fillcolor=orange]
	"e.BGP.default.IN"[shape=oval, style=filled, fillcolor=blue]
	"e.BGP.default.OUT"[shape=oval, style=filled, fillcolor=blue]
	"e.OSPF.default.IN"[shape=oval, style=filled, fillcolor=orange]
	"e.OSPF.default.OUT"[shape=oval, style=filled, fillcolor=orange]
	"f.BGP.default.IN"[shape=oval, style=filled, fillcolor=blue]
	"f.BGP.default.OUT"[shape=oval, style=filled, fillcolor=blue]
	"g.BGP.default.IN"[shape=oval, style=filled, fillcolor=blue]
	"g.BGP.default.OUT"[shape=oval, style=filled, fillcolor=blue]
	"g.OSPF.default.IN"[shape=oval, style=filled, fillcolor=orange]
	"g.OSPF.default.OUT"[shape=oval, style=filled, fillcolor=orange]
	"h.BGP.default.IN"[shape=oval, style=filled, fillcolor=blue]
	"h.BGP.default.OUT"[shape=oval, style=filled, fillcolor=blue]
	"h.OSPF.default.IN"[shape=oval, style=filled, fillcolor=orange]
	"h.OSPF.default.OUT"[shape=oval, style=filled, fillcolor=orange]
	"SOURCE"[shape=oval, style=filled, fillcolor=red]
	"DESTINATION"[shape=oval, style=filled, fillcolor=red]
label="104.0.0.0-104.0.0.255 -> 3.0.0.0-3.0.0.255"
}