digraph {
	"e0-0.OSPF.default.OUT" -> "agg0-0.OSPF.default.IN" [label="1000.0"]
	"e1-0.OSPF.default.OUT" -> "agg1-0.OSPF.default.IN" [label="1000.0"]
	"agg1-0.OSPF.default.OUT" -> "e1-0.OSPF.default.IN" [label="1000.0"]
	"agg0-0.OSPF.default.OUT" -> "e0-0.OSPF.default.IN" [label="1000.0"]
	"e0-0.OSPF.default.IN" -> "e0-0.OSPF.default.OUT" [label="0.0"]
	"e1-0.OSPF.default.IN" -> "e1-0.OSPF.default.OUT" [label="0.0"]
	"agg1-0.OSPF.default.IN" -> "agg1-0.OSPF.default.OUT" [label="0.0"]
	"agg0-0.OSPF.default.IN" -> "agg0-0.OSPF.default.OUT" [label="0.0"]
	"c0.OSPF.default.IN" -> "c0.OSPF.default.OUT" [label="0.0"]
	"agg0-0.OSPF.default.IN" -> "DESTINATION" [label="0.0"]
	"SOURCE" -> "c0.OSPF.default.OUT" [label="0.0"]
	"e0-0.OSPF.default.IN" -> "DESTINATION" [label="0.0"]
	"SOURCE" -> "DESTINATION" [label="0.0"]
	"e0-0.OSPF.default.IN"[shape=oval, style=filled, fillcolor=orange]
	"e0-0.OSPF.default.OUT"[shape=oval, style=filled, fillcolor=orange]
	"e1-0.OSPF.default.IN"[shape=oval, style=filled, fillcolor=orange]
	"e1-0.OSPF.default.OUT"[shape=oval, style=filled, fillcolor=orange]
	"agg1-0.OSPF.default.IN"[shape=oval, style=filled, fillcolor=orange]
	"agg1-0.OSPF.default.OUT"[shape=oval, style=filled, fillcolor=orange]
	"agg0-0.OSPF.default.IN"[shape=oval, style=filled, fillcolor=orange]
	"agg0-0.OSPF.default.OUT"[shape=oval, style=filled, fillcolor=orange]
	"c0.OSPF.default.IN"[shape=oval, style=filled, fillcolor=orange]
	"c0.OSPF.default.OUT"[shape=oval, style=filled, fillcolor=orange]
	"SOURCE"[shape=oval, style=filled, fillcolor=red]
	"DESTINATION"[shape=oval, style=filled, fillcolor=red]
label="10.0.0.0-10.0.0.1 -> 20.0.0.0-20.0.0.1"
}