Tulsa21	gravity	5	1	0.1	0.75	1607	2
Tulsa21	gravity	5	1	0.1	0.75	1171	2
CityCenter73	gravity	5	1	0.1	0.71	8037	2
CityCenter73	gravity	5	1	0.1	0.71	13672	2
fattree-6	gravity	5	1	0.1	0.7000000000000001	2366	2
fattree-6	gravity	5	1	0.1	0.7000000000000001	2844	2
fattree-8	gravity	5	1	0.1	0.72	22386	2
fattree-8	gravity	5	1	0.1	0.72	21486	2
Abilene	gravity	5	1	0.1	0.77	746	3
Abilene	gravity	5	1	0.1	0.77	784	3
Tulsa21	gravity	5	1	0.1	0.8	1390	2
Tulsa21	gravity	5	1	0.1	0.8	1183	2
CityCenter73	gravity	5	1	0.1	0.8	10403	2
CityCenter73	gravity	5	1	0.1	0.8	6166	2
fattree-6	gravity	5	1	0.1	0.7799999999999999	1903	2
fattree-6	gravity	5	1	0.1	0.7799999999999999	2411	2
fattree-8	gravity	5	1	0.1	0.7	22701	2
fattree-8	gravity	5	1	0.1	0.7	58947	2
Abilene	gravity	5	1	0.1	0.7500000000000001	709	2
Abilene	gravity	5	1	0.1	0.7500000000000001	730	3
Tulsa21	gravity	5	1	0.1	0.7799999999999999	1425	2
Tulsa21	gravity	5	1	0.1	0.7799999999999999	1174	2
CityCenter73	gravity	5	1	0.1	0.7799999999999999	9974	2
CityCenter73	gravity	5	1	0.1	0.7799999999999999	11393	2
fattree-6	gravity	5	1	0.1	0.71	2160	2
fattree-6	gravity	5	1	0.1	0.71	3752	2
fattree-8	gravity	5	1	0.1	0.7700000000000001	21855	2
fattree-8	gravity	5	1	0.1	0.7700000000000001	28561	2
Abilene	gravity	5	1	0.1	0.7300000000000001	708	3
Abilene	gravity	5	1	0.1	0.7300000000000001	733	3
Tulsa21	gravity	5	1	0.1	0.7100000000000001	2242	3
Tulsa21	gravity	5	1	0.1	0.7100000000000001	1393	2
CityCenter73	gravity	5	1	0.1	0.72	14729	2
CityCenter73	gravity	5	1	0.1	0.72	8878	2
fattree-6	gravity	5	1	0.1	0.7799999999999999	2714	2
fattree-6	gravity	5	1	0.1	0.7799999999999999	1606	2
fattree-8	gravity	5	1	0.1	0.76	13040	2
fattree-8	gravity	5	1	0.1	0.76	23078	2
Abilene	gravity	5	1	0.1	0.7100000000000001	732	3
Abilene	gravity	5	1	0.1	0.7100000000000001	727	3
Tulsa21	gravity	5	1	0.1	0.77	1327	2
Tulsa21	gravity	5	1	0.1	0.77	1511	2
CityCenter73	gravity	5	1	0.1	0.77	7767	2
CityCenter73	gravity	5	1	0.1	0.77	9566	2
fattree-6	gravity	5	1	0.1	0.75	3628	2
fattree-6	gravity	5	1	0.1	0.75	2474	2
fattree-8	gravity	5	1	0.1	0.7999999999999999	12326	2
fattree-8	gravity	5	1	0.1	0.7999999999999999	16737	2
Abilene	gravity	5	1	0.1	0.7799999999999999	660	2
Abilene	gravity	5	1	0.1	0.7799999999999999	733	3
Tulsa21	gravity	5	1	0.1	0.7100000000000001	1577	2
Tulsa21	gravity	5	1	0.1	0.7100000000000001	2171	2
CityCenter73	gravity	5	1	0.1	0.7000000000000001	14821	2
CityCenter73	gravity	5	1	0.1	0.7000000000000001	9205	2
fattree-6	gravity	5	1	0.1	0.7899999999999998	1875	2
fattree-6	gravity	5	1	0.1	0.7899999999999998	2005	2
fattree-8	gravity	5	1	0.1	0.7999999999999999	20138	2
fattree-8	gravity	5	1	0.1	0.7999999999999999	20285	2
Abilene	gravity	5	1	0.1	0.7999999999999999	704	3
Abilene	gravity	5	1	0.1	0.7999999999999999	750	2
Tulsa21	gravity	5	1	0.1	0.73	1240	2
Tulsa21	gravity	5	1	0.1	0.73	1226	2
CityCenter73	gravity	5	1	0.1	0.79	11120	2
CityCenter73	gravity	5	1	0.1	0.79	10159	2
fattree-6	gravity	5	1	0.1	0.7	3099	2
fattree-6	gravity	5	1	0.1	0.7	2324	2
fattree-8	gravity	5	1	0.1	0.71	16636	2
fattree-8	gravity	5	1	0.1	0.71	21076	2
Abilene	gravity	5	1	0.1	0.7699999999999999	778	3
Abilene	gravity	5	1	0.1	0.7699999999999999	759	3
Tulsa21	gravity	5	1	0.1	0.7999999999999999	1149	2
Tulsa21	gravity	5	1	0.1	0.7999999999999999	1273	2
CityCenter73	gravity	5	1	0.1	0.7	7326	2
CityCenter73	gravity	5	1	0.1	0.7	8313	2
fattree-6	gravity	5	1	0.1	0.75	1567	2
fattree-6	gravity	5	1	0.1	0.75	1545	2
fattree-8	gravity	5	1	0.1	0.7799999999999999	11568	2
fattree-8	gravity	5	1	0.1	0.7799999999999999	20726	2
Abilene	gravity	5	1	0.1	0.78	780	3
Abilene	gravity	5	1	0.1	0.78	696	2
Tulsa21	gravity	5	1	0.1	0.77	1467	2
Tulsa21	gravity	5	1	0.1	0.77	1173	2
CityCenter73	gravity	5	1	0.1	0.78	10758	2
CityCenter73	gravity	5	1	0.1	0.78	12527	2
fattree-6	gravity	5	1	0.1	0.7600000000000001	1815	2
fattree-6	gravity	5	1	0.1	0.7600000000000001	1601	2
fattree-8	gravity	5	1	0.1	0.7000000000000001	22151	2
fattree-8	gravity	5	1	0.1	0.7000000000000001	129260	2
Abilene	gravity	5	1	0.1	0.78	870	3
Abilene	gravity	5	1	0.1	0.78	683	3
Tulsa21	gravity	5	1	0.1	0.7	4586	3
Tulsa21	gravity	5	1	0.1	0.7	3668	2
CityCenter73	gravity	5	1	0.1	0.7399999999999999	7520	2
CityCenter73	gravity	5	1	0.1	0.7399999999999999	15720	2
fattree-6	gravity	5	1	0.1	0.73	1917	2
fattree-6	gravity	5	1	0.1	0.73	1967	2
fattree-8	gravity	5	1	0.1	0.7999999999999999	16850	2
fattree-8	gravity	5	1	0.1	0.7999999999999999	28714	2
Abilene	gravity	5	1	0.1	0.74	606	2
Abilene	gravity	5	1	0.1	0.74	738	3
Tulsa21	gravity	5	1	0.1	0.7899999999999999	1063	2
Tulsa21	gravity	5	1	0.1	0.7899999999999999	1056	2
CityCenter73	gravity	5	1	0.1	0.73	12728	2
CityCenter73	gravity	5	1	0.1	0.73	10899	2
fattree-6	gravity	5	1	0.1	0.7299999999999999	2260	2
fattree-6	gravity	5	1	0.1	0.7299999999999999	4178	2
fattree-8	gravity	5	1	0.1	0.73	19560	2
fattree-8	gravity	5	1	0.1	0.73	97943	2
Abilene	gravity	5	1	0.1	0.7300000000000001	752	2
Abilene	gravity	5	1	0.1	0.7300000000000001	731	3
Tulsa21	gravity	5	1	0.1	0.7200000000000001	1460	2
Tulsa21	gravity	5	1	0.1	0.7200000000000001	1345	2
CityCenter73	gravity	5	1	0.1	0.74	11124	2
CityCenter73	gravity	5	1	0.1	0.74	9806	2
fattree-6	gravity	5	1	0.1	0.7399999999999999	2773	2
fattree-6	gravity	5	1	0.1	0.7399999999999999	2371	2
fattree-8	gravity	5	1	0.1	0.74	23912	2
fattree-8	gravity	5	1	0.1	0.74	18986	2
Abilene	gravity	5	1	0.1	0.7	802	3
Abilene	gravity	5	1	0.1	0.7	696	3
Tulsa21	gravity	5	1	0.1	0.7799999999999999	1183	2
Tulsa21	gravity	5	1	0.1	0.7799999999999999	1161	2
CityCenter73	gravity	5	1	0.1	0.75	16857	2
CityCenter73	gravity	5	1	0.1	0.75	14389	2
fattree-6	gravity	5	1	0.1	0.79	2429	2
fattree-6	gravity	5	1	0.1	0.79	2652	2
fattree-8	gravity	5	1	0.1	0.7499999999999999	23678	2
fattree-8	gravity	5	1	0.1	0.7499999999999999	39118	2
Abilene	gravity	5	1	0.1	0.77	691	3
Abilene	gravity	5	1	0.1	0.77	711	3
Tulsa21	gravity	5	1	0.1	0.77	1165	2
Tulsa21	gravity	5	1	0.1	0.77	1145	2
CityCenter73	gravity	5	1	0.1	0.71	6276	2
CityCenter73	gravity	5	1	0.1	0.71	9661	2
fattree-6	gravity	5	1	0.1	0.7999999999999999	1784	2
fattree-6	gravity	5	1	0.1	0.7999999999999999	2201	2
fattree-8	gravity	5	1	0.1	0.75	34498	2
fattree-8	gravity	5	1	0.1	0.75	23769	2
Abilene	gravity	5	1	0.1	0.7300000000000001	749	3
Abilene	gravity	5	1	0.1	0.7300000000000001	796	3
Tulsa21	gravity	5	1	0.1	0.7499999999999999	1592	2
Tulsa21	gravity	5	1	0.1	0.7499999999999999	7829	3
CityCenter73	gravity	5	1	0.1	0.74	12528	2
CityCenter73	gravity	5	1	0.1	0.74	11936	2
fattree-6	gravity	5	1	0.1	0.7	5080	2
fattree-6	gravity	5	1	0.1	0.7	3632	2
fattree-8	gravity	5	1	0.1	0.7300000000000001	17324	2
fattree-8	gravity	5	1	0.1	0.7300000000000001	11805	2
Abilene	gravity	5	1	0.1	0.79	690	2
Abilene	gravity	5	1	0.1	0.79	648	2
Tulsa21	gravity	5	1	0.1	0.7299999999999999	5933	3
Tulsa21	gravity	5	1	0.1	0.7299999999999999	1080	2
CityCenter73	gravity	5	1	0.1	0.71	9542	2
CityCenter73	gravity	5	1	0.1	0.71	14044	2
fattree-6	gravity	5	1	0.1	0.7699999999999999	5143	2
fattree-6	gravity	5	1	0.1	0.7699999999999999	2409	2
fattree-8	gravity	5	1	0.1	0.77	11706	2
fattree-8	gravity	5	1	0.1	0.77	30233	2
Abilene	gravity	5	1	0.1	0.74	707	2
Abilene	gravity	5	1	0.1	0.74	696	2
Tulsa21	gravity	5	1	0.1	0.7899999999999999	1114	2
Tulsa21	gravity	5	1	0.1	0.7899999999999999	1136	2
CityCenter73	gravity	5	1	0.1	0.74	6750	2
CityCenter73	gravity	5	1	0.1	0.74	11249	2
fattree-6	gravity	5	1	0.1	0.7600000000000001	3497	2
fattree-6	gravity	5	1	0.1	0.7600000000000001	1829	2
fattree-8	gravity	5	1	0.1	0.7300000000000001	20162	2
fattree-8	gravity	5	1	0.1	0.7300000000000001	17117	2
Abilene	gravity	5	1	0.1	0.76	721	3
Abilene	gravity	5	1	0.1	0.76	723	3
Tulsa21	gravity	5	1	0.1	0.7999999999999999	1024	2
Tulsa21	gravity	5	1	0.1	0.7999999999999999	1070	2
CityCenter73	gravity	5	1	0.1	0.79	4842	2
CityCenter73	gravity	5	1	0.1	0.79	7202	2
fattree-6	gravity	5	1	0.1	0.74	3978	2
fattree-6	gravity	5	1	0.1	0.74	1851	2
fattree-8	gravity	5	1	0.1	0.72	12975	2
fattree-8	gravity	5	1	0.1	0.72	43538	2
Abilene	gravity	5	1	0.1	0.7200000000000001	768	3
Abilene	gravity	5	1	0.1	0.7200000000000001	711	2
Tulsa21	gravity	5	1	0.1	0.71	1034	2
Tulsa21	gravity	5	1	0.1	0.71	1106	2
CityCenter73	gravity	5	1	0.1	0.74	7263	2
CityCenter73	gravity	5	1	0.1	0.74	7963	2
fattree-6	gravity	5	1	0.1	0.79	2394	2
fattree-6	gravity	5	1	0.1	0.79	1878	2
fattree-8	gravity	5	1	0.1	0.7	16263	2
fattree-8	gravity	5	1	0.1	0.7	35009	2
Abilene	gravity	5	1	0.1	0.7900000000000001	736	3
Abilene	gravity	5	1	0.1	0.7900000000000001	773	3
Tulsa21	gravity	5	1	0.1	0.7800000000000001	1001	2
Tulsa21	gravity	5	1	0.1	0.7800000000000001	1194	2
CityCenter73	gravity	5	1	0.1	0.7599999999999999	7486	2
CityCenter73	gravity	5	1	0.1	0.7599999999999999	9548	2
fattree-6	gravity	5	1	0.1	0.7899999999999999	2134	2
fattree-6	gravity	5	1	0.1	0.7899999999999999	2551	2
fattree-8	gravity	5	1	0.1	0.77	24594	2
fattree-8	gravity	5	1	0.1	0.77	30155	2
Abilene	gravity	5	1	0.1	0.71	761	3
Abilene	gravity	5	1	0.1	0.71	746	3
Tulsa21	gravity	5	1	0.1	0.77	2087	2
Tulsa21	gravity	5	1	0.1	0.77	1033	2
CityCenter73	gravity	5	1	0.1	0.76	7007	2
CityCenter73	gravity	5	1	0.1	0.76	5000	2
fattree-6	gravity	5	1	0.1	0.71	2268	2
fattree-6	gravity	5	1	0.1	0.71	5246	2
fattree-8	gravity	5	1	0.1	0.8	14958	2
fattree-8	gravity	5	1	0.1	0.8	52906	2
Abilene	gravity	5	1	0.1	0.76	670	2
Abilene	gravity	5	1	0.1	0.76	634	2
Tulsa21	gravity	5	1	0.1	0.76	1160	2
Tulsa21	gravity	5	1	0.1	0.76	1362	2
CityCenter73	gravity	5	1	0.1	0.76	10251	2
CityCenter73	gravity	5	1	0.1	0.76	13860	2
fattree-6	gravity	5	1	0.1	0.71	1566	2
fattree-6	gravity	5	1	0.1	0.71	1646	2
fattree-8	gravity	5	1	0.1	0.77	12169	2
fattree-8	gravity	5	1	0.1	0.77	61129	2
Abilene	gravity	5	1	0.1	0.7899999999999999	778	3
Abilene	gravity	5	1	0.1	0.7899999999999999	765	3
Tulsa21	gravity	5	1	0.1	0.74	1707	2
Tulsa21	gravity	5	1	0.1	0.74	1105	2
CityCenter73	gravity	5	1	0.1	0.7000000000000001	8990	2
CityCenter73	gravity	5	1	0.1	0.7000000000000001	12726	2
fattree-6	gravity	5	1	0.1	0.75	3608	2
fattree-6	gravity	5	1	0.1	0.75	4028	2
fattree-8	gravity	5	1	0.1	0.7	22893	2
fattree-8	gravity	5	1	0.1	0.7	54547	2
Abilene	gravity	5	1	0.1	0.7000000000000001	830	3
Abilene	gravity	5	1	0.1	0.7000000000000001	826	2
Tulsa21	gravity	5	1	0.1	0.7100000000000001	1879	3
Tulsa21	gravity	5	1	0.1	0.7100000000000001	2371	3
CityCenter73	gravity	5	1	0.1	0.72	7473	2
CityCenter73	gravity	5	1	0.1	0.72	9648	2
fattree-6	gravity	5	1	0.1	0.76	3383	2
fattree-6	gravity	5	1	0.1	0.76	2445	2
fattree-8	gravity	5	1	0.1	0.75	27596	2
fattree-8	gravity	5	1	0.1	0.75	29167	2
Abilene	gravity	5	1	0.1	0.8000000000000002	834	3
Abilene	gravity	5	1	0.1	0.8000000000000002	722	3
Tulsa21	gravity	5	1	0.1	0.77	1161	2
Tulsa21	gravity	5	1	0.1	0.77	1049	2
CityCenter73	gravity	5	1	0.1	0.7199999999999999	16943	2
CityCenter73	gravity	5	1	0.1	0.7199999999999999	10038	2
fattree-6	gravity	5	1	0.1	0.77	1475	2
fattree-6	gravity	5	1	0.1	0.77	1825	2
fattree-8	gravity	5	1	0.1	0.7100000000000001	19777	2
fattree-8	gravity	5	1	0.1	0.7100000000000001	18790	2
Abilene	gravity	5	1	0.1	0.7000000000000001	747	2
Abilene	gravity	5	1	0.1	0.7000000000000001	718	3
Tulsa21	gravity	5	1	0.1	0.7400000000000001	6057	3
Tulsa21	gravity	5	1	0.1	0.7400000000000001	1521	2
CityCenter73	gravity	5	1	0.1	0.73	6969	2
CityCenter73	gravity	5	1	0.1	0.73	7400	2
fattree-6	gravity	5	1	0.1	0.71	2177	2
fattree-6	gravity	5	1	0.1	0.71	2716	2
fattree-8	gravity	5	1	0.1	0.76	13701	2
fattree-8	gravity	5	1	0.1	0.76	10744	2
Abilene	gravity	5	1	0.1	0.7400000000000001	734	3
Abilene	gravity	5	1	0.1	0.7400000000000001	701	3
Tulsa21	gravity	5	1	0.1	0.79	1126	2
Tulsa21	gravity	5	1	0.1	0.79	1009	2
CityCenter73	gravity	5	1	0.1	0.7100000000000001	8772	2
CityCenter73	gravity	5	1	0.1	0.7100000000000001	8329	2
fattree-6	gravity	5	1	0.1	0.79	1764	2
fattree-6	gravity	5	1	0.1	0.79	1811	2
fattree-8	gravity	5	1	0.1	0.7500000000000001	15723	2
fattree-8	gravity	5	1	0.1	0.7500000000000001	43590	2
Abilene	gravity	5	1	0.1	0.7599999999999999	843	3
Abilene	gravity	5	1	0.1	0.7599999999999999	750	3
Tulsa21	gravity	5	1	0.1	0.74	1083	2
Tulsa21	gravity	5	1	0.1	0.74	1062	2
CityCenter73	gravity	5	1	0.1	0.74	17306	2
CityCenter73	gravity	5	1	0.1	0.74	18973	2
fattree-6	gravity	5	1	0.1	0.7300000000000001	2053	2
fattree-6	gravity	5	1	0.1	0.7300000000000001	5530	2
fattree-8	gravity	5	1	0.1	0.75	15837	2
fattree-8	gravity	5	1	0.1	0.75	16066	2
Abilene	gravity	5	1	0.1	0.7999999999999999	663	2
Abilene	gravity	5	1	0.1	0.7999999999999999	706	2
Tulsa21	gravity	5	1	0.1	0.7	1232	2
Tulsa21	gravity	5	1	0.1	0.7	1133	2
CityCenter73	gravity	5	1	0.1	0.78	10273	2
CityCenter73	gravity	5	1	0.1	0.78	8770	2
fattree-6	gravity	5	1	0.1	0.73	1726	2
fattree-6	gravity	5	1	0.1	0.73	1900	2
fattree-8	gravity	5	1	0.1	0.78	12561	2
fattree-8	gravity	5	1	0.1	0.78	21129	2
Abilene	gravity	5	1	0.1	0.77	780	3
Abilene	gravity	5	1	0.1	0.77	763	3
Tulsa21	gravity	5	1	0.1	0.7200000000000001	986	2
Tulsa21	gravity	5	1	0.1	0.7200000000000001	1410	2
CityCenter73	gravity	5	1	0.1	0.79	12233	2
CityCenter73	gravity	5	1	0.1	0.79	10965	2
fattree-6	gravity	5	1	0.1	0.73	3190	2
fattree-6	gravity	5	1	0.1	0.73	2830	2
fattree-8	gravity	5	1	0.1	0.7600000000000001	22693	2
fattree-8	gravity	5	1	0.1	0.7600000000000001	12730	2
Abilene	gravity	5	1	0.1	0.7200000000000001	762	3
Abilene	gravity	5	1	0.1	0.7200000000000001	743	3
Tulsa21	gravity	5	1	0.1	0.7200000000000001	1948	3
Tulsa21	gravity	5	1	0.1	0.7200000000000001	1684	2
CityCenter73	gravity	5	1	0.1	0.8	8582	2
CityCenter73	gravity	5	1	0.1	0.8	5614	2
fattree-6	gravity	5	1	0.1	0.73	1679	2
fattree-6	gravity	5	1	0.1	0.73	2500	2
fattree-8	gravity	5	1	0.1	0.75	12311	2
fattree-8	gravity	5	1	0.1	0.75	25405	2
Abilene	gravity	5	1	0.1	0.73	740	2
Abilene	gravity	5	1	0.1	0.73	738	3
Tulsa21	gravity	5	1	0.1	0.7	880	2
Tulsa21	gravity	5	1	0.1	0.7	1458	2
CityCenter73	gravity	5	1	0.1	0.7600000000000001	6330	2
CityCenter73	gravity	5	1	0.1	0.7600000000000001	13967	2
fattree-6	gravity	5	1	0.1	0.7299999999999999	2325	2
fattree-6	gravity	5	1	0.1	0.7299999999999999	3419	2
fattree-8	gravity	5	1	0.1	0.75	19677	2
fattree-8	gravity	5	1	0.1	0.75	28196	2
Abilene	gravity	5	1	0.1	0.7699999999999999	752	3
Abilene	gravity	5	1	0.1	0.7699999999999999	788	3
Tulsa21	gravity	5	1	0.1	0.76	1401	2
Tulsa21	gravity	5	1	0.1	0.76	1260	2
CityCenter73	gravity	5	1	0.1	0.7	25011	2
CityCenter73	gravity	5	1	0.1	0.7	17898	2
fattree-6	gravity	5	1	0.1	0.7000000000000001	4991	2
fattree-6	gravity	5	1	0.1	0.7000000000000001	2016	2
fattree-8	gravity	5	1	0.1	0.8	8928	2
fattree-8	gravity	5	1	0.1	0.8	16162	2
Abilene	gravity	5	1	0.1	0.79	671	2
Abilene	gravity	5	1	0.1	0.79	709	3
Tulsa21	gravity	5	1	0.1	0.72	1469	2
Tulsa21	gravity	5	1	0.1	0.72	1147	2
CityCenter73	gravity	5	1	0.1	0.79	15429	2
CityCenter73	gravity	5	1	0.1	0.79	16637	2
fattree-6	gravity	5	1	0.1	0.76	2480	2
fattree-6	gravity	5	1	0.1	0.76	2507	2
fattree-8	gravity	5	1	0.1	0.7300000000000001	8884	2
fattree-8	gravity	5	1	0.1	0.7300000000000001	62246	2
Abilene	gravity	5	1	0.1	0.78	736	2
Abilene	gravity	5	1	0.1	0.78	742	3
Tulsa21	gravity	5	1	0.1	0.77	1220	2
Tulsa21	gravity	5	1	0.1	0.77	1220	2
CityCenter73	gravity	5	1	0.1	0.7899999999999999	9510	2
CityCenter73	gravity	5	1	0.1	0.7899999999999999	9399	2
fattree-6	gravity	5	1	0.1	0.7699999999999999	1872	2
fattree-6	gravity	5	1	0.1	0.7699999999999999	2880	2
fattree-8	gravity	5	1	0.1	0.7999999999999999	12839	2
fattree-8	gravity	5	1	0.1	0.7999999999999999	17359	2
Abilene	gravity	5	1	0.1	0.74	762	3
Abilene	gravity	5	1	0.1	0.74	706	3
Tulsa21	gravity	5	1	0.1	0.7300000000000001	1024	2
Tulsa21	gravity	5	1	0.1	0.7300000000000001	1152	2
CityCenter73	gravity	5	1	0.1	0.7	7999	2
CityCenter73	gravity	5	1	0.1	0.7	10234	2
fattree-6	gravity	5	1	0.1	0.74	2112	2
fattree-6	gravity	5	1	0.1	0.74	2577	2
fattree-8	gravity	5	1	0.1	0.7	14846	2
fattree-8	gravity	5	1	0.1	0.7	20893	2
Abilene	gravity	5	1	0.1	0.74	715	3
Abilene	gravity	5	1	0.1	0.74	692	3
Tulsa21	gravity	5	1	0.1	0.79	2749	3
Tulsa21	gravity	5	1	0.1	0.79	8749	3
CityCenter73	gravity	5	1	0.1	0.78	7533	2
CityCenter73	gravity	5	1	0.1	0.78	6800	2
fattree-6	gravity	5	1	0.1	0.7	2550	2
fattree-6	gravity	5	1	0.1	0.7	3328	2
fattree-8	gravity	5	1	0.1	0.78	13526	2
fattree-8	gravity	5	1	0.1	0.78	30305	2
Abilene	gravity	5	1	0.1	0.79	686	2
Abilene	gravity	5	1	0.1	0.79	631	2
Tulsa21	gravity	5	1	0.1	0.76	2750	3
Tulsa21	gravity	5	1	0.1	0.76	4433	2
CityCenter73	gravity	5	1	0.1	0.72	17863	2
CityCenter73	gravity	5	1	0.1	0.72	6967	2
fattree-6	gravity	5	1	0.1	0.74	2174	2
fattree-6	gravity	5	1	0.1	0.74	1890	2
fattree-8	gravity	5	1	0.1	0.78	17147	2
fattree-8	gravity	5	1	0.1	0.78	18999	2
Abilene	gravity	5	1	0.1	0.7	725	3
Abilene	gravity	5	1	0.1	0.7	766	3
Tulsa21	gravity	5	1	0.1	0.78	1135	2
Tulsa21	gravity	5	1	0.1	0.78	1012	2
CityCenter73	gravity	5	1	0.1	0.7300000000000001	11313	2
CityCenter73	gravity	5	1	0.1	0.7300000000000001	5313	2
fattree-6	gravity	5	1	0.1	0.72	2627	2
fattree-6	gravity	5	1	0.1	0.72	3127	2
fattree-8	gravity	5	1	0.1	0.75	15009	2
fattree-8	gravity	5	1	0.1	0.75	47628	2
Abilene	gravity	5	1	0.1	0.7600000000000001	679	2
Abilene	gravity	5	1	0.1	0.7600000000000001	713	3
Tulsa21	gravity	5	1	0.1	0.7200000000000001	1972	2
Tulsa21	gravity	5	1	0.1	0.7200000000000001	1515	2
CityCenter73	gravity	5	1	0.1	0.75	10285	2
CityCenter73	gravity	5	1	0.1	0.75	8262	2
fattree-6	gravity	5	1	0.1	0.74	2433	2
fattree-6	gravity	5	1	0.1	0.74	1965	2
fattree-8	gravity	5	1	0.1	0.71	25727	2
fattree-8	gravity	5	1	0.1	0.71	20271	2
Abilene	gravity	5	1	0.1	0.73	714	3
Abilene	gravity	5	1	0.1	0.73	718	3
Tulsa21	gravity	5	1	0.1	0.7000000000000001	4077	3
Tulsa21	gravity	5	1	0.1	0.7000000000000001	5887	3
CityCenter73	gravity	5	1	0.1	0.7100000000000001	12299	2
CityCenter73	gravity	5	1	0.1	0.7100000000000001	11474	2
fattree-6	gravity	5	1	0.1	0.71	1872	2
fattree-6	gravity	5	1	0.1	0.71	2217	2
fattree-8	gravity	5	1	0.1	0.7100000000000001	14633	2
fattree-8	gravity	5	1	0.1	0.7100000000000001	34391	2
Abilene	gravity	5	1	0.1	0.78	908	3
Abilene	gravity	5	1	0.1	0.78	706	3
Tulsa21	gravity	5	1	0.1	0.7999999999999999	1211	2
Tulsa21	gravity	5	1	0.1	0.7999999999999999	1449	2
CityCenter73	gravity	5	1	0.1	0.8	14254	2
CityCenter73	gravity	5	1	0.1	0.8	9900	2
fattree-6	gravity	5	1	0.1	0.6999999999999998	2080	2
fattree-6	gravity	5	1	0.1	0.6999999999999998	2134	2
fattree-8	gravity	5	1	0.1	0.79	22865	2
fattree-8	gravity	5	1	0.1	0.79	22057	2
Abilene	gravity	5	1	0.1	0.71	742	3
Abilene	gravity	5	1	0.1	0.71	734	3
Tulsa21	gravity	5	1	0.1	0.74	1402	2
Tulsa21	gravity	5	1	0.1	0.74	2560	3
CityCenter73	gravity	5	1	0.1	0.7200000000000001	7846	2
CityCenter73	gravity	5	1	0.1	0.7200000000000001	30895	2
fattree-6	gravity	5	1	0.1	0.7099999999999999	6458	2
fattree-6	gravity	5	1	0.1	0.7099999999999999	2172	2
fattree-8	gravity	5	1	0.1	0.75	30552	2
fattree-8	gravity	5	1	0.1	0.75	14008	2
Abilene	gravity	5	1	0.1	0.7999999999999999	731	3
Abilene	gravity	5	1	0.1	0.7999999999999999	831	3
Tulsa21	gravity	5	1	0.1	0.8000000000000002	1915	2
Tulsa21	gravity	5	1	0.1	0.8000000000000002	1258	2
CityCenter73	gravity	5	1	0.1	0.7699999999999999	9348	2
CityCenter73	gravity	5	1	0.1	0.7699999999999999	8114	2
fattree-6	gravity	5	1	0.1	0.7600000000000001	2979	2
fattree-6	gravity	5	1	0.1	0.7600000000000001	2686	2
fattree-8	gravity	5	1	0.1	0.7999999999999999	21346	2
fattree-8	gravity	5	1	0.1	0.7999999999999999	17829	2
Abilene	gravity	5	1	0.1	0.76	743	2
Abilene	gravity	5	1	0.1	0.76	708	3
Tulsa21	gravity	5	1	0.1	0.8	1442	2
Tulsa21	gravity	5	1	0.1	0.8	3613	3
CityCenter73	gravity	5	1	0.1	0.73	18120	2
CityCenter73	gravity	5	1	0.1	0.73	10664	2
fattree-6	gravity	5	1	0.1	0.7100000000000001	2347	2
fattree-6	gravity	5	1	0.1	0.7100000000000001	3254	2
fattree-8	gravity	5	1	0.1	0.75	10572	2
fattree-8	gravity	5	1	0.1	0.75	40336	2
Abilene	gravity	5	1	0.1	0.77	823	3
Abilene	gravity	5	1	0.1	0.77	700	3
Tulsa21	gravity	5	1	0.1	0.7200000000000001	965	2
Tulsa21	gravity	5	1	0.1	0.7200000000000001	1150	2
CityCenter73	gravity	5	1	0.1	0.79	10285	2
CityCenter73	gravity	5	1	0.1	0.79	19909	2
fattree-6	gravity	5	1	0.1	0.71	2779	2
fattree-6	gravity	5	1	0.1	0.71	3204	2
fattree-8	gravity	5	1	0.1	0.7400000000000001	27817	2
fattree-8	gravity	5	1	0.1	0.7400000000000001	38977	2
Abilene	gravity	5	1	0.1	0.73	618	2
Abilene	gravity	5	1	0.1	0.73	769	2
Tulsa21	gravity	5	1	0.1	0.7300000000000001	2799	3
Tulsa21	gravity	5	1	0.1	0.7300000000000001	2933	3
CityCenter73	gravity	5	1	0.1	0.77	23855	2
CityCenter73	gravity	5	1	0.1	0.77	19903	2
fattree-6	gravity	5	1	0.1	0.7999999999999999	2005	2
fattree-6	gravity	5	1	0.1	0.7999999999999999	1986	2
fattree-8	gravity	5	1	0.1	0.7799999999999999	16926	2
fattree-8	gravity	5	1	0.1	0.7799999999999999	19312	2
Abilene	gravity	5	1	0.1	0.71	655	2
Abilene	gravity	5	1	0.1	0.71	654	2
Tulsa21	gravity	5	1	0.1	0.7200000000000001	1393	2
Tulsa21	gravity	5	1	0.1	0.7200000000000001	1275	2
CityCenter73	gravity	5	1	0.1	0.7000000000000001	8579	2
CityCenter73	gravity	5	1	0.1	0.7000000000000001	14520	2
fattree-6	gravity	5	1	0.1	0.77	2849	2
fattree-6	gravity	5	1	0.1	0.77	2689	2
fattree-8	gravity	5	1	0.1	0.7400000000000001	39095	2
fattree-8	gravity	5	1	0.1	0.7400000000000001	68712	2
Abilene	gravity	5	1	0.1	0.78	736	3
Abilene	gravity	5	1	0.1	0.78	689	3
Tulsa21	gravity	5	1	0.1	0.7899999999999999	1209	2
Tulsa21	gravity	5	1	0.1	0.7899999999999999	1018	2
CityCenter73	gravity	5	1	0.1	0.7500000000000001	10144	2
CityCenter73	gravity	5	1	0.1	0.7500000000000001	9500	2
fattree-6	gravity	5	1	0.1	0.78	2783	2
fattree-6	gravity	5	1	0.1	0.78	2360	2
fattree-8	gravity	5	1	0.1	0.75	16867	2
fattree-8	gravity	5	1	0.1	0.75	24889	2
Abilene	gravity	5	1	0.1	0.7499999999999999	729	2
Abilene	gravity	5	1	0.1	0.7499999999999999	708	2
Tulsa21	gravity	5	1	0.1	0.77	2985	3
Tulsa21	gravity	5	1	0.1	0.77	6127	3
CityCenter73	gravity	5	1	0.1	0.7100000000000001	17130	2
CityCenter73	gravity	5	1	0.1	0.7100000000000001	7860	2
fattree-6	gravity	5	1	0.1	0.78	2698	2
fattree-6	gravity	5	1	0.1	0.78	2006	2
fattree-8	gravity	5	1	0.1	0.7899999999999999	15943	2
fattree-8	gravity	5	1	0.1	0.7899999999999999	10735	2
Abilene	gravity	5	1	0.1	0.71	715	3
Abilene	gravity	5	1	0.1	0.71	745	3
Tulsa21	gravity	5	1	0.1	0.72	1537	2
Tulsa21	gravity	5	1	0.1	0.72	870	2
CityCenter73	gravity	5	1	0.1	0.77	10720	2
CityCenter73	gravity	5	1	0.1	0.77	13637	2
fattree-6	gravity	5	1	0.1	0.7200000000000001	3215	2
fattree-6	gravity	5	1	0.1	0.7200000000000001	2638	2
fattree-8	gravity	5	1	0.1	0.8	15975	2
fattree-8	gravity	5	1	0.1	0.8	49118	2
Abilene	gravity	5	1	0.1	0.7600000000000001	623	2
Abilene	gravity	5	1	0.1	0.7600000000000001	784	3
Tulsa21	gravity	5	1	0.1	0.7699999999999999	1210	2
Tulsa21	gravity	5	1	0.1	0.7699999999999999	1102	2
CityCenter73	gravity	5	1	0.1	0.73	9398	2
CityCenter73	gravity	5	1	0.1	0.73	9517	2
fattree-6	gravity	5	1	0.1	0.79	2461	2
fattree-6	gravity	5	1	0.1	0.79	2287	2
fattree-8	gravity	5	1	0.1	0.7099999999999999	27397	2
fattree-8	gravity	5	1	0.1	0.7099999999999999	63216	2
Abilene	gravity	5	1	0.1	0.7600000000000001	707	3
Abilene	gravity	5	1	0.1	0.7600000000000001	774	2
Tulsa21	gravity	5	1	0.1	0.8	1100	2
Tulsa21	gravity	5	1	0.1	0.8	1026	2
CityCenter73	gravity	5	1	0.1	0.7100000000000001	15139	2
CityCenter73	gravity	5	1	0.1	0.7100000000000001	11894	2
fattree-6	gravity	5	1	0.1	0.76	1816	2
fattree-6	gravity	5	1	0.1	0.76	2484	2
fattree-8	gravity	5	1	0.1	0.8000000000000002	17687	2
fattree-8	gravity	5	1	0.1	0.8000000000000002	42289	2
Abilene	gravity	5	1	0.1	0.7799999999999999	689	2
Abilene	gravity	5	1	0.1	0.7799999999999999	676	3
Tulsa21	gravity	5	1	0.1	0.77	1100	2
Tulsa21	gravity	5	1	0.1	0.77	1412	2
CityCenter73	gravity	5	1	0.1	0.71	7787	2
CityCenter73	gravity	5	1	0.1	0.71	9222	2
fattree-6	gravity	5	1	0.1	0.7999999999999999	1860	2
fattree-6	gravity	5	1	0.1	0.7999999999999999	2095	2
fattree-8	gravity	5	1	0.1	0.72	10573	2
fattree-8	gravity	5	1	0.1	0.72	43656	2
Abilene	gravity	5	1	0.1	0.79	766	2
Abilene	gravity	5	1	0.1	0.79	846	3
Tulsa21	gravity	5	1	0.1	0.7	1197	2
Tulsa21	gravity	5	1	0.1	0.7	1490	2
CityCenter73	gravity	5	1	0.1	0.76	23634	2
CityCenter73	gravity	5	1	0.1	0.76	8740	2
fattree-6	gravity	5	1	0.1	0.7599999999999999	2306	2
fattree-6	gravity	5	1	0.1	0.7599999999999999	1614	2
fattree-8	gravity	5	1	0.1	0.75	18866	2
fattree-8	gravity	5	1	0.1	0.75	29554	2
Abilene	gravity	5	1	0.1	0.77	661	2
Abilene	gravity	5	1	0.1	0.77	695	2
Tulsa21	gravity	5	1	0.1	0.7100000000000001	1775	2
Tulsa21	gravity	5	1	0.1	0.7100000000000001	1108	2
CityCenter73	gravity	5	1	0.1	0.79	8586	2
CityCenter73	gravity	5	1	0.1	0.79	4798	2
fattree-6	gravity	5	1	0.1	0.75	5263	2
fattree-6	gravity	5	1	0.1	0.75	2257	2
fattree-8	gravity	5	1	0.1	0.7599999999999999	35540	2
fattree-8	gravity	5	1	0.1	0.7599999999999999	34795	2
Abilene	gravity	5	1	0.1	0.7599999999999999	759	3
Abilene	gravity	5	1	0.1	0.7599999999999999	748	3
Tulsa21	gravity	5	1	0.1	0.8	2998	3
Tulsa21	gravity	5	1	0.1	0.8	1996	3
CityCenter73	gravity	5	1	0.1	0.75	9491	2
CityCenter73	gravity	5	1	0.1	0.75	13938	2
fattree-6	gravity	5	1	0.1	0.7100000000000001	2041	2
fattree-6	gravity	5	1	0.1	0.7100000000000001	1922	2
fattree-8	gravity	5	1	0.1	0.7599999999999999	26738	2
fattree-8	gravity	5	1	0.1	0.7599999999999999	9118	2
Abilene	gravity	5	1	0.1	0.78	676	2
Abilene	gravity	5	1	0.1	0.78	656	2
Tulsa21	gravity	5	1	0.1	0.7800000000000001	1484	2
Tulsa21	gravity	5	1	0.1	0.7800000000000001	1423	2
CityCenter73	gravity	5	1	0.1	0.75	14844	2
CityCenter73	gravity	5	1	0.1	0.75	7826	2
fattree-6	gravity	5	1	0.1	0.8	1548	2
fattree-6	gravity	5	1	0.1	0.8	1846	2
fattree-8	gravity	5	1	0.1	0.7200000000000001	18065	2
fattree-8	gravity	5	1	0.1	0.7200000000000001	17497	2
Abilene	gravity	5	1	0.1	0.74	818	3
Abilene	gravity	5	1	0.1	0.74	587	2
Tulsa21	gravity	5	1	0.1	0.7	1104	2
Tulsa21	gravity	5	1	0.1	0.7	1260	2
CityCenter73	gravity	5	1	0.1	0.7400000000000001	10289	2
CityCenter73	gravity	5	1	0.1	0.7400000000000001	8883	2
fattree-6	gravity	5	1	0.1	0.8	4030	2
fattree-6	gravity	5	1	0.1	0.8	2618	2
fattree-8	gravity	5	1	0.1	0.75	16913	2
fattree-8	gravity	5	1	0.1	0.75	16255	2
Abilene	gravity	5	1	0.1	0.76	771	3
Abilene	gravity	5	1	0.1	0.76	779	3
Tulsa21	gravity	5	1	0.1	0.77	1322	2
Tulsa21	gravity	5	1	0.1	0.77	1215	2
CityCenter73	gravity	5	1	0.1	0.74	14780	2
CityCenter73	gravity	5	1	0.1	0.74	21243	2
fattree-6	gravity	5	1	0.1	0.7800000000000001	2388	2
fattree-6	gravity	5	1	0.1	0.7800000000000001	4141	2
fattree-8	gravity	5	1	0.1	0.7899999999999999	20675	2
fattree-8	gravity	5	1	0.1	0.7899999999999999	19018	2
Abilene	gravity	5	1	0.1	0.75	706	2
Abilene	gravity	5	1	0.1	0.75	698	2
Tulsa21	gravity	5	1	0.1	0.71	1175	2
Tulsa21	gravity	5	1	0.1	0.71	2488	2
CityCenter73	gravity	5	1	0.1	0.74	10162	2
CityCenter73	gravity	5	1	0.1	0.74	17023	2
fattree-6	gravity	5	1	0.1	0.7500000000000001	3947	2
fattree-6	gravity	5	1	0.1	0.7500000000000001	1724	2
fattree-8	gravity	5	1	0.1	0.7699999999999999	23486	2
fattree-8	gravity	5	1	0.1	0.7699999999999999	24641	2
Abilene	gravity	5	1	0.1	0.7	779	3
Abilene	gravity	5	1	0.1	0.7	763	3
Tulsa21	gravity	5	1	0.1	0.77	1122	2
Tulsa21	gravity	5	1	0.1	0.77	1291	2
CityCenter73	gravity	5	1	0.1	0.7	8278	2
CityCenter73	gravity	5	1	0.1	0.7	8085	2
fattree-6	gravity	5	1	0.1	0.72	1875	2
fattree-6	gravity	5	1	0.1	0.72	3161	2
fattree-8	gravity	5	1	0.1	0.7	18711	2
fattree-8	gravity	5	1	0.1	0.7	10437	2
Abilene	gravity	5	1	0.1	0.7	762	3
Abilene	gravity	5	1	0.1	0.7	799	3
Tulsa21	gravity	5	1	0.1	0.7999999999999999	1023	2
Tulsa21	gravity	5	1	0.1	0.7999999999999999	1110	2
CityCenter73	gravity	5	1	0.1	0.76	19511	2
CityCenter73	gravity	5	1	0.1	0.76	10639	2
fattree-6	gravity	5	1	0.1	0.7000000000000001	2952	2
fattree-6	gravity	5	1	0.1	0.7000000000000001	3501	2
fattree-8	gravity	5	1	0.1	0.7100000000000001	46000	2
fattree-8	gravity	5	1	0.1	0.7100000000000001	118884	2
Abilene	gravity	5	1	0.1	0.75	707	2
Abilene	gravity	5	1	0.1	0.75	688	3
Tulsa21	gravity	5	1	0.1	0.79	1008	2
Tulsa21	gravity	5	1	0.1	0.79	1392	2
CityCenter73	gravity	5	1	0.1	0.8	8470	2
CityCenter73	gravity	5	1	0.1	0.8	8349	2
fattree-6	gravity	5	1	0.1	0.77	1959	2
fattree-6	gravity	5	1	0.1	0.77	7184	2
fattree-8	gravity	5	1	0.1	0.75	18176	2
fattree-8	gravity	5	1	0.1	0.75	26511	2
Abilene	gravity	5	1	0.1	0.7200000000000001	711	3
Abilene	gravity	5	1	0.1	0.7200000000000001	788	3
Tulsa21	gravity	5	1	0.1	0.73	1012	2
Tulsa21	gravity	5	1	0.1	0.73	1178	2
CityCenter73	gravity	5	1	0.1	0.71	12754	2
CityCenter73	gravity	5	1	0.1	0.71	8645	2
fattree-6	gravity	5	1	0.1	0.7999999999999999	2149	2
fattree-6	gravity	5	1	0.1	0.7999999999999999	2879	2
fattree-8	gravity	5	1	0.1	0.7100000000000001	21514	2
fattree-8	gravity	5	1	0.1	0.7100000000000001	31991	2
Abilene	gravity	5	1	0.1	0.78	762	3
Abilene	gravity	5	1	0.1	0.78	807	3
Tulsa21	gravity	5	1	0.1	0.7799999999999999	1004	2
Tulsa21	gravity	5	1	0.1	0.7799999999999999	2321	3
CityCenter73	gravity	5	1	0.1	0.7200000000000001	13335	2
CityCenter73	gravity	5	1	0.1	0.7200000000000001	11878	2
fattree-6	gravity	5	1	0.1	0.7000000000000001	2118	2
fattree-6	gravity	5	1	0.1	0.7000000000000001	3953	2
fattree-8	gravity	5	1	0.1	0.7	46684	2
fattree-8	gravity	5	1	0.1	0.7	42962	2
Abilene	gravity	5	1	0.1	0.79	691	3
Abilene	gravity	5	1	0.1	0.79	728	3
Tulsa21	gravity	5	1	0.1	0.7699999999999999	6089	2
Tulsa21	gravity	5	1	0.1	0.7699999999999999	2071	2
CityCenter73	gravity	5	1	0.1	0.7000000000000001	6613	2
CityCenter73	gravity	5	1	0.1	0.7000000000000001	8327	2
fattree-6	gravity	5	1	0.1	0.79	3348	2
fattree-6	gravity	5	1	0.1	0.79	2388	2
fattree-8	gravity	5	1	0.1	0.73	18493	2
fattree-8	gravity	5	1	0.1	0.73	17141	2
Abilene	gravity	5	1	0.1	0.7	845	3
Abilene	gravity	5	1	0.1	0.7	762	3
Tulsa21	gravity	5	1	0.1	0.76	4351	3
Tulsa21	gravity	5	1	0.1	0.76	1720	2
CityCenter73	gravity	5	1	0.1	0.7899999999999999	17954	2
CityCenter73	gravity	5	1	0.1	0.7899999999999999	6944	2
fattree-6	gravity	5	1	0.1	0.7300000000000001	2077	2
fattree-6	gravity	5	1	0.1	0.7300000000000001	1636	2
fattree-8	gravity	5	1	0.1	0.7699999999999999	31386	2
fattree-8	gravity	5	1	0.1	0.7699999999999999	16140	2
Abilene	gravity	5	1	0.1	0.73	733	3
Abilene	gravity	5	1	0.1	0.73	755	3
Tulsa21	gravity	5	1	0.1	0.7799999999999999	1237	2
Tulsa21	gravity	5	1	0.1	0.7799999999999999	1255	2
CityCenter73	gravity	5	1	0.1	0.73	5608	2
CityCenter73	gravity	5	1	0.1	0.73	10665	2
fattree-6	gravity	5	1	0.1	0.71	4205	2
fattree-6	gravity	5	1	0.1	0.71	4110	2
fattree-8	gravity	5	1	0.1	0.76	16284	2
fattree-8	gravity	5	1	0.1	0.76	23313	2
Abilene	gravity	5	1	0.1	0.7	791	3
Abilene	gravity	5	1	0.1	0.7	845	3
Tulsa21	gravity	5	1	0.1	0.72	1401	2
Tulsa21	gravity	5	1	0.1	0.72	6085	3
CityCenter73	gravity	5	1	0.1	0.7799999999999999	7341	2
CityCenter73	gravity	5	1	0.1	0.7799999999999999	6620	2
fattree-6	gravity	5	1	0.1	0.7599999999999999	3829	2
fattree-6	gravity	5	1	0.1	0.7599999999999999	1554	2
fattree-8	gravity	5	1	0.1	0.72	11098	2
fattree-8	gravity	5	1	0.1	0.72	18601	2
Abilene	gravity	5	1	0.1	0.8	781	3
Abilene	gravity	5	1	0.1	0.8	675	3
Tulsa21	gravity	5	1	0.1	0.79	1166	2
Tulsa21	gravity	5	1	0.1	0.79	1232	2
CityCenter73	gravity	5	1	0.1	0.8	36603	2
CityCenter73	gravity	5	1	0.1	0.8	9489	2
fattree-6	gravity	5	1	0.1	0.71	2879	2
fattree-6	gravity	5	1	0.1	0.71	3403	2
fattree-8	gravity	5	1	0.1	0.71	30043	2
fattree-8	gravity	5	1	0.1	0.71	70691	2
Abilene	gravity	5	1	0.1	0.7600000000000001	733	3
Abilene	gravity	5	1	0.1	0.7600000000000001	857	3
Tulsa21	gravity	5	1	0.1	0.7000000000000001	5089	3
Tulsa21	gravity	5	1	0.1	0.7000000000000001	3140	3
CityCenter73	gravity	5	1	0.1	0.7200000000000001	8534	2
CityCenter73	gravity	5	1	0.1	0.7200000000000001	6348	2
fattree-6	gravity	5	1	0.1	0.75	3347	2
fattree-6	gravity	5	1	0.1	0.75	1912	2
fattree-8	gravity	5	1	0.1	0.77	14207	2
fattree-8	gravity	5	1	0.1	0.77	24577	2
Abilene	gravity	5	1	0.1	0.7599999999999999	724	3
Abilene	gravity	5	1	0.1	0.7599999999999999	800	3
Tulsa21	gravity	5	1	0.1	0.73	3022	3
Tulsa21	gravity	5	1	0.1	0.73	2089	2
CityCenter73	gravity	5	1	0.1	0.7200000000000001	10585	2
CityCenter73	gravity	5	1	0.1	0.7200000000000001	9533	2
fattree-6	gravity	5	1	0.1	0.72	2447	2
fattree-6	gravity	5	1	0.1	0.72	2590	2
fattree-8	gravity	5	1	0.1	0.72	17907	2
fattree-8	gravity	5	1	0.1	0.72	24333	2
Abilene	gravity	5	1	0.1	0.75	739	3
Abilene	gravity	5	1	0.1	0.75	767	3
Tulsa21	gravity	5	1	0.1	0.7000000000000001	1589	2
Tulsa21	gravity	5	1	0.1	0.7000000000000001	1561	2
CityCenter73	gravity	5	1	0.1	0.76	22870	2
CityCenter73	gravity	5	1	0.1	0.76	9497	2
fattree-6	gravity	5	1	0.1	0.7399999999999999	2480	2
fattree-6	gravity	5	1	0.1	0.7399999999999999	5222	2
fattree-8	gravity	5	1	0.1	0.77	23302	2
fattree-8	gravity	5	1	0.1	0.77	15831	2
Abilene	gravity	5	1	0.1	0.7	832	3
Abilene	gravity	5	1	0.1	0.7	843	3
Tulsa21	gravity	5	1	0.1	0.7799999999999999	1100	2
Tulsa21	gravity	5	1	0.1	0.7799999999999999	1489	2
CityCenter73	gravity	5	1	0.1	0.75	11663	2
CityCenter73	gravity	5	1	0.1	0.75	15596	2
fattree-6	gravity	5	1	0.1	0.76	2507	2
fattree-6	gravity	5	1	0.1	0.76	1971	2
fattree-8	gravity	5	1	0.1	0.7000000000000001	23727	2
fattree-8	gravity	5	1	0.1	0.7000000000000001	35656	2
Abilene	gravity	5	1	0.1	0.7999999999999999	850	2
Abilene	gravity	5	1	0.1	0.7999999999999999	690	3
Tulsa21	gravity	5	1	0.1	0.72	1316	2
Tulsa21	gravity	5	1	0.1	0.72	1165	2
CityCenter73	gravity	5	1	0.1	0.7400000000000001	7389	2
CityCenter73	gravity	5	1	0.1	0.7400000000000001	8161	2
fattree-6	gravity	5	1	0.1	0.78	3169	2
fattree-6	gravity	5	1	0.1	0.78	2756	2
fattree-8	gravity	5	1	0.1	0.7000000000000001	23906	2
fattree-8	gravity	5	1	0.1	0.7000000000000001	108425	2
Abilene	gravity	5	1	0.1	0.7599999999999999	690	3
Abilene	gravity	5	1	0.1	0.7599999999999999	706	3
Tulsa21	gravity	5	1	0.1	0.73	4243	3
Tulsa21	gravity	5	1	0.1	0.73	2302	2
CityCenter73	gravity	5	1	0.1	0.79	5199	2
CityCenter73	gravity	5	1	0.1	0.79	9399	2
fattree-6	gravity	5	1	0.1	0.7699999999999999	1618	2
fattree-6	gravity	5	1	0.1	0.7699999999999999	2634	2
fattree-8	gravity	5	1	0.1	0.72	19303	2
fattree-8	gravity	5	1	0.1	0.72	27333	2
Abilene	gravity	5	1	0.1	0.8	750	3
Abilene	gravity	5	1	0.1	0.8	688	3
Tulsa21	gravity	5	1	0.1	0.75	4525	3
Tulsa21	gravity	5	1	0.1	0.75	2024	2
CityCenter73	gravity	5	1	0.1	0.7699999999999999	7018	2
CityCenter73	gravity	5	1	0.1	0.7699999999999999	8967	2
fattree-6	gravity	5	1	0.1	0.74	4465	2
fattree-6	gravity	5	1	0.1	0.74	2404	2
fattree-8	gravity	5	1	0.1	0.72	17972	2
fattree-8	gravity	5	1	0.1	0.72	147230	2
Abilene	gravity	5	1	0.1	0.78	654	2
Abilene	gravity	5	1	0.1	0.78	708	3
Tulsa21	gravity	5	1	0.1	0.78	1520	2
Tulsa21	gravity	5	1	0.1	0.78	1305	2
CityCenter73	gravity	5	1	0.1	0.71	12163	2
CityCenter73	gravity	5	1	0.1	0.71	9368	2
fattree-6	gravity	5	1	0.1	0.72	3479	2
fattree-6	gravity	5	1	0.1	0.72	2342	2
fattree-8	gravity	5	1	0.1	0.75	43285	2
fattree-8	gravity	5	1	0.1	0.75	23012	2
Abilene	gravity	5	1	0.1	0.7000000000000001	743	2
Abilene	gravity	5	1	0.1	0.7000000000000001	706	3
Tulsa21	gravity	5	1	0.1	0.78	1318	2
Tulsa21	gravity	5	1	0.1	0.78	1241	2
CityCenter73	gravity	5	1	0.1	0.7799999999999999	12427	2
CityCenter73	gravity	5	1	0.1	0.7799999999999999	23458	2
fattree-6	gravity	5	1	0.1	0.74	1996	2
fattree-6	gravity	5	1	0.1	0.74	1694	2
fattree-8	gravity	5	1	0.1	0.8	15698	2
fattree-8	gravity	5	1	0.1	0.8	11342	2
Abilene	gravity	5	1	0.1	0.7000000000000001	660	3
Abilene	gravity	5	1	0.1	0.7000000000000001	757	3
Tulsa21	gravity	5	1	0.1	0.78	1557	2
Tulsa21	gravity	5	1	0.1	0.78	1289	2
CityCenter73	gravity	5	1	0.1	0.7200000000000001	14054	2
CityCenter73	gravity	5	1	0.1	0.7200000000000001	27584	2
fattree-6	gravity	5	1	0.1	0.74	3791	2
fattree-6	gravity	5	1	0.1	0.74	2700	2
fattree-8	gravity	5	1	0.1	0.73	31665	2
fattree-8	gravity	5	1	0.1	0.73	21725	2
Abilene	gravity	5	1	0.1	0.78	747	3
Abilene	gravity	5	1	0.1	0.78	732	3
Tulsa21	gravity	5	1	0.1	0.76	2474	3
Tulsa21	gravity	5	1	0.1	0.76	5097	3
CityCenter73	gravity	5	1	0.1	0.8	8364	2
CityCenter73	gravity	5	1	0.1	0.8	7614	2
fattree-6	gravity	5	1	0.1	0.77	2637	2
fattree-6	gravity	5	1	0.1	0.77	1980	2
fattree-8	gravity	5	1	0.1	0.7999999999999999	22943	2
fattree-8	gravity	5	1	0.1	0.7999999999999999	17146	2
Abilene	gravity	5	1	0.1	0.7599999999999999	667	3
Abilene	gravity	5	1	0.1	0.7599999999999999	718	3
Tulsa21	gravity	5	1	0.1	0.7899999999999999	1097	2
Tulsa21	gravity	5	1	0.1	0.7899999999999999	1222	2
CityCenter73	gravity	5	1	0.1	0.7999999999999999	7103	2
CityCenter73	gravity	5	1	0.1	0.7999999999999999	7933	2
fattree-6	gravity	5	1	0.1	0.76	1862	2
fattree-6	gravity	5	1	0.1	0.76	3758	2
fattree-8	gravity	5	1	0.1	0.7799999999999999	20063	2
fattree-8	gravity	5	1	0.1	0.7799999999999999	36086	2
Abilene	gravity	5	1	0.1	0.76	776	3
Abilene	gravity	5	1	0.1	0.76	759	3
Tulsa21	gravity	5	1	0.1	0.79	1456	2
Tulsa21	gravity	5	1	0.1	0.79	1031	2
CityCenter73	gravity	5	1	0.1	0.7100000000000001	9757	2
CityCenter73	gravity	5	1	0.1	0.7100000000000001	9648	2
fattree-6	gravity	5	1	0.1	0.76	1936	2
fattree-6	gravity	5	1	0.1	0.76	1663	2
fattree-8	gravity	5	1	0.1	0.74	15360	2
fattree-8	gravity	5	1	0.1	0.74	20836	2
Abilene	gravity	5	1	0.1	0.79	738	3
Abilene	gravity	5	1	0.1	0.79	858	3
Tulsa21	gravity	5	1	0.1	0.7799999999999999	2201	2
Tulsa21	gravity	5	1	0.1	0.7799999999999999	1696	2
CityCenter73	gravity	5	1	0.1	0.76	6211	2
CityCenter73	gravity	5	1	0.1	0.76	23918	2
fattree-6	gravity	5	1	0.1	0.78	1525	2
fattree-6	gravity	5	1	0.1	0.78	4078	2
fattree-8	gravity	5	1	0.1	0.72	22376	2
fattree-8	gravity	5	1	0.1	0.72	20539	2
Abilene	gravity	5	1	0.1	0.73	754	3
Abilene	gravity	5	1	0.1	0.73	787	3
Tulsa21	gravity	5	1	0.1	0.73	5969	3
Tulsa21	gravity	5	1	0.1	0.73	1264	2
CityCenter73	gravity	5	1	0.1	0.76	19565	2
CityCenter73	gravity	5	1	0.1	0.76	9435	2
fattree-6	gravity	5	1	0.1	0.72	2326	2
fattree-6	gravity	5	1	0.1	0.72	2364	2
fattree-8	gravity	5	1	0.1	0.78	30180	2
fattree-8	gravity	5	1	0.1	0.78	29718	2
Abilene	gravity	5	1	0.1	0.7299999999999999	744	3
Abilene	gravity	5	1	0.1	0.7299999999999999	752	3
Tulsa21	gravity	5	1	0.1	0.7	1145	2
Tulsa21	gravity	5	1	0.1	0.7	1191	2
CityCenter73	gravity	5	1	0.1	0.7899999999999999	7387	2
CityCenter73	gravity	5	1	0.1	0.7899999999999999	13369	2
fattree-6	gravity	5	1	0.1	0.7799999999999999	1816	2
fattree-6	gravity	5	1	0.1	0.7799999999999999	2263	2
fattree-8	gravity	5	1	0.1	0.75	21572	2
fattree-8	gravity	5	1	0.1	0.75	19657	2
Abilene	gravity	5	1	0.1	0.74	653	3
Abilene	gravity	5	1	0.1	0.74	749	3
Tulsa21	gravity	5	1	0.1	0.7899999999999999	2468	2
Tulsa21	gravity	5	1	0.1	0.7899999999999999	6078	3
CityCenter73	gravity	5	1	0.1	0.77	10431	2
CityCenter73	gravity	5	1	0.1	0.77	10169	2
fattree-6	gravity	5	1	0.1	0.77	1614	2
fattree-6	gravity	5	1	0.1	0.77	1559	2
fattree-8	gravity	5	1	0.1	0.7699999999999999	15256	2
fattree-8	gravity	5	1	0.1	0.7699999999999999	11905	2
Abilene	gravity	5	1	0.1	0.72	812	3
Abilene	gravity	5	1	0.1	0.72	746	3
Tulsa21	gravity	5	1	0.1	0.7	1402	2
Tulsa21	gravity	5	1	0.1	0.7	1991	2
CityCenter73	gravity	5	1	0.1	0.75	12462	2
CityCenter73	gravity	5	1	0.1	0.75	4908	2
fattree-6	gravity	5	1	0.1	0.71	2859	2
fattree-6	gravity	5	1	0.1	0.71	4738	2
fattree-8	gravity	5	1	0.1	0.7799999999999999	23715	2
fattree-8	gravity	5	1	0.1	0.7799999999999999	43231	2
Abilene	gravity	5	1	0.1	0.7	705	3
Abilene	gravity	5	1	0.1	0.7	726	3
Tulsa21	gravity	5	1	0.1	0.77	1496	2
Tulsa21	gravity	5	1	0.1	0.77	1179	2
CityCenter73	gravity	5	1	0.1	0.75	28676	2
CityCenter73	gravity	5	1	0.1	0.75	11366	2
fattree-6	gravity	5	1	0.1	0.7599999999999999	1574	2
fattree-6	gravity	5	1	0.1	0.7599999999999999	2406	2
fattree-8	gravity	5	1	0.1	0.7599999999999999	17588	2
fattree-8	gravity	5	1	0.1	0.7599999999999999	34578	2
Abilene	gravity	5	1	0.1	0.7799999999999999	751	2
Abilene	gravity	5	1	0.1	0.7799999999999999	700	3
Tulsa21	gravity	5	1	0.1	0.73	1221	2
Tulsa21	gravity	5	1	0.1	0.73	1075	2
CityCenter73	gravity	5	1	0.1	0.7199999999999999	8820	2
CityCenter73	gravity	5	1	0.1	0.7199999999999999	11519	2
fattree-6	gravity	5	1	0.1	0.7600000000000001	2350	2
fattree-6	gravity	5	1	0.1	0.7600000000000001	4729	2
fattree-8	gravity	5	1	0.1	0.75	27672	2
fattree-8	gravity	5	1	0.1	0.75	33317	2
Abilene	gravity	5	1	0.1	0.7500000000000001	757	3
Abilene	gravity	5	1	0.1	0.7500000000000001	800	3
Tulsa21	gravity	5	1	0.1	0.7600000000000001	1119	2
Tulsa21	gravity	5	1	0.1	0.7600000000000001	1633	2
CityCenter73	gravity	5	1	0.1	0.76	10493	2
CityCenter73	gravity	5	1	0.1	0.76	26628	2
fattree-6	gravity	5	1	0.1	0.7599999999999999	1908	2
fattree-6	gravity	5	1	0.1	0.7599999999999999	3115	2
fattree-8	gravity	5	1	0.1	0.79	16644	2
fattree-8	gravity	5	1	0.1	0.79	20802	2
Abilene	gravity	5	1	0.1	0.71	707	3
Abilene	gravity	5	1	0.1	0.71	703	3
Tulsa21	gravity	5	1	0.1	0.7500000000000001	4096	3
Tulsa21	gravity	5	1	0.1	0.7500000000000001	4458	3
CityCenter73	gravity	5	1	0.1	0.7400000000000001	11817	2
CityCenter73	gravity	5	1	0.1	0.7400000000000001	11951	2
fattree-6	gravity	5	1	0.1	0.76	1874	2
fattree-6	gravity	5	1	0.1	0.76	4064	2
fattree-8	gravity	5	1	0.1	0.7599999999999999	21898	2
fattree-8	gravity	5	1	0.1	0.7599999999999999	18019	2
Abilene	gravity	5	1	0.1	0.76	635	2
Abilene	gravity	5	1	0.1	0.76	727	3
Tulsa21	gravity	5	1	0.1	0.7100000000000001	1201	2
Tulsa21	gravity	5	1	0.1	0.7100000000000001	2415	2
CityCenter73	gravity	5	1	0.1	0.7899999999999999	9618	2
CityCenter73	gravity	5	1	0.1	0.7899999999999999	7008	2
fattree-6	gravity	5	1	0.1	0.7799999999999999	2576	2
fattree-6	gravity	5	1	0.1	0.7799999999999999	4428	2
fattree-8	gravity	5	1	0.1	0.8	25683	2
fattree-8	gravity	5	1	0.1	0.8	26256	2
Abilene	gravity	5	1	0.1	0.7499999999999999	728	3
Abilene	gravity	5	1	0.1	0.7499999999999999	676	3
Tulsa21	gravity	5	1	0.1	0.75	1223	2
Tulsa21	gravity	5	1	0.1	0.75	1757	2
CityCenter73	gravity	5	1	0.1	0.74	10647	2
CityCenter73	gravity	5	1	0.1	0.74	9488	2
fattree-6	gravity	5	1	0.1	0.75	1643	2
fattree-6	gravity	5	1	0.1	0.75	1805	2
fattree-8	gravity	5	1	0.1	0.7200000000000001	37746	2
fattree-8	gravity	5	1	0.1	0.7200000000000001	58986	2
Abilene	gravity	5	1	0.1	0.7500000000000001	756	3
Abilene	gravity	5	1	0.1	0.7500000000000001	735	3
Tulsa21	gravity	5	1	0.1	0.72	1382	2
Tulsa21	gravity	5	1	0.1	0.72	1618	2
CityCenter73	gravity	5	1	0.1	0.7299999999999999	9435	2
CityCenter73	gravity	5	1	0.1	0.7299999999999999	9243	2
fattree-6	gravity	5	1	0.1	0.77	2263	2
fattree-6	gravity	5	1	0.1	0.77	3712	2
fattree-8	gravity	5	1	0.1	0.75	29080	2
fattree-8	gravity	5	1	0.1	0.75	28023	2
Abilene	gravity	5	1	0.1	0.73	810	3
Abilene	gravity	5	1	0.1	0.73	693	3
Tulsa21	gravity	5	1	0.1	0.79	911	2
Tulsa21	gravity	5	1	0.1	0.79	1155	2
CityCenter73	gravity	5	1	0.1	0.75	9853	2
CityCenter73	gravity	5	1	0.1	0.75	15180	2
fattree-6	gravity	5	1	0.1	0.75	2698	2
fattree-6	gravity	5	1	0.1	0.75	5281	2
fattree-8	gravity	5	1	0.1	0.7499999999999999	21320	2
fattree-8	gravity	5	1	0.1	0.7499999999999999	22965	2
Abilene	gravity	5	1	0.1	0.75	737	3
Abilene	gravity	5	1	0.1	0.75	743	3
Tulsa21	gravity	5	1	0.1	0.8	1156	2
Tulsa21	gravity	5	1	0.1	0.8	1451	2
CityCenter73	gravity	5	1	0.1	0.77	5226	2
CityCenter73	gravity	5	1	0.1	0.77	21890	2
fattree-6	gravity	5	1	0.1	0.7	2396	2
fattree-6	gravity	5	1	0.1	0.7	2073	2
fattree-8	gravity	5	1	0.1	0.7200000000000001	45613	2
fattree-8	gravity	5	1	0.1	0.7200000000000001	13552	2
Abilene	gravity	5	1	0.1	0.71	689	3
Abilene	gravity	5	1	0.1	0.71	749	3
Tulsa21	gravity	5	1	0.1	0.76	1038	2
Tulsa21	gravity	5	1	0.1	0.76	1772	2
CityCenter73	gravity	5	1	0.1	0.71	7339	2
CityCenter73	gravity	5	1	0.1	0.71	13534	2
fattree-6	gravity	5	1	0.1	0.72	2416	2
fattree-6	gravity	5	1	0.1	0.72	2666	2
fattree-8	gravity	5	1	0.1	0.74	13503	2
fattree-8	gravity	5	1	0.1	0.74	28947	2
Abilene	gravity	5	1	0.1	0.7699999999999999	807	3
Abilene	gravity	5	1	0.1	0.7699999999999999	842	3
Tulsa21	gravity	5	1	0.1	0.7100000000000001	4010	3
Tulsa21	gravity	5	1	0.1	0.7100000000000001	2389	3
CityCenter73	gravity	5	1	0.1	0.79	11491	2
CityCenter73	gravity	5	1	0.1	0.79	9580	2
fattree-6	gravity	5	1	0.1	0.72	2866	2
fattree-6	gravity	5	1	0.1	0.72	2088	2
fattree-8	gravity	5	1	0.1	0.7699999999999999	22766	2
fattree-8	gravity	5	1	0.1	0.7699999999999999	47126	2
Abilene	gravity	5	1	0.1	0.8	853	3
Abilene	gravity	5	1	0.1	0.8	787	3
Tulsa21	gravity	5	1	0.1	0.79	1297	2
Tulsa21	gravity	5	1	0.1	0.79	1194	2
CityCenter73	gravity	5	1	0.1	0.75	6395	2
CityCenter73	gravity	5	1	0.1	0.75	16106	2
fattree-6	gravity	5	1	0.1	0.79	1551	2
fattree-6	gravity	5	1	0.1	0.79	1844	2
Tulsa21	gravity	5	1	0.1	0.7099999999999999	1347	2
Tulsa21	gravity	5	1	0.1	0.7099999999999999	1875	2
CityCenter73	gravity	5	1	0.1	0.7000000000000001	15135	2
CityCenter73	gravity	5	1	0.1	0.7000000000000001	12330	2
fattree-6	gravity	5	1	0.1	0.7900000000000001	2021	2
fattree-6	gravity	5	1	0.1	0.7900000000000001	2514	2
fattree-8	gravity	5	1	0.1	0.73	12152	2
fattree-8	gravity	5	1	0.1	0.73	15888	2
Abilene	gravity	5	1	0.1	0.75	682	3
Abilene	gravity	5	1	0.1	0.75	800	3
Tulsa21	gravity	5	1	0.1	0.75	2395	2
Tulsa21	gravity	5	1	0.1	0.75	1591	2
CityCenter73	gravity	5	1	0.1	0.7100000000000001	8848	2
CityCenter73	gravity	5	1	0.1	0.7100000000000001	16433	2
fattree-6	gravity	5	1	0.1	0.77	1797	2
fattree-6	gravity	5	1	0.1	0.77	1936	2
fattree-8	gravity	5	1	0.1	0.7400000000000001	13920	2
fattree-8	gravity	5	1	0.1	0.7400000000000001	42018	2
Abilene	gravity	5	1	0.1	0.8	650	2
Abilene	gravity	5	1	0.1	0.8	734	2
Tulsa21	gravity	5	1	0.1	0.7899999999999999	1717	2
Tulsa21	gravity	5	1	0.1	0.7899999999999999	1072	2
CityCenter73	gravity	5	1	0.1	0.71	6338	2
CityCenter73	gravity	5	1	0.1	0.71	6110	2
fattree-6	gravity	5	1	0.1	0.7	2386	2
fattree-6	gravity	5	1	0.1	0.7	2281	2
fattree-8	gravity	5	1	0.1	0.76	23496	2
fattree-8	gravity	5	1	0.1	0.76	19570	2
Abilene	gravity	5	1	0.1	0.7000000000000001	673	2
Abilene	gravity	5	1	0.1	0.7000000000000001	682	2
Tulsa21	gravity	5	1	0.1	0.76	1375	2
Tulsa21	gravity	5	1	0.1	0.76	1215	2
CityCenter73	gravity	5	1	0.1	0.7999999999999999	4814	2
CityCenter73	gravity	5	1	0.1	0.7999999999999999	5327	2
fattree-6	gravity	5	1	0.1	0.7200000000000001	4118	2
fattree-6	gravity	5	1	0.1	0.7200000000000001	3155	2
fattree-8	gravity	5	1	0.1	0.77	12869	2
fattree-8	gravity	5	1	0.1	0.77	16919	2
Abilene	gravity	5	1	0.1	0.73	661	2
Abilene	gravity	5	1	0.1	0.73	715	3
Tulsa21	gravity	5	1	0.1	0.7100000000000001	1148	2
Tulsa21	gravity	5	1	0.1	0.7100000000000001	1093	2
CityCenter73	gravity	5	1	0.1	0.77	6784	2
CityCenter73	gravity	5	1	0.1	0.77	6043	2
fattree-6	gravity	5	1	0.1	0.74	2538	2
fattree-6	gravity	5	1	0.1	0.74	2634	2
fattree-8	gravity	5	1	0.1	0.75	14748	2
fattree-8	gravity	5	1	0.1	0.75	32444	2
Abilene	gravity	5	1	0.1	0.75	685	3
Abilene	gravity	5	1	0.1	0.75	774	3
Tulsa21	gravity	5	1	0.1	0.78	3805	3
Tulsa21	gravity	5	1	0.1	0.78	2028	2
CityCenter73	gravity	5	1	0.1	0.72	9234	2
CityCenter73	gravity	5	1	0.1	0.72	6629	2
fattree-6	gravity	5	1	0.1	0.76	1981	2
fattree-6	gravity	5	1	0.1	0.76	1720	2
fattree-8	gravity	5	1	0.1	0.71	17692	2
fattree-8	gravity	5	1	0.1	0.71	11024	2
Abilene	gravity	5	1	0.1	0.7100000000000001	707	2
Abilene	gravity	5	1	0.1	0.7100000000000001	747	3
Tulsa21	gravity	5	1	0.1	0.7000000000000001	1171	2
Tulsa21	gravity	5	1	0.1	0.7000000000000001	1416	2
CityCenter73	gravity	5	1	0.1	0.7699999999999999	8328	2
CityCenter73	gravity	5	1	0.1	0.7699999999999999	10457	2
fattree-6	gravity	5	1	0.1	0.74	2824	2
fattree-6	gravity	5	1	0.1	0.74	2370	2
fattree-8	gravity	5	1	0.1	0.7700000000000001	19259	2
fattree-8	gravity	5	1	0.1	0.7700000000000001	24178	2
Abilene	gravity	5	1	0.1	0.7899999999999999	658	2
Abilene	gravity	5	1	0.1	0.7899999999999999	734	3
Tulsa21	gravity	5	1	0.1	0.7399999999999999	863	2
Tulsa21	gravity	5	1	0.1	0.7399999999999999	1313	2
CityCenter73	gravity	5	1	0.1	0.77	21722	2
CityCenter73	gravity	5	1	0.1	0.77	26519	2
fattree-6	gravity	5	1	0.1	0.7999999999999999	2500	2
fattree-6	gravity	5	1	0.1	0.7999999999999999	3172	2
fattree-8	gravity	5	1	0.1	0.79	12310	2
fattree-8	gravity	5	1	0.1	0.79	15052	2
Abilene	gravity	5	1	0.1	0.7	725	3
Abilene	gravity	5	1	0.1	0.7	801	3
Tulsa21	gravity	5	1	0.1	0.7599999999999999	1117	2
Tulsa21	gravity	5	1	0.1	0.7599999999999999	4546	2
CityCenter73	gravity	5	1	0.1	0.76	5053	2
CityCenter73	gravity	5	1	0.1	0.76	19709	2
fattree-6	gravity	5	1	0.1	0.7900000000000001	3288	2
fattree-6	gravity	5	1	0.1	0.7900000000000001	3882	2
fattree-8	gravity	5	1	0.1	0.7700000000000001	16162	2
fattree-8	gravity	5	1	0.1	0.7700000000000001	20246	2
Abilene	gravity	5	1	0.1	0.76	678	2
Abilene	gravity	5	1	0.1	0.76	756	3
Tulsa21	gravity	5	1	0.1	0.7300000000000001	1007	2
Tulsa21	gravity	5	1	0.1	0.7300000000000001	1562	2
CityCenter73	gravity	5	1	0.1	0.71	8987	2
CityCenter73	gravity	5	1	0.1	0.71	17768	2
fattree-6	gravity	5	1	0.1	0.7799999999999999	2033	2
fattree-6	gravity	5	1	0.1	0.7799999999999999	1555	2
fattree-8	gravity	5	1	0.1	0.7999999999999999	13053	2
fattree-8	gravity	5	1	0.1	0.7999999999999999	39896	2
Abilene	gravity	5	1	0.1	0.75	625	2
Abilene	gravity	5	1	0.1	0.75	680	3
Tulsa21	gravity	5	1	0.1	0.7	3961	3
Tulsa21	gravity	5	1	0.1	0.7	4547	3
CityCenter73	gravity	5	1	0.1	0.7600000000000001	8692	2
CityCenter73	gravity	5	1	0.1	0.7600000000000001	7996	2
fattree-6	gravity	5	1	0.1	0.7	1861	2
fattree-6	gravity	5	1	0.1	0.7	2480	2
fattree-8	gravity	5	1	0.1	0.73	18420	2
fattree-8	gravity	5	1	0.1	0.73	34702	2
Abilene	gravity	5	1	0.1	0.7700000000000001	730	2
Abilene	gravity	5	1	0.1	0.7700000000000001	655	3
Tulsa21	gravity	5	1	0.1	0.7	2740	3
Tulsa21	gravity	5	1	0.1	0.7	4024	3
CityCenter73	gravity	5	1	0.1	0.8	5716	2
CityCenter73	gravity	5	1	0.1	0.8	13372	2
fattree-6	gravity	5	1	0.1	0.7000000000000001	2231	2
fattree-6	gravity	5	1	0.1	0.7000000000000001	3369	2
fattree-8	gravity	5	1	0.1	0.7000000000000001	12286	2
fattree-8	gravity	5	1	0.1	0.7000000000000001	28335	2
Abilene	gravity	5	1	0.1	0.74	756	2
Abilene	gravity	5	1	0.1	0.74	730	2
Tulsa21	gravity	5	1	0.1	0.7900000000000001	1632	2
Tulsa21	gravity	5	1	0.1	0.7900000000000001	1628	2
CityCenter73	gravity	5	1	0.1	0.74	11553	2
CityCenter73	gravity	5	1	0.1	0.74	11069	2
fattree-6	gravity	5	1	0.1	0.7799999999999999	1835	2
fattree-6	gravity	5	1	0.1	0.7799999999999999	2910	2
fattree-8	gravity	5	1	0.1	0.7100000000000001	17340	2
fattree-8	gravity	5	1	0.1	0.7100000000000001	62837	2
Abilene	gravity	5	1	0.1	0.77	760	3
Abilene	gravity	5	1	0.1	0.77	716	3
Tulsa21	gravity	5	1	0.1	0.74	1274	2
Tulsa21	gravity	5	1	0.1	0.74	1028	2
CityCenter73	gravity	5	1	0.1	0.7999999999999999	20850	2
CityCenter73	gravity	5	1	0.1	0.7999999999999999	13940	2
fattree-6	gravity	5	1	0.1	0.72	3113	2
fattree-6	gravity	5	1	0.1	0.72	2020	2
fattree-8	gravity	5	1	0.1	0.7899999999999999	12984	2
fattree-8	gravity	5	1	0.1	0.7899999999999999	50476	2
Abilene	gravity	5	1	0.1	0.73	689	3
Abilene	gravity	5	1	0.1	0.73	703	3
Tulsa21	gravity	5	1	0.1	0.72	2545	3
Tulsa21	gravity	5	1	0.1	0.72	5941	3
CityCenter73	gravity	5	1	0.1	0.7999999999999999	11320	2
CityCenter73	gravity	5	1	0.1	0.7999999999999999	5282	2
fattree-6	gravity	5	1	0.1	0.77	4171	2
fattree-6	gravity	5	1	0.1	0.77	3830	2
fattree-8	gravity	5	1	0.1	0.7300000000000001	25136	2
fattree-8	gravity	5	1	0.1	0.7300000000000001	97752	2
Abilene	gravity	5	1	0.1	0.75	793	3
Abilene	gravity	5	1	0.1	0.75	736	3
Tulsa21	gravity	5	1	0.1	0.76	1125	2
Tulsa21	gravity	5	1	0.1	0.76	1576	2
CityCenter73	gravity	5	1	0.1	0.7	5929	2
CityCenter73	gravity	5	1	0.1	0.7	18220	2
fattree-6	gravity	5	1	0.1	0.7699999999999999	2411	2
fattree-6	gravity	5	1	0.1	0.7699999999999999	2075	2
fattree-8	gravity	5	1	0.1	0.75	14223	2
fattree-8	gravity	5	1	0.1	0.75	27863	2
Abilene	gravity	5	1	0.1	0.7999999999999999	764	3
Abilene	gravity	5	1	0.1	0.7999999999999999	692	3
Tulsa21	gravity	5	1	0.1	0.71	4130	3
Tulsa21	gravity	5	1	0.1	0.71	1123	2
CityCenter73	gravity	5	1	0.1	0.75	6797	2
CityCenter73	gravity	5	1	0.1	0.75	6289	2
fattree-6	gravity	5	1	0.1	0.75	1711	2
fattree-6	gravity	5	1	0.1	0.75	2074	2
fattree-8	gravity	5	1	0.1	0.7600000000000001	10626	2
fattree-8	gravity	5	1	0.1	0.7600000000000001	31962	2
Abilene	gravity	5	1	0.1	0.79	682	3
Abilene	gravity	5	1	0.1	0.79	738	2
Tulsa21	gravity	5	1	0.1	0.7799999999999999	1279	2
Tulsa21	gravity	5	1	0.1	0.7799999999999999	1246	2
CityCenter73	gravity	5	1	0.1	0.78	10462	2
CityCenter73	gravity	5	1	0.1	0.78	10215	2
fattree-6	gravity	5	1	0.1	0.77	2354	2
fattree-6	gravity	5	1	0.1	0.77	3401	2
fattree-8	gravity	5	1	0.1	0.7099999999999999	41920	2
fattree-8	gravity	5	1	0.1	0.7099999999999999	84130	2
Abilene	gravity	5	1	0.1	0.76	745	3
Abilene	gravity	5	1	0.1	0.76	750	3
Tulsa21	gravity	5	1	0.1	0.75	5370	3
Tulsa21	gravity	5	1	0.1	0.75	1662	2
CityCenter73	gravity	5	1	0.1	0.79	11112	2
CityCenter73	gravity	5	1	0.1	0.79	11160	2
fattree-6	gravity	5	1	0.1	0.71	4335	2
fattree-6	gravity	5	1	0.1	0.71	3218	2
fattree-8	gravity	5	1	0.1	0.74	29003	2
fattree-8	gravity	5	1	0.1	0.74	30828	2
Abilene	gravity	5	1	0.1	0.75	710	2
Abilene	gravity	5	1	0.1	0.75	678	2
Tulsa21	gravity	5	1	0.1	0.74	1088	2
Tulsa21	gravity	5	1	0.1	0.74	1141	2
CityCenter73	gravity	5	1	0.1	0.73	8026	2
CityCenter73	gravity	5	1	0.1	0.73	9893	2
fattree-6	gravity	5	1	0.1	0.7799999999999999	1943	2
fattree-6	gravity	5	1	0.1	0.7799999999999999	2182	2
fattree-8	gravity	5	1	0.1	0.7499999999999999	18435	2
fattree-8	gravity	5	1	0.1	0.7499999999999999	18934	2
Abilene	gravity	5	1	0.1	0.75	758	3
Abilene	gravity	5	1	0.1	0.75	762	3
Tulsa21	gravity	5	1	0.1	0.77	1118	2
Tulsa21	gravity	5	1	0.1	0.77	1427	2
CityCenter73	gravity	5	1	0.1	0.78	5994	2
CityCenter73	gravity	5	1	0.1	0.78	13424	2
fattree-6	gravity	5	1	0.1	0.75	1610	2
fattree-6	gravity	5	1	0.1	0.75	1583	2
fattree-8	gravity	5	1	0.1	0.72	19399	2
fattree-8	gravity	5	1	0.1	0.72	38839	2
Abilene	gravity	5	1	0.1	0.78	626	2
Abilene	gravity	5	1	0.1	0.78	689	3
Tulsa21	gravity	5	1	0.1	0.76	1316	2
Tulsa21	gravity	5	1	0.1	0.76	4764	3
CityCenter73	gravity	5	1	0.1	0.7699999999999999	15866	2
CityCenter73	gravity	5	1	0.1	0.7699999999999999	5195	2
fattree-6	gravity	5	1	0.1	0.77	1686	2
fattree-6	gravity	5	1	0.1	0.77	1579	2
fattree-8	gravity	5	1	0.1	0.76	10592	2
fattree-8	gravity	5	1	0.1	0.76	16188	2
Abilene	gravity	5	1	0.1	0.79	743	3
Abilene	gravity	5	1	0.1	0.79	726	3
Tulsa21	gravity	5	1	0.1	0.76	1285	2
Tulsa21	gravity	5	1	0.1	0.76	1221	2
CityCenter73	gravity	5	1	0.1	0.7899999999999999	11662	2
CityCenter73	gravity	5	1	0.1	0.7899999999999999	13023	2
fattree-6	gravity	5	1	0.1	0.7300000000000001	2301	2
fattree-6	gravity	5	1	0.1	0.7300000000000001	1571	2
fattree-8	gravity	5	1	0.1	0.73	14302	2
fattree-8	gravity	5	1	0.1	0.73	15697	2
Abilene	gravity	5	1	0.1	0.78	743	3
Abilene	gravity	5	1	0.1	0.78	718	3
Tulsa21	gravity	5	1	0.1	0.7000000000000001	1561	2
Tulsa21	gravity	5	1	0.1	0.7000000000000001	1208	2
CityCenter73	gravity	5	1	0.1	0.7999999999999999	13382	2
CityCenter73	gravity	5	1	0.1	0.7999999999999999	5910	2
fattree-6	gravity	5	1	0.1	0.7399999999999999	2389	2
fattree-6	gravity	5	1	0.1	0.7399999999999999	3498	2
fattree-8	gravity	5	1	0.1	0.7	31279	2
fattree-8	gravity	5	1	0.1	0.7	26669	2
Abilene	gravity	5	1	0.1	0.7300000000000001	740	3
Abilene	gravity	5	1	0.1	0.7300000000000001	779	3
Tulsa21	gravity	5	1	0.1	0.7	1166	2
Tulsa21	gravity	5	1	0.1	0.7	1228	2
CityCenter73	gravity	5	1	0.1	0.75	10823	2
CityCenter73	gravity	5	1	0.1	0.75	7775	2
fattree-6	gravity	5	1	0.1	0.7900000000000001	2538	2
fattree-6	gravity	5	1	0.1	0.7900000000000001	2162	2
fattree-8	gravity	5	1	0.1	0.78	11789	2
fattree-8	gravity	5	1	0.1	0.78	28939	2
Abilene	gravity	5	1	0.1	0.7399999999999999	721	3
Abilene	gravity	5	1	0.1	0.7399999999999999	670	3
Tulsa21	gravity	5	1	0.1	0.75	2256	2
Tulsa21	gravity	5	1	0.1	0.75	1354	2
CityCenter73	gravity	5	1	0.1	0.78	8699	2
CityCenter73	gravity	5	1	0.1	0.78	22222	2
fattree-6	gravity	5	1	0.1	0.72	3662	2
fattree-6	gravity	5	1	0.1	0.72	4813	2
fattree-8	gravity	5	1	0.1	0.7899999999999999	12916	2
fattree-8	gravity	5	1	0.1	0.7899999999999999	27243	2
Abilene	gravity	5	1	0.1	0.76	606	2
Abilene	gravity	5	1	0.1	0.76	676	2
Tulsa21	gravity	5	1	0.1	0.73	1498	2
Tulsa21	gravity	5	1	0.1	0.73	1168	2
CityCenter73	gravity	5	1	0.1	0.75	8414	2
CityCenter73	gravity	5	1	0.1	0.75	13170	2
fattree-6	gravity	5	1	0.1	0.78	2180	2
fattree-6	gravity	5	1	0.1	0.78	4500	2
fattree-8	gravity	5	1	0.1	0.7999999999999999	19474	2
fattree-8	gravity	5	1	0.1	0.7999999999999999	8945	2
Abilene	gravity	5	1	0.1	0.76	807	3
Abilene	gravity	5	1	0.1	0.76	710	3
Tulsa21	gravity	5	1	0.1	0.78	989	2
Tulsa21	gravity	5	1	0.1	0.78	1155	2
CityCenter73	gravity	5	1	0.1	0.7	16938	2
CityCenter73	gravity	5	1	0.1	0.7	17287	2
fattree-6	gravity	5	1	0.1	0.7899999999999999	2010	2
fattree-6	gravity	5	1	0.1	0.7899999999999999	1967	2
fattree-8	gravity	5	1	0.1	0.7100000000000001	29941	2
fattree-8	gravity	5	1	0.1	0.7100000000000001	34413	2
Abilene	gravity	5	1	0.1	0.75	697	2
Abilene	gravity	5	1	0.1	0.75	688	2
Tulsa21	gravity	5	1	0.1	0.7000000000000001	1073	2
Tulsa21	gravity	5	1	0.1	0.7000000000000001	1051	2
CityCenter73	gravity	5	1	0.1	0.77	7363	2
CityCenter73	gravity	5	1	0.1	0.77	7288	2
fattree-6	gravity	5	1	0.1	0.79	2139	2
fattree-6	gravity	5	1	0.1	0.79	2146	2
fattree-8	gravity	5	1	0.1	0.71	49361	2
fattree-8	gravity	5	1	0.1	0.71	36164	2
Abilene	gravity	5	1	0.1	0.77	732	3
Abilene	gravity	5	1	0.1	0.77	744	3
Tulsa21	gravity	5	1	0.1	0.7	1440	2
Tulsa21	gravity	5	1	0.1	0.7	1361	2
CityCenter73	gravity	5	1	0.1	0.78	6315	2
CityCenter73	gravity	5	1	0.1	0.78	14923	2
fattree-6	gravity	5	1	0.1	0.7700000000000001	5362	2
fattree-6	gravity	5	1	0.1	0.7700000000000001	7461	2
fattree-8	gravity	5	1	0.1	0.75	17858	2
fattree-8	gravity	5	1	0.1	0.75	25166	2
Abilene	gravity	5	1	0.1	0.7599999999999999	635	2
Abilene	gravity	5	1	0.1	0.7599999999999999	645	2
Tulsa21	gravity	5	1	0.1	0.7500000000000001	1055	2
Tulsa21	gravity	5	1	0.1	0.7500000000000001	1616	2
CityCenter73	gravity	5	1	0.1	0.7399999999999999	28013	2
CityCenter73	gravity	5	1	0.1	0.7399999999999999	11696	2
fattree-6	gravity	5	1	0.1	0.71	2432	2
fattree-6	gravity	5	1	0.1	0.71	2533	2
fattree-8	gravity	5	1	0.1	0.73	32934	2
fattree-8	gravity	5	1	0.1	0.73	19527	2
Abilene	gravity	5	1	0.1	0.78	586	2
Abilene	gravity	5	1	0.1	0.78	741	3
Tulsa21	gravity	5	1	0.1	0.8	1262	2
Tulsa21	gravity	5	1	0.1	0.8	1093	2
CityCenter73	gravity	5	1	0.1	0.73	12398	2
CityCenter73	gravity	5	1	0.1	0.73	8517	2
fattree-6	gravity	5	1	0.1	0.7799999999999999	1945	2
fattree-6	gravity	5	1	0.1	0.7799999999999999	2234	2
fattree-8	gravity	5	1	0.1	0.7300000000000001	13065	2
fattree-8	gravity	5	1	0.1	0.7300000000000001	36971	2
Abilene	gravity	5	1	0.1	0.79	602	2
Abilene	gravity	5	1	0.1	0.79	637	2
Tulsa21	gravity	5	1	0.1	0.7899999999999999	1047	2
Tulsa21	gravity	5	1	0.1	0.7899999999999999	1198	2
CityCenter73	gravity	5	1	0.1	0.74	5463	2
CityCenter73	gravity	5	1	0.1	0.74	7194	2
fattree-6	gravity	5	1	0.1	0.7500000000000001	2818	2
fattree-6	gravity	5	1	0.1	0.7500000000000001	3372	2
fattree-8	gravity	5	1	0.1	0.7399999999999999	12749	2
fattree-8	gravity	5	1	0.1	0.7399999999999999	10422	2
Abilene	gravity	5	1	0.1	0.72	777	3
Abilene	gravity	5	1	0.1	0.72	723	3
Tulsa21	gravity	5	1	0.1	0.73	4648	3
Tulsa21	gravity	5	1	0.1	0.73	1880	2
CityCenter73	gravity	5	1	0.1	0.78	13255	2
CityCenter73	gravity	5	1	0.1	0.78	15354	2
fattree-6	gravity	5	1	0.1	0.7699999999999999	1765	2
fattree-6	gravity	5	1	0.1	0.7699999999999999	2134	2
fattree-8	gravity	5	1	0.1	0.7899999999999999	19250	2
fattree-8	gravity	5	1	0.1	0.7899999999999999	19941	2
Abilene	gravity	5	1	0.1	0.73	655	3
Abilene	gravity	5	1	0.1	0.73	710	3
Tulsa21	gravity	5	1	0.1	0.78	1331	2
Tulsa21	gravity	5	1	0.1	0.78	1135	2
CityCenter73	gravity	5	1	0.1	0.71	4997	2
CityCenter73	gravity	5	1	0.1	0.71	9198	2
fattree-6	gravity	5	1	0.1	0.76	2543	2
fattree-6	gravity	5	1	0.1	0.76	1995	2
fattree-8	gravity	5	1	0.1	0.7999999999999999	10198	2
fattree-8	gravity	5	1	0.1	0.7999999999999999	21008	2
Abilene	gravity	5	1	0.1	0.76	644	2
Abilene	gravity	5	1	0.1	0.76	701	2
Tulsa21	gravity	5	1	0.1	0.75	1202	2
Tulsa21	gravity	5	1	0.1	0.75	4284	3
CityCenter73	gravity	5	1	0.1	0.71	11889	2
CityCenter73	gravity	5	1	0.1	0.71	11445	2
fattree-6	gravity	5	1	0.1	0.7100000000000001	1927	2
fattree-6	gravity	5	1	0.1	0.7100000000000001	6173	2
fattree-8	gravity	5	1	0.1	0.76	27021	2
fattree-8	gravity	5	1	0.1	0.76	43213	2
Abilene	gravity	5	1	0.1	0.71	695	3
Abilene	gravity	5	1	0.1	0.71	747	3
Tulsa21	gravity	5	1	0.1	0.74	1168	2
Tulsa21	gravity	5	1	0.1	0.74	1795	2
CityCenter73	gravity	5	1	0.1	0.78	6366	2
CityCenter73	gravity	5	1	0.1	0.78	8062	2
fattree-6	gravity	5	1	0.1	0.7	4999	2
fattree-6	gravity	5	1	0.1	0.7	2881	2
fattree-8	gravity	5	1	0.1	0.73	61248	2
fattree-8	gravity	5	1	0.1	0.73	185623	2
Abilene	gravity	5	1	0.1	0.7600000000000001	718	3
Abilene	gravity	5	1	0.1	0.7600000000000001	756	3
Tulsa21	gravity	5	1	0.1	0.72	1346	2
Tulsa21	gravity	5	1	0.1	0.72	886	2
CityCenter73	gravity	5	1	0.1	0.75	10413	2
CityCenter73	gravity	5	1	0.1	0.75	9770	2
fattree-6	gravity	5	1	0.1	0.77	1924	2
fattree-6	gravity	5	1	0.1	0.77	3154	2
fattree-8	gravity	5	1	0.1	0.76	12858	2
fattree-8	gravity	5	1	0.1	0.76	23805	2
Abilene	gravity	5	1	0.1	0.7599999999999999	830	3
Abilene	gravity	5	1	0.1	0.7599999999999999	789	3
Tulsa21	gravity	5	1	0.1	0.7399999999999999	1286	2
Tulsa21	gravity	5	1	0.1	0.7399999999999999	3083	3
CityCenter73	gravity	5	1	0.1	0.75	8746	2
CityCenter73	gravity	5	1	0.1	0.75	17673	2
fattree-6	gravity	5	1	0.1	0.76	3838	2
fattree-6	gravity	5	1	0.1	0.76	1497	2
fattree-8	gravity	5	1	0.1	0.7799999999999999	14129	2
fattree-8	gravity	5	1	0.1	0.7799999999999999	10841	2
Abilene	gravity	5	1	0.1	0.71	721	3
Abilene	gravity	5	1	0.1	0.71	709	3
Tulsa21	gravity	5	1	0.1	0.8	1317	2
Tulsa21	gravity	5	1	0.1	0.8	1279	2
CityCenter73	gravity	5	1	0.1	0.71	13041	2
CityCenter73	gravity	5	1	0.1	0.71	16000	2
fattree-6	gravity	5	1	0.1	0.7199999999999999	3352	2
fattree-6	gravity	5	1	0.1	0.7199999999999999	2005	2
fattree-8	gravity	5	1	0.1	0.7400000000000001	11177	2
fattree-8	gravity	5	1	0.1	0.7400000000000001	89750	2
Abilene	gravity	5	1	0.1	0.8	739	2
Abilene	gravity	5	1	0.1	0.8	664	2
Tulsa21	gravity	5	1	0.1	0.7400000000000001	1327	2
Tulsa21	gravity	5	1	0.1	0.7400000000000001	2195	2
CityCenter73	gravity	5	1	0.1	0.79	7438	2
CityCenter73	gravity	5	1	0.1	0.79	11202	2
fattree-6	gravity	5	1	0.1	0.7000000000000001	5103	2
fattree-6	gravity	5	1	0.1	0.7000000000000001	2048	2
fattree-8	gravity	5	1	0.1	0.74	10006	2
fattree-8	gravity	5	1	0.1	0.74	22647	2
Abilene	gravity	5	1	0.1	0.7799999999999999	642	2
Abilene	gravity	5	1	0.1	0.7799999999999999	574	2
Tulsa21	gravity	5	1	0.1	0.76	1327	2
Tulsa21	gravity	5	1	0.1	0.76	1487	2
CityCenter73	gravity	5	1	0.1	0.7200000000000001	11273	2
CityCenter73	gravity	5	1	0.1	0.7200000000000001	6115	2
fattree-6	gravity	5	1	0.1	0.8	2168	2
fattree-6	gravity	5	1	0.1	0.8	4043	2
fattree-8	gravity	5	1	0.1	0.7	16734	2
fattree-8	gravity	5	1	0.1	0.7	16879	2
Abilene	gravity	5	1	0.1	0.71	676	3
Abilene	gravity	5	1	0.1	0.71	595	3
Tulsa21	gravity	5	1	0.1	0.77	1546	2
Tulsa21	gravity	5	1	0.1	0.77	1075	2
CityCenter73	gravity	5	1	0.1	0.7699999999999999	8485	2
CityCenter73	gravity	5	1	0.1	0.7699999999999999	6276	2
fattree-6	gravity	5	1	0.1	0.7200000000000001	2999	2
fattree-6	gravity	5	1	0.1	0.7200000000000001	1844	2
fattree-8	gravity	5	1	0.1	0.7899999999999999	16519	2
fattree-8	gravity	5	1	0.1	0.7899999999999999	18276	2
Abilene	gravity	5	1	0.1	0.7799999999999999	636	2
Abilene	gravity	5	1	0.1	0.7799999999999999	698	2
Tulsa21	gravity	5	1	0.1	0.76	1510	2
Tulsa21	gravity	5	1	0.1	0.76	1296	2
CityCenter73	gravity	5	1	0.1	0.7	13663	2
CityCenter73	gravity	5	1	0.1	0.7	7942	2
fattree-6	gravity	5	1	0.1	0.7999999999999999	3085	2
fattree-6	gravity	5	1	0.1	0.7999999999999999	2059	2
fattree-8	gravity	5	1	0.1	0.7	38411	2
fattree-8	gravity	5	1	0.1	0.7	41731	2
Abilene	gravity	5	1	0.1	0.7699999999999999	639	2
Abilene	gravity	5	1	0.1	0.7699999999999999	674	2
Tulsa21	gravity	5	1	0.1	0.7100000000000001	1174	2
Tulsa21	gravity	5	1	0.1	0.7100000000000001	5441	3
CityCenter73	gravity	5	1	0.1	0.78	7729	2
CityCenter73	gravity	5	1	0.1	0.78	13368	2
fattree-6	gravity	5	1	0.1	0.72	3697	2
fattree-6	gravity	5	1	0.1	0.72	2929	2
fattree-8	gravity	5	1	0.1	0.7799999999999999	16335	2
fattree-8	gravity	5	1	0.1	0.7799999999999999	19525	2
Abilene	gravity	5	1	0.1	0.72	767	3
Abilene	gravity	5	1	0.1	0.72	699	2
Tulsa21	gravity	5	1	0.1	0.7899999999999999	1163	2
Tulsa21	gravity	5	1	0.1	0.7899999999999999	1319	2
CityCenter73	gravity	5	1	0.1	0.79	11783	2
CityCenter73	gravity	5	1	0.1	0.79	6950	2
fattree-6	gravity	5	1	0.1	0.7	5635	2
fattree-6	gravity	5	1	0.1	0.7	3214	2
fattree-8	gravity	5	1	0.1	0.8	23832	2
fattree-8	gravity	5	1	0.1	0.8	24277	2
Abilene	gravity	5	1	0.1	0.72	814	3
Abilene	gravity	5	1	0.1	0.72	694	3
Tulsa21	gravity	5	1	0.1	0.7700000000000001	1089	2
Tulsa21	gravity	5	1	0.1	0.7700000000000001	1082	2
CityCenter73	gravity	5	1	0.1	0.75	9689	2
CityCenter73	gravity	5	1	0.1	0.75	10591	2
fattree-6	gravity	5	1	0.1	0.7400000000000001	1957	2
fattree-6	gravity	5	1	0.1	0.7400000000000001	2415	2
fattree-8	gravity	5	1	0.1	0.7899999999999999	19157	2
fattree-8	gravity	5	1	0.1	0.7899999999999999	14876	2
Abilene	gravity	5	1	0.1	0.78	752	3
Abilene	gravity	5	1	0.1	0.78	761	3
Tulsa21	gravity	5	1	0.1	0.7500000000000001	4699	3
Tulsa21	gravity	5	1	0.1	0.7500000000000001	5406	3
CityCenter73	gravity	5	1	0.1	0.7	10664	2
CityCenter73	gravity	5	1	0.1	0.7	11796	2
fattree-6	gravity	5	1	0.1	0.8	2020	2
fattree-6	gravity	5	1	0.1	0.8	1867	2
fattree-8	gravity	5	1	0.1	0.7000000000000001	13812	2
fattree-8	gravity	5	1	0.1	0.7000000000000001	84489	2
Abilene	gravity	5	1	0.1	0.7	741	3
Abilene	gravity	5	1	0.1	0.7	703	3
Tulsa21	gravity	5	1	0.1	0.7799999999999999	1290	2
Tulsa21	gravity	5	1	0.1	0.7799999999999999	1072	2
CityCenter73	gravity	5	1	0.1	0.78	11409	2
CityCenter73	gravity	5	1	0.1	0.78	10515	2
fattree-6	gravity	5	1	0.1	0.72	1626	2
fattree-6	gravity	5	1	0.1	0.72	2075	2
fattree-8	gravity	5	1	0.1	0.79	20963	2
fattree-8	gravity	5	1	0.1	0.79	27841	2
Abilene	gravity	5	1	0.1	0.76	651	2
Abilene	gravity	5	1	0.1	0.76	710	3
Tulsa21	gravity	5	1	0.1	0.72	2818	3
Tulsa21	gravity	5	1	0.1	0.72	2217	2
CityCenter73	gravity	5	1	0.1	0.7799999999999999	6604	2
CityCenter73	gravity	5	1	0.1	0.7799999999999999	8237	2
fattree-6	gravity	5	1	0.1	0.7899999999999999	3524	2
fattree-6	gravity	5	1	0.1	0.7899999999999999	1639	2
fattree-8	gravity	5	1	0.1	0.71	12438	2
fattree-8	gravity	5	1	0.1	0.71	22901	2
Plano9	gravity	5	1	0	0.79	800	3
Plano9	gravity	5	1	0	0.79	867	3
Plano9	gravity	5	1	0	0.7600000000000001	1011	3
Plano9	gravity	5	1	0	0.7600000000000001	857	3
Plano9	gravity	5	1	0	0.74	767	3
Plano9	gravity	5	1	0	0.74	781	3
Plano9	gravity	5	1	0	0.79	802	3
Plano9	gravity	5	1	0	0.79	952	3
Plano9	gravity	5	1	0	0.73	801	3
Plano9	gravity	5	1	0	0.73	842	3
Plano9	gravity	5	1	0	0.7599999999999999	793	3
Plano9	gravity	5	1	0	0.7599999999999999	714	3
Plano9	gravity	5	1	0	0.76	729	3
Plano9	gravity	5	1	0	0.76	762	3
Plano9	gravity	5	1	0	0.74	769	3
Plano9	gravity	5	1	0	0.74	876	3
Plano9	gravity	5	1	0	0.73	874	3
Plano9	gravity	5	1	0	0.73	810	3
Plano9	gravity	5	1	0	0.8	961	3
Plano9	gravity	5	1	0	0.8	839	3
Plano9	gravity	5	1	0	0.7	758	3
Plano9	gravity	5	1	0	0.7	890	3
Plano9	gravity	5	1	0	0.7200000000000001	1002	3
Plano9	gravity	5	1	0	0.7200000000000001	1006	3
Plano9	gravity	5	1	0	0.79	1310	3
Plano9	gravity	5	1	0	0.79	1025	3
Plano9	gravity	5	1	0	0.7000000000000001	919	3
Plano9	gravity	5	1	0	0.7000000000000001	837	3
Plano9	gravity	5	1	0	0.72	770	3
Plano9	gravity	5	1	0	0.72	690	3
Plano9	gravity	5	1	0	0.74	810	3
Plano9	gravity	5	1	0	0.74	900	3
Plano9	gravity	5	1	0	0.79	778	3
Plano9	gravity	5	1	0	0.79	627	2
Plano9	gravity	5	1	0	0.76	788	3
Plano9	gravity	5	1	0	0.76	705	3
Plano9	gravity	5	1	0	0.7499999999999999	912	3
Plano9	gravity	5	1	0	0.7499999999999999	868	3
Plano9	gravity	5	1	0	0.71	825	3
Plano9	gravity	5	1	0	0.71	775	3
Plano9	gravity	5	1	0	0.7	771	3
Plano9	gravity	5	1	0	0.7	859	3
CityCenter73	gravity	5	1	0	0.74	8175	2
CityCenter73	gravity	5	1	0	0.74	22190	2
fattree-6	gravity	5	1	0	0.7800000000000001	2327	2
fattree-6	gravity	5	1	0	0.7800000000000001	7630	2
Abilene	gravity	5	1	0	0.7200000000000001	613	3
Abilene	gravity	5	1	0	0.7200000000000001	693	3
Tulsa21	gravity	5	1	0	0.7400000000000001	1362	3
Tulsa21	gravity	5	1	0	0.7400000000000001	1328	2
CityCenter73	gravity	5	1	0	0.71	6288	2
CityCenter73	gravity	5	1	0	0.71	20711	2
fattree-6	gravity	5	1	0	0.7000000000000001	2941	2
fattree-6	gravity	5	1	0	0.7000000000000001	8014	2
Abilene	gravity	5	1	0	0.74	608	3
Abilene	gravity	5	1	0	0.74	731	3
Tulsa21	gravity	5	1	0	0.73	925	2
Tulsa21	gravity	5	1	0	0.73	1296	2
CityCenter73	gravity	5	1	0	0.74	5369	2
CityCenter73	gravity	5	1	0	0.74	21662	2
fattree-6	gravity	5	1	0	0.7200000000000001	2254	2
fattree-6	gravity	5	1	0	0.7200000000000001	4244	2
Abilene	gravity	5	1	0	0.7200000000000001	634	3
Abilene	gravity	5	1	0	0.7200000000000001	676	3
Tulsa21	gravity	5	1	0	0.7899999999999999	1387	2
Tulsa21	gravity	5	1	0	0.7899999999999999	1297	2
CityCenter73	gravity	5	1	0	0.7500000000000001	7804	2
CityCenter73	gravity	5	1	0	0.7500000000000001	16986	2
fattree-6	gravity	5	1	0	0.7200000000000001	3216	2
fattree-6	gravity	5	1	0	0.7200000000000001	8037	2
Abilene	gravity	5	1	0	0.75	572	3
Abilene	gravity	5	1	0	0.75	772	3
Tulsa21	gravity	5	1	0	0.76	1467	2
Tulsa21	gravity	5	1	0	0.76	1465	2
CityCenter73	gravity	5	1	0	0.72	4201	2
CityCenter73	gravity	5	1	0	0.72	23526	2
fattree-6	gravity	5	1	0	0.73	3185	2
fattree-6	gravity	5	1	0	0.73	10722	2
Abilene	gravity	5	1	0	0.7600000000000001	648	3
Abilene	gravity	5	1	0	0.7600000000000001	697	3
Tulsa21	gravity	5	1	0	0.7799999999999999	1190	2
Tulsa21	gravity	5	1	0	0.7799999999999999	1194	2
CityCenter73	gravity	5	1	0	0.7499999999999999	5513	2
CityCenter73	gravity	5	1	0	0.7499999999999999	21565	2
fattree-6	gravity	5	1	0	0.7599999999999999	2170	2
fattree-6	gravity	5	1	0	0.7599999999999999	8494	2
Abilene	gravity	5	1	0	0.73	644	3
Abilene	gravity	5	1	0	0.73	676	3
Tulsa21	gravity	5	1	0	0.72	962	2
Tulsa21	gravity	5	1	0	0.72	1785	3
CityCenter73	gravity	5	1	0	0.7300000000000001	4704	2
CityCenter73	gravity	5	1	0	0.7300000000000001	17258	2
fattree-6	gravity	5	1	0	0.74	2165	2
fattree-6	gravity	5	1	0	0.74	11560	2
Abilene	gravity	5	1	0	0.76	637	3
Abilene	gravity	5	1	0	0.76	748	3
Tulsa21	gravity	5	1	0	0.74	954	2
Tulsa21	gravity	5	1	0	0.74	1342	3
CityCenter73	gravity	5	1	0	0.7100000000000001	4568	2
CityCenter73	gravity	5	1	0	0.7100000000000001	17341	2
fattree-6	gravity	5	1	0	0.72	6676	2
fattree-6	gravity	5	1	0	0.72	13231	2
Abilene	gravity	5	1	0	0.72	623	3
Abilene	gravity	5	1	0	0.72	667	3
Tulsa21	gravity	5	1	0	0.7799999999999999	1460	2
Tulsa21	gravity	5	1	0	0.7799999999999999	1324	2
CityCenter73	gravity	5	1	0	0.77	4953	2
CityCenter73	gravity	5	1	0	0.77	17526	2
fattree-6	gravity	5	1	0	0.72	2358	2
fattree-6	gravity	5	1	0	0.72	7529	2
Abilene	gravity	5	1	0	0.78	593	3
Abilene	gravity	5	1	0	0.78	746	3
Tulsa21	gravity	5	1	0	0.77	1436	3
Tulsa21	gravity	5	1	0	0.77	1128	2
CityCenter73	gravity	5	1	0	0.79	7194	2
CityCenter73	gravity	5	1	0	0.79	10927	2
fattree-6	gravity	5	1	0	0.7599999999999999	3263	2
fattree-6	gravity	5	1	0	0.7599999999999999	5063	2
Abilene	gravity	5	1	0	0.8	640	3
Abilene	gravity	5	1	0	0.8	748	3
Tulsa21	gravity	5	1	0	0.7899999999999999	845	2
Tulsa21	gravity	5	1	0	0.7899999999999999	1327	2
CityCenter73	gravity	5	1	0	0.8	4027	2
CityCenter73	gravity	5	1	0	0.8	48971	2
fattree-6	gravity	5	1	0	0.76	2064	2
fattree-6	gravity	5	1	0	0.76	9394	2
Abilene	gravity	5	1	0	0.8	599	3
Abilene	gravity	5	1	0	0.8	698	3
Tulsa21	gravity	5	1	0	0.8	990	2
Tulsa21	gravity	5	1	0	0.8	1274	3
CityCenter73	gravity	5	1	0	0.79	4852	2
CityCenter73	gravity	5	1	0	0.79	20964	2
fattree-6	gravity	5	1	0	0.79	3369	2
fattree-6	gravity	5	1	0	0.79	7664	2
Abilene	gravity	5	1	0	0.77	638	3
Abilene	gravity	5	1	0	0.77	653	3
Tulsa21	gravity	5	1	0	0.73	1794	3
Tulsa21	gravity	5	1	0	0.73	1584	3
CityCenter73	gravity	5	1	0	0.7100000000000001	6581	2
CityCenter73	gravity	5	1	0	0.7100000000000001	17316	2
fattree-6	gravity	5	1	0	0.7599999999999999	2291	2
fattree-6	gravity	5	1	0	0.7599999999999999	5750	2
Abilene	gravity	5	1	0	0.75	605	3
Abilene	gravity	5	1	0	0.75	690	3
Tulsa21	gravity	5	1	0	0.75	1037	2
Tulsa21	gravity	5	1	0	0.75	1525	3
CityCenter73	gravity	5	1	0	0.74	6478	2
CityCenter73	gravity	5	1	0	0.74	23681	2
fattree-6	gravity	5	1	0	0.7799999999999999	2449	2
fattree-6	gravity	5	1	0	0.7799999999999999	12649	2
Abilene	gravity	5	1	0	0.7600000000000001	691	3
Abilene	gravity	5	1	0	0.7600000000000001	696	3
Tulsa21	gravity	5	1	0	0.7	1902	3
Tulsa21	gravity	5	1	0	0.7	2081	3
CityCenter73	gravity	5	1	0	0.8	3903	2
CityCenter73	gravity	5	1	0	0.8	18315	2
fattree-6	gravity	5	1	0	0.74	2975	2
fattree-6	gravity	5	1	0	0.74	7320	2
Abilene	gravity	5	1	0	0.74	640	3
Abilene	gravity	5	1	0	0.74	695	3
Tulsa21	gravity	5	1	0	0.72	1024	2
Tulsa21	gravity	5	1	0	0.72	1268	2
CityCenter73	gravity	5	1	0	0.7	4716	2
CityCenter73	gravity	5	1	0	0.7	14542	2
fattree-6	gravity	5	1	0	0.77	3260	2
fattree-6	gravity	5	1	0	0.77	10991	2
Abilene	gravity	5	1	0	0.71	645	3
Abilene	gravity	5	1	0	0.71	784	3
Tulsa21	gravity	5	1	0	0.71	933	2
Tulsa21	gravity	5	1	0	0.71	1314	2
CityCenter73	gravity	5	1	0	0.79	4588	2
CityCenter73	gravity	5	1	0	0.79	19936	2
fattree-6	gravity	5	1	0	0.72	3289	2
fattree-6	gravity	5	1	0	0.72	5589	2
Abilene	gravity	5	1	0	0.7400000000000001	631	3
Abilene	gravity	5	1	0	0.7400000000000001	775	3
Tulsa21	gravity	5	1	0	0.78	1028	2
Tulsa21	gravity	5	1	0	0.78	1186	2
CityCenter73	gravity	5	1	0	0.7599999999999999	5131	2
CityCenter73	gravity	5	1	0	0.7599999999999999	19685	2
fattree-6	gravity	5	1	0	0.7	2326	2
fattree-6	gravity	5	1	0	0.7	9653	2
Abilene	gravity	5	1	0	0.77	642	3
Abilene	gravity	5	1	0	0.77	709	3
Tulsa21	gravity	5	1	0	0.77	1527	3
Tulsa21	gravity	5	1	0	0.77	1756	3
CityCenter73	gravity	5	1	0	0.7999999999999999	4094	2
CityCenter73	gravity	5	1	0	0.7999999999999999	21393	2
fattree-6	gravity	5	1	0	0.78	1392	2
fattree-6	gravity	5	1	0	0.78	4183	2
Abilene	gravity	5	1	0	0.73	644	3
Abilene	gravity	5	1	0	0.73	734	3
Tulsa21	gravity	5	1	0	0.72	1029	3
Tulsa21	gravity	5	1	0	0.72	1450	3
CityCenter73	gravity	5	1	0	0.72	5213	2
CityCenter73	gravity	5	1	0	0.72	17485	2
fattree-6	gravity	5	1	0	0.7999999999999999	1948	2
fattree-6	gravity	5	1	0	0.7999999999999999	5540	2
Abilene	gravity	5	1	0	0.73	609	3
Abilene	gravity	5	1	0	0.73	661	3
Tulsa21	gravity	5	1	0	0.75	1853	3
Tulsa21	gravity	5	1	0	0.75	1699	3
Abilene	gravity	5	1	0.1	0.79	710	2
Abilene	gravity	5	1	0.1	0.79	703	3
fattree-6	gravity	5	1	0.1	0.79	2106	2
fattree-6	gravity	1	1	0.1	0.79	13975	2