digraph {
	"a.bgp.default.OUT" -> "b.bgp.default.IN" [label="10.0"]
	"a.bgp.default.OUT" -> "c.bgp.default.IN" [label="10.0"]
	"b.bgp.default.OUT" -> "a.bgp.default.IN" [label="10.0"]
	"b.bgp.default.OUT" -> "d.bgp.default.IN" [label="10.0"]
	"b.bgp.default.OUT" -> "c.bgp.default.IN" [label="10.0"]
	"c.bgp.default.OUT" -> "a.bgp.default.IN" [label="10.0"]
	"c.bgp.default.OUT" -> "b.bgp.default.IN" [label="10.0"]
	"d.bgp.default.OUT" -> "b.bgp.default.IN" [label="10.0"]
	"a.bgp.default.IN" -> "a.bgp.default.OUT" [label="0.0"]
	"b.bgp.default.IN" -> "b.bgp.default.OUT" [label="0.0"]
	"c.bgp.default.IN" -> "c.bgp.default.OUT" [label="0.0"]
	"d.bgp.default.IN" -> "d.bgp.default.OUT" [label="0.0"]
	"c.bgp.default.IN" -> "DESTINATION" [label="0.0"]
	"SOURCE" -> "b.bgp.default.OUT" [label="0.0"]
	"a.bgp.default.IN"[shape=oval, style=filled, fillcolor=blue]
	"a.bgp.default.OUT"[shape=oval, style=filled, fillcolor=blue]
	"b.bgp.default.IN"[shape=oval, style=filled, fillcolor=blue]
	"b.bgp.default.OUT"[shape=oval, style=filled, fillcolor=blue]
	"c.bgp.default.IN"[shape=oval, style=filled, fillcolor=blue]
	"c.bgp.default.OUT"[shape=oval, style=filled, fillcolor=blue]
	"d.bgp.default.IN"[shape=oval, style=filled, fillcolor=blue]
	"d.bgp.default.OUT"[shape=oval, style=filled, fillcolor=blue]
	"SOURCE"[shape=oval, style=filled, fillcolor=red]
	"DESTINATION"[shape=oval, style=filled, fillcolor=red]
label="12.0.0.0-12.255.255.255 -> 13.0.0.0-13.255.255.255"
}