digraph {
	"a.ospf.1.OUT" -> "d.ospf.1.IN" [label="10.0"]
	"a.ospf.1.OUT" -> "b.ospf.1.IN" [label="20.0"]
	"a.ospf.1.OUT" -> "c.ospf.1.IN" [label="70.0"]
	"a.ospf.1.OUT" -> "g.ospf.2.IN" [label="0.0"]
	"b.ospf.1.OUT" -> "c.ospf.1.IN" [label="20.0"]
	"b.ospf.1.OUT" -> "a.ospf.1.IN" [label="20.0"]
	"c.ospf.1.OUT" -> "b.ospf.1.IN" [label="20.0"]
	"c.ospf.1.OUT" -> "d.ospf.1.IN" [label="10.0"]
	"c.ospf.1.OUT" -> "a.ospf.1.IN" [label="70.0"]
	"d.ospf.1.OUT" -> "c.ospf.1.IN" [label="10.0"]
	"d.ospf.1.OUT" -> "a.ospf.1.IN" [label="10.0"]
	"d.ospf.2.OUT" -> "e.ospf.2.IN" [label="10.0"]
	"d.ospf.2.OUT" -> "g.ospf.2.IN" [label="10.0"]
	"e.ospf.2.OUT" -> "d.ospf.2.IN" [label="10.0"]
	"e.ospf.2.OUT" -> "f.ospf.2.IN" [label="20.0"]
	"e.ospf.2.OUT" -> "g.ospf.2.IN" [label="70.0"]
	"f.ospf.2.OUT" -> "e.ospf.2.IN" [label="20.0"]
	"f.ospf.2.OUT" -> "g.ospf.2.IN" [label="20.0"]
	"g.ospf.2.OUT" -> "f.ospf.2.IN" [label="20.0"]
	"g.ospf.2.OUT" -> "d.ospf.2.IN" [label="10.0"]
	"g.ospf.2.OUT" -> "e.ospf.2.IN" [label="70.0"]
	"g.ospf.2.OUT" -> "a.ospf.1.IN" [label="0.0"]
	"a.ospf.1.IN" -> "a.ospf.1.OUT" [label="0.0"]
	"b.ospf.1.IN" -> "b.ospf.1.OUT" [label="0.0"]
	"c.ospf.1.IN" -> "c.ospf.1.OUT" [label="0.0"]
	"d.ospf.1.IN" -> "d.ospf.1.OUT" [label="0.0"]
	"d.ospf.2.IN" -> "d.ospf.2.OUT" [label="560.0"]
	"e.ospf.2.IN" -> "e.ospf.2.OUT" [label="0.0"]
	"f.ospf.2.IN" -> "f.ospf.2.OUT" [label="0.0"]
	"g.ospf.2.IN" -> "g.ospf.2.OUT" [label="0.0"]
	"SOURCE" -> "DESTINATION" [label="0.0"]
	"f.ospf.2.IN" -> "DESTINATION" [label="0.0"]
	"SOURCE" -> "g.ospf.2.OUT" [label="0.0"]
	"a.ospf.1.IN"[shape=oval, style=filled, fillcolor=orange]
	"a.ospf.1.OUT"[shape=oval, style=filled, fillcolor=orange]
	"b.ospf.1.IN"[shape=oval, style=filled, fillcolor=orange]
	"b.ospf.1.OUT"[shape=oval, style=filled, fillcolor=orange]
	"c.ospf.1.IN"[shape=oval, style=filled, fillcolor=orange]
	"c.ospf.1.OUT"[shape=oval, style=filled, fillcolor=orange]
	"d.ospf.1.IN"[shape=oval, style=filled, fillcolor=orange]
	"d.ospf.1.OUT"[shape=oval, style=filled, fillcolor=orange]
	"d.ospf.2.IN"[shape=oval, style=filled, fillcolor=orange]
	"d.ospf.2.OUT"[shape=oval, style=filled, fillcolor=orange]
	"e.ospf.2.IN"[shape=oval, style=filled, fillcolor=orange]
	"e.ospf.2.OUT"[shape=oval, style=filled, fillcolor=orange]
	"f.ospf.2.IN"[shape=oval, style=filled, fillcolor=orange]
	"f.ospf.2.OUT"[shape=oval, style=filled, fillcolor=orange]
	"g.ospf.2.IN"[shape=oval, style=filled, fillcolor=orange]
	"g.ospf.2.OUT"[shape=oval, style=filled, fillcolor=orange]
	"SOURCE"[shape=oval, style=filled, fillcolor=red]
	"DESTINATION"[shape=oval, style=filled, fillcolor=red]
label="13.0.0.0-13.255.255.255 -> 16.0.0.0-16.255.255.255"
}