digraph {
	"a.bgp.3.OUT" -> "b.bgp.12.IN" [label="1.0"]
	"a.bgp.3.OUT" -> "f.bgp.12.IN" [label="1.0"]
	"b.bgp.12.OUT" -> "a.bgp.3.IN" [label="1.0"]
	"b.ospf.1.OUT" -> "c.ospf.1.IN" [label="1.0"]
	"b.ospf.1.OUT" -> "d.ospf.1.IN" [label="1.0"]
	"c.ospf.1.OUT" -> "b.ospf.1.IN" [label="1.0"]
	"c.ospf.1.OUT" -> "d.ospf.1.IN" [label="2.0"]
	"d.ospf.2.OUT" -> "e.ospf.2.IN" [label="2.0"]
	"d.ospf.2.OUT" -> "f.ospf.2.IN" [label="1.0"]
	"d.ospf.1.OUT" -> "b.ospf.1.IN" [label="1.0"]
	"d.ospf.1.OUT" -> "c.ospf.1.IN" [label="2.0"]
	"e.ospf.2.OUT" -> "f.ospf.2.IN" [label="4.0"]
	"e.ospf.2.OUT" -> "d.ospf.2.IN" [label="2.0"]
	"f.bgp.12.OUT" -> "a.bgp.3.IN" [label="1.0"]
	"f.ospf.2.OUT" -> "e.ospf.2.IN" [label="4.0"]
	"f.ospf.2.OUT" -> "d.ospf.2.IN" [label="1.0"]
	"a.bgp.3.IN" -> "a.bgp.3.OUT" [label="0.0"]
	"b.bgp.12.IN" -> "b.bgp.12.OUT" [label="0.0"]
	"b.ospf.1.IN" -> "b.bgp.12.OUT" [label="20.0"]
	"b.bgp.12.IN" -> "b.ospf.1.OUT" [label="3.0"]
	"b.ospf.1.IN" -> "b.ospf.1.OUT" [label="6.0"]
	"c.ospf.1.IN" -> "c.ospf.1.OUT" [label="0.0"]
	"d.ospf.1.IN" -> "d.ospf.1.OUT" [label="0.0"]
	"d.ospf.2.IN" -> "d.ospf.2.OUT" [label="12.0"]
	"e.ospf.2.IN" -> "e.ospf.2.OUT" [label="0.0"]
	"f.bgp.12.IN" -> "f.bgp.12.OUT" [label="0.0"]
	"f.bgp.12.IN" -> "f.ospf.2.OUT" [label="3.0"]
	"f.ospf.2.IN" -> "f.ospf.2.OUT" [label="12.0"]
	"SOURCE" -> "e.ospf.2.OUT" [label="0.0"]
	"d.ospf.2.IN" -> "DESTINATION" [label="0.0"]
	"f.bgp.12.IN" -> "DESTINATION" [label="0.0"]
	"f.ospf.2.IN" -> "DESTINATION" [label="0.0"]
	"a.bgp.3.IN"[shape=oval, style=filled, fillcolor=blue]
	"a.bgp.3.OUT"[shape=oval, style=filled, fillcolor=blue]
	"b.bgp.12.IN"[shape=oval, style=filled, fillcolor=blue]
	"b.bgp.12.OUT"[shape=oval, style=filled, fillcolor=blue]
	"b.ospf.1.IN"[shape=oval, style=filled, fillcolor=orange]
	"b.ospf.1.OUT"[shape=oval, style=filled, fillcolor=orange]
	"c.ospf.1.IN"[shape=oval, style=filled, fillcolor=orange]
	"c.ospf.1.OUT"[shape=oval, style=filled, fillcolor=orange]
	"d.ospf.2.IN"[shape=oval, style=filled, fillcolor=orange]
	"d.ospf.2.OUT"[shape=oval, style=filled, fillcolor=orange]
	"d.ospf.1.IN"[shape=oval, style=filled, fillcolor=orange]
	"d.ospf.1.OUT"[shape=oval, style=filled, fillcolor=orange]
	"e.ospf.2.IN"[shape=oval, style=filled, fillcolor=orange]
	"e.ospf.2.OUT"[shape=oval, style=filled, fillcolor=orange]
	"f.bgp.12.IN"[shape=oval, style=filled, fillcolor=blue]
	"f.bgp.12.OUT"[shape=oval, style=filled, fillcolor=blue]
	"f.ospf.2.IN"[shape=oval, style=filled, fillcolor=orange]
	"f.ospf.2.OUT"[shape=oval, style=filled, fillcolor=orange]
	"SOURCE"[shape=oval, style=filled, fillcolor=red]
	"DESTINATION"[shape=oval, style=filled, fillcolor=red]
label="2.0.0.0-2.255.255.255 -> 1.0.2.4-1.0.2.5"
}