*** Settings ***
Configs directory: /users/rshrestha/arc_repair/projects/arc/scripts/../../../configs/madison/2012-07-03-11-50-13
Warn assumptions: false
Routers Only: false
Waypoints file: null
Minimum policy group size: 255
Include entire flowspace: false
Generate per-flow ETGs: true
Generate per-destination ETGs: false
Use interface descriptions to generate device-based ETG: false
Parallelize: false
Graphs directory: null
Test files: null
Serialized ETGs file: null
Verify currently blocked: false
Verify always blocked: false
Verify always reachable: false K=-1
Verify always traverse waypoint: false
Verify always isolated: false
Verify primary path: false
Verify path equivalence: false VIRL-log=null
Verify equivalence: false Comparison ETGs=null
Fault Localize Method: null
Check Polcies File: /shared/output/changes/simplified_dist/2013-11-18-19-16-24/policies.obj
Save policies file: null
Edit policies file: null
Repair: false Policies=null
Modifier: null
Objective: null
Compare ETGs file: null
Only repair broken ETGs: false
Compare configs file: null
*** Reading configuration files ***
*** Extract Policy Groups ***
Parsing r-122ol-100-1-core...OK
Parsing r-432nm-b3a-1-core...OK
Parsing r-432nm-b3a-10-core...OK
Parsing r-432nm-b3a-2-core...OK
Parsing r-432nm-b3a-4-node...OK
Parsing r-565sd-tc1-1-core...OK
Parsing r-9161kemp-lab-1-radial...OK
Parsing r-aghall-13-1-node...OK
Parsing r-aghall-13-2-node...OK
Parsing r-animal-122a-1-core...OK
Parsing r-animal-122a-2-core...OK
Parsing r-chmbrln-1327-1-radial...OK
Parsing r-csc-101h5-1-node...OK
Parsing r-csc-101h5-2-node...OK
Parsing r-cssc-8350-1-core...OK
Parsing r-cssc-b280c-1-core...OK
Parsing r-cssc-b280c-2-core...OK
Parsing r-cssc-b280c-3-blackhole...OK
Parsing r-cssc-b280c-5-node...OK
Parsing r-cssc-b280c-7-core...OK
Parsing r-cssc-b280c-8-core...OK
Parsing r-cssc-b280c-9-core...OK
Parsing r-csscplat-b380-1-node...OK
Parsing r-csscplat-b380-3-core...OK
Parsing r-csscplat-b380-7-node...OK
Parsing r-exc8010-107-1-core...OK
Parsing r-hotspare-b360-1-hotspare...OK
Parsing r-krc51-79-1-core...OK
Parsing r-pineb-basement-1-vpn...OK
Parsing r-primatebm-tc1-1-core...OK
Parsing r-uwpic-tc1-1-core...OK
Parsing r-wa1245-211-1-core...OK
Parsing r-wa222-12-1-radial...OK
Parsing r-warfplat-b156-2-node...OK
Parsing r-warfplat-b156-8-node...OK
RESULTS_START: PolicyGroups
	10.128.13.0-10.128.13.255 INTERNAL
	10.128.14.0-10.128.14.255 INTERNAL
	10.128.21.0-10.128.21.255 INTERNAL
	10.128.26.0-10.128.26.255 INTERNAL
	10.128.27.0-10.128.27.255 INTERNAL
	10.128.30.0-10.128.30.255 INTERNAL
	10.128.31.0-10.128.31.255 INTERNAL
	10.128.33.0-10.128.33.255 INTERNAL
	10.128.34.0-10.128.34.255 INTERNAL
	10.128.36.0-10.128.36.255 INTERNAL
	10.128.37.0-10.128.37.255 INTERNAL
	10.128.38.0-10.128.38.255 INTERNAL
	10.128.40.0-10.128.43.255 INTERNAL
	10.128.57.0-10.128.57.255 INTERNAL
	10.128.58.0-10.128.59.255 INTERNAL
	10.128.60.0-10.128.60.255 INTERNAL
	10.128.64.0-10.128.71.255 INTERNAL
	10.128.72.0-10.128.72.255 INTERNAL
	10.128.75.0-10.128.75.255 INTERNAL
	10.128.76.0-10.128.76.255 INTERNAL
	10.128.77.0-10.128.77.255 INTERNAL
	10.128.78.0-10.128.78.255 INTERNAL
	10.128.79.0-10.128.79.255 INTERNAL
	10.128.80.0-10.128.80.255 INTERNAL
	10.128.82.0-10.128.82.255 INTERNAL
	10.128.250.0-10.128.250.255 INTERNAL
	10.128.251.0-10.128.251.255 INTERNAL
	10.151.50.0-10.151.50.255 INTERNAL
	72.33.4.0-72.33.5.255 INTERNAL
	72.33.6.0-72.33.6.255 INTERNAL
	72.33.7.0-72.33.7.255 INTERNAL
	72.33.12.0-72.33.12.255 INTERNAL
	72.33.14.0-72.33.15.255 INTERNAL
	72.33.17.0-72.33.17.255 INTERNAL
	72.33.27.0-72.33.27.255 INTERNAL
	72.33.28.0-72.33.31.255 INTERNAL
	72.33.36.0-72.33.36.255 INTERNAL
	72.33.37.0-72.33.37.255 INTERNAL
	72.33.40.0-72.33.40.255 INTERNAL
	72.33.42.0-72.33.43.255 INTERNAL
	72.33.44.0-72.33.47.255 INTERNAL
	72.33.50.0-72.33.50.255 INTERNAL
	72.33.51.0-72.33.51.255 INTERNAL
	72.33.53.0-72.33.53.255 INTERNAL
	72.33.66.0-72.33.67.255 INTERNAL
	72.33.68.0-72.33.69.255 INTERNAL
	72.33.74.0-72.33.75.255 INTERNAL
	72.33.86.0-72.33.87.255 INTERNAL
	72.33.90.0-72.33.91.255 INTERNAL
	72.33.106.0-72.33.107.255 INTERNAL
	72.33.108.0-72.33.109.255 INTERNAL
	72.33.110.0-72.33.111.255 INTERNAL
	72.33.115.0-72.33.115.255 INTERNAL
	72.33.120.0-72.33.121.255 INTERNAL
	72.33.122.0-72.33.122.255 INTERNAL
	72.33.126.0-72.33.127.255 INTERNAL
	72.33.128.0-72.33.135.255 INTERNAL
	72.33.140.0-72.33.143.255 INTERNAL
	72.33.144.0-72.33.147.255 INTERNAL
	72.33.148.0-72.33.148.255 INTERNAL
	72.33.149.0-72.33.149.255 INTERNAL
	72.33.150.0-72.33.150.255 INTERNAL
	72.33.151.0-72.33.151.255 INTERNAL
	72.33.160.0-72.33.163.255 INTERNAL
	72.33.164.0-72.33.167.255 INTERNAL
	72.33.168.0-72.33.171.255 INTERNAL
	72.33.172.0-72.33.175.255 INTERNAL
	72.33.176.0-72.33.179.255 INTERNAL
	72.33.180.0-72.33.183.255 INTERNAL
	72.33.184.0-72.33.187.255 INTERNAL
	72.33.188.0-72.33.191.255 INTERNAL
	72.33.192.0-72.33.195.255 INTERNAL
	72.33.196.0-72.33.199.255 INTERNAL
	72.33.200.0-72.33.203.255 INTERNAL
	72.33.204.0-72.33.207.255 INTERNAL
	72.33.208.0-72.33.211.255 INTERNAL
	72.33.212.0-72.33.215.255 INTERNAL
	72.33.216.0-72.33.219.255 INTERNAL
	72.33.220.0-72.33.223.255 INTERNAL
	72.33.224.0-72.33.227.255 INTERNAL
	72.33.228.0-72.33.231.255 INTERNAL
	72.33.232.0-72.33.235.255 INTERNAL
	72.33.236.0-72.33.239.255 INTERNAL
	72.33.240.0-72.33.243.255 INTERNAL
	72.33.244.0-72.33.247.255 INTERNAL
	72.33.248.0-72.33.251.255 INTERNAL
	128.104.16.0-128.104.19.255 INTERNAL
	128.104.24.0-128.104.24.255 INTERNAL
	128.104.28.0-128.104.29.255 INTERNAL
	128.104.38.0-128.104.38.255 INTERNAL
	128.104.47.0-128.104.47.255 INTERNAL
	128.104.60.0-128.104.61.255 INTERNAL
	128.104.63.0-128.104.63.255 INTERNAL
	128.104.75.0-128.104.75.255 INTERNAL
	128.104.80.0-128.104.81.255 INTERNAL
	128.104.88.0-128.104.88.255 INTERNAL
	128.104.98.0-128.104.98.255 INTERNAL
	128.104.106.0-128.104.106.255 INTERNAL
	128.104.112.0-128.104.115.255 INTERNAL
	128.104.120.0-128.104.120.255 INTERNAL
	128.104.122.0-128.104.123.255 INTERNAL
	128.104.130.0-128.104.131.255 INTERNAL
	128.104.145.0-128.104.145.255 INTERNAL
	128.104.150.0-128.104.151.255 INTERNAL
	128.104.157.0-128.104.157.255 INTERNAL
	128.104.161.0-128.104.161.255 INTERNAL
	128.104.167.0-128.104.167.255 INTERNAL
	128.104.176.0-128.104.179.255 INTERNAL
	128.104.180.0-128.104.183.255 INTERNAL
	128.104.200.0-128.104.200.255 INTERNAL
	128.104.201.0-128.104.201.255 INTERNAL
	128.104.212.0-128.104.215.255 INTERNAL
	128.104.219.0-128.104.219.255 INTERNAL
	128.104.224.0-128.104.224.255 INTERNAL
	128.104.232.0-128.104.232.255 INTERNAL
	128.104.234.0-128.104.235.255 INTERNAL
	128.104.238.0-128.104.239.255 INTERNAL
	128.104.244.0-128.104.245.255 INTERNAL
	128.104.248.0-128.104.251.255 INTERNAL
	144.92.1.0-144.92.1.255 INTERNAL
	144.92.4.0-144.92.4.255 INTERNAL
	144.92.12.0-144.92.13.255 INTERNAL
	144.92.14.0-144.92.14.255 INTERNAL
	144.92.25.0-144.92.25.255 INTERNAL
	144.92.30.0-144.92.30.255 INTERNAL
	144.92.34.0-144.92.34.255 INTERNAL
	144.92.37.0-144.92.37.255 INTERNAL
	144.92.52.0-144.92.53.255 INTERNAL
	144.92.55.0-144.92.55.255 INTERNAL
	144.92.56.0-144.92.57.255 INTERNAL
	144.92.67.0-144.92.67.255 INTERNAL
	144.92.70.0-144.92.70.255 INTERNAL
	144.92.74.0-144.92.74.255 INTERNAL
	144.92.75.0-144.92.75.255 INTERNAL
	144.92.78.0-144.92.78.255 INTERNAL
	144.92.79.0-144.92.79.255 INTERNAL
	144.92.82.0-144.92.82.255 INTERNAL
	144.92.90.0-144.92.91.255 INTERNAL
	144.92.92.0-144.92.92.255 INTERNAL
	144.92.94.0-144.92.94.255 INTERNAL
	144.92.96.0-144.92.96.255 INTERNAL
	144.92.100.0-144.92.100.255 INTERNAL
	144.92.101.0-144.92.101.255 INTERNAL
	144.92.109.0-144.92.109.255 INTERNAL
	144.92.110.0-144.92.110.255 INTERNAL
	144.92.117.0-144.92.117.255 INTERNAL
	144.92.118.0-144.92.118.255 INTERNAL
	144.92.120.0-144.92.120.255 INTERNAL
	144.92.122.0-144.92.122.255 INTERNAL
	144.92.123.0-144.92.123.255 INTERNAL
	144.92.130.0-144.92.131.255 INTERNAL
	144.92.132.0-144.92.132.255 INTERNAL
	144.92.137.0-144.92.137.255 INTERNAL
	144.92.141.0-144.92.141.255 INTERNAL
	144.92.144.0-144.92.144.255 INTERNAL
	144.92.146.0-144.92.146.255 INTERNAL
	144.92.147.0-144.92.147.255 INTERNAL
	144.92.156.0-144.92.156.255 INTERNAL
	144.92.158.0-144.92.158.255 INTERNAL
	144.92.160.0-144.92.160.255 INTERNAL
	144.92.162.0-144.92.163.255 INTERNAL
	144.92.165.0-144.92.165.255 INTERNAL
	144.92.166.0-144.92.166.255 INTERNAL
	144.92.171.0-144.92.171.255 INTERNAL
	144.92.172.0-144.92.172.255 INTERNAL
	144.92.174.0-144.92.175.145 INTERNAL
	144.92.176.0-144.92.176.255 INTERNAL
	144.92.180.0-144.92.181.255 INTERNAL
	144.92.182.0-144.92.183.255 INTERNAL
	144.92.184.0-144.92.184.255 INTERNAL
	144.92.186.0-144.92.187.255 INTERNAL
	144.92.188.0-144.92.191.255 INTERNAL
	144.92.192.0-144.92.192.255 INTERNAL
	144.92.196.0-144.92.196.255 INTERNAL
	144.92.198.0-144.92.199.255 INTERNAL
	144.92.200.0-144.92.200.255 INTERNAL
	144.92.206.0-144.92.207.255 INTERNAL
	144.92.208.0-144.92.211.255 INTERNAL
	144.92.212.0-144.92.213.255 INTERNAL
	144.92.214.0-144.92.215.255 INTERNAL
	144.92.225.0-144.92.225.255 INTERNAL
	144.92.226.0-144.92.226.255 INTERNAL
	144.92.231.0-144.92.231.255 INTERNAL
	144.92.235.0-144.92.235.255 INTERNAL
	144.92.236.0-144.92.236.255 INTERNAL
	144.92.240.0-144.92.243.255 INTERNAL
	144.92.244.0-144.92.244.255 INTERNAL
	144.92.246.0-144.92.246.255 INTERNAL
	144.92.247.0-144.92.247.255 INTERNAL
	144.92.251.0-144.92.251.255 INTERNAL
	144.92.252.0-144.92.252.255 INTERNAL
	144.92.255.0-144.92.255.255 INTERNAL
	172.16.10.0-172.16.11.255 INTERNAL
	172.16.12.0-172.16.12.255 INTERNAL
	172.19.201.0-172.19.201.255 INTERNAL
RESULTS_END: PolicyGroups
COUNT: policyGroups 195
COUNT: devices 35
Devices:
	r-122ol-100-1-core
	r-432nm-b3a-1-core
	r-432nm-b3a-10-core
	r-432nm-b3a-2-core
	r-432nm-b3a-4-node
	r-565sd-tc1-1-core
	r-9161kemp-lab-1-radial
	r-aghall-13-1-node
	r-aghall-13-2-node
	r-animal-122a-1-core
	r-animal-122a-2-core
	r-chmbrln-1327-1-radial
	r-csc-101h5-1-node
	r-csc-101h5-2-node
	r-cssc-8350-1-core
	r-cssc-b280c-1-core
	r-cssc-b280c-2-core
	r-cssc-b280c-3-blackhole
	r-cssc-b280c-5-node
	r-cssc-b280c-7-core
	r-cssc-b280c-8-core
	r-cssc-b280c-9-core
	r-csscplat-b380-1-node
	r-csscplat-b380-3-core
	r-csscplat-b380-7-node
	r-exc8010-107-1-core
	r-hotspare-b360-1-hotspare
	r-krc51-79-1-core
	r-pineb-basement-1-vpn
	r-primatebm-tc1-1-core
	r-uwpic-tc1-1-core
	r-wa1245-211-1-core
	r-wa222-12-1-radial
	r-warfplat-b156-2-node
	r-warfplat-b156-8-node
*** Generate device-based ETG ***
More than two interfaces in the subnet 144.92.108.48/28
More than two interfaces in the subnet 144.92.133.192/28
More than two interfaces in the subnet 146.151.144.128/25
COUNT: deviceETGVertices 35
COUNT: deviceETGEdges 54
*** Generate process-based ETG ***
r-cssc-b280c-1-core does not have an interface to reach BGP peer 146.151.162.248
r-cssc-b280c-1-core does not have an interface to reach BGP peer 146.151.162.251
No interface connected to r-cssc-b280c-1-core:Vlan1557 which is used by process r-cssc-b280c-1-core.OSPF.default
No interface connected to r-cssc-b280c-1-core:Vlan1864 which is used by process r-cssc-b280c-1-core.OSPF.default
No interface connected to r-cssc-b280c-1-core:Vlan278 which is used by process r-cssc-b280c-1-core.OSPF.default
No interface connected to r-cssc-b280c-1-core:Vlan444 which is used by process r-cssc-b280c-1-core.OSPF.default
No interface connected to r-cssc-b280c-1-core:Vlan3326 which is used by process r-cssc-b280c-1-core.STATIC.128.104.1.116
No interface connected to r-cssc-b280c-1-core:Vlan3326 which is used by process r-cssc-b280c-1-core.STATIC.128.104.1.117
No interface connected to r-cssc-b280c-1-core:Vlan800 which is used by process r-cssc-b280c-1-core.STATIC.128.104.124.0
No interface connected to r-cssc-b280c-1-core:Vlan494 which is used by process r-cssc-b280c-1-core.STATIC.128.104.144.112
No interface connected to r-cssc-b280c-1-core:Vlan859 which is used by process r-cssc-b280c-1-core.STATIC.128.104.231.0
No interface connected to r-cssc-b280c-1-core:Vlan800 which is used by process r-cssc-b280c-1-core.STATIC.144.92.38.64
No interface connected to r-cssc-b280c-1-core:Vlan800 which is used by process r-cssc-b280c-1-core.STATIC.144.92.60.0
No interface connected to r-cssc-b280c-1-core:Vlan859 which is used by process r-cssc-b280c-1-core.STATIC.144.92.139.216
r-cssc-b280c-7-core does not have an interface to reach BGP peer 146.151.162.248
r-cssc-b280c-7-core does not have an interface to reach BGP peer 146.151.162.251
No interface connected to r-cssc-b280c-7-core:Vlan2047 which is used by process r-cssc-b280c-7-core.OSPF.default
No interface connected to r-cssc-b280c-7-core:Vlan2240 which is used by process r-cssc-b280c-7-core.OSPF.default
No interface connected to r-cssc-b280c-7-core:Vlan493 which is used by process r-cssc-b280c-7-core.OSPF.default
r-432nm-b3a-10-core does not have an interface to reach BGP peer 146.151.160.1
r-432nm-b3a-10-core does not have an interface to reach BGP peer 146.151.160.2
r-432nm-b3a-10-core does not have an interface to reach BGP peer 146.151.160.3
r-432nm-b3a-10-core does not have an interface to reach BGP peer 146.151.160.4
r-432nm-b3a-10-core does not have an interface to reach BGP peer 146.151.160.5
r-432nm-b3a-10-core does not have an interface to reach BGP peer 146.151.160.6
r-432nm-b3a-10-core does not have an interface to reach BGP peer 146.151.160.245
r-432nm-b3a-10-core does not have an interface to reach BGP peer 146.151.162.248
r-432nm-b3a-10-core does not have an interface to reach BGP peer 146.151.162.249
r-432nm-b3a-10-core does not have an interface to reach BGP peer 146.151.162.250
No interface connected to r-432nm-b3a-10-core:Vlan2055 which is used by process r-432nm-b3a-10-core.OSPF.default
No interface connected to r-432nm-b3a-10-core:Vlan2065 which is used by process r-432nm-b3a-10-core.OSPF.default
No interface connected to r-565sd-tc1-1-core:Vlan880 which is used by process r-565sd-tc1-1-core.OSPF.default
No interface connected to r-565sd-tc1-1-core:Vlan885 which is used by process r-565sd-tc1-1-core.STATIC.128.104.25.0
No interface connected to r-565sd-tc1-1-core:Vlan883 which is used by process r-565sd-tc1-1-core.STATIC.128.104.31.16
No interface connected to r-565sd-tc1-1-core:Vlan881 which is used by process r-565sd-tc1-1-core.STATIC.128.104.31.32
No interface connected to r-565sd-tc1-1-core:Vlan881 which is used by process r-565sd-tc1-1-core.STATIC.128.104.31.48
No interface connected to r-565sd-tc1-1-core:Vlan881 which is used by process r-565sd-tc1-1-core.STATIC.128.104.121.192
No interface connected to r-565sd-tc1-1-core:Vlan879 which is used by process r-565sd-tc1-1-core.STATIC.128.104.226.0
No interface connected to r-565sd-tc1-1-core:Vlan881 which is used by process r-565sd-tc1-1-core.STATIC.144.92.24.160
No interface connected to r-565sd-tc1-1-core:Vlan883 which is used by process r-565sd-tc1-1-core.STATIC.144.92.35.128
No interface connected to r-565sd-tc1-1-core:Vlan882 which is used by process r-565sd-tc1-1-core.STATIC.144.92.44.64
No interface connected to r-565sd-tc1-1-core:Vlan882 which is used by process r-565sd-tc1-1-core.STATIC.144.92.89.96
No interface connected to r-565sd-tc1-1-core:Vlan885 which is used by process r-565sd-tc1-1-core.STATIC.144.92.127.160
r-432nm-b3a-2-core does not have an interface to reach BGP peer 146.151.162.248
r-432nm-b3a-2-core does not have an interface to reach BGP peer 146.151.162.251
No interface connected to r-432nm-b3a-2-core:Vlan1793 which is used by process r-432nm-b3a-2-core.OSPF.default
No interface connected to r-432nm-b3a-2-core:Vlan1866 which is used by process r-432nm-b3a-2-core.OSPF.default
No interface connected to r-432nm-b3a-2-core:Vlan602 which is used by process r-432nm-b3a-2-core.OSPF.default
No interface connected to r-432nm-b3a-2-core:Vlan3006 which is used by process r-432nm-b3a-2-core.STATIC.128.104.1.112
No interface connected to r-432nm-b3a-2-core:Vlan3006 which is used by process r-432nm-b3a-2-core.STATIC.128.104.1.113
No interface connected to r-432nm-b3a-2-core:Vlan2949 which is used by process r-432nm-b3a-2-core.STATIC.144.92.114.64
No interface connected to r-csc-101h5-2-node:Vlan1515 which is used by process r-csc-101h5-2-node.OSPF.default
No interface connected to r-csc-101h5-2-node:Vlan222 which is used by process r-csc-101h5-2-node.OSPF.default
No interface connected to r-csc-101h5-2-node:Vlan463 which is used by process r-csc-101h5-2-node.OSPF.default
r-csscplat-b380-3-core does not have an interface to reach BGP peer 146.151.162.248
r-csscplat-b380-3-core does not have an interface to reach BGP peer 146.151.162.251
No interface connected to r-csscplat-b380-3-core:GigabitEthernet9/10 which is used by process r-csscplat-b380-3-core.OSPF.default
No interface connected to r-csscplat-b380-3-core:Vlan880 which is used by process r-csscplat-b380-3-core.OSPF.default
No interface connected to r-csscplat-b380-3-core:Vlan427 which is used by process r-csscplat-b380-3-core.STATIC.144.92.86.0
No interface connected to r-csscplat-b380-3-core:Vlan427 which is used by process r-csscplat-b380-3-core.STATIC.144.92.155.0
No interface connected to r-csscplat-b380-3-core:Vlan2666 which is used by process r-csscplat-b380-3-core.STATIC.144.92.159.128
No interface connected to r-csscplat-b380-3-core:Vlan427 which is used by process r-csscplat-b380-3-core.STATIC.144.92.248.0
No interface connected to r-csscplat-b380-3-core:Vlan427 which is used by process r-csscplat-b380-3-core.STATIC.144.92.248.16
No interface connected to r-csscplat-b380-3-core:Vlan427 which is used by process r-csscplat-b380-3-core.STATIC.144.92.248.32
No interface connected to r-csscplat-b380-3-core:Vlan427 which is used by process r-csscplat-b380-3-core.STATIC.144.92.248.64
No interface connected to r-csscplat-b380-3-core:Vlan427 which is used by process r-csscplat-b380-3-core.STATIC.144.92.248.128
No interface connected to r-csscplat-b380-1-node:Vlan1569 which is used by process r-csscplat-b380-1-node.OSPF.default
No interface connected to r-csscplat-b380-1-node:Vlan1683 which is used by process r-csscplat-b380-1-node.OSPF.default
No interface connected to r-csscplat-b380-1-node:Vlan1691 which is used by process r-csscplat-b380-1-node.OSPF.default
No interface connected to r-csscplat-b380-1-node:Vlan1703 which is used by process r-csscplat-b380-1-node.OSPF.default
No interface connected to r-csscplat-b380-1-node:Vlan1707 which is used by process r-csscplat-b380-1-node.OSPF.default
No interface connected to r-csscplat-b380-1-node:Vlan1711 which is used by process r-csscplat-b380-1-node.OSPF.default
No interface connected to r-csscplat-b380-1-node:Vlan1715 which is used by process r-csscplat-b380-1-node.OSPF.default
No interface connected to r-csscplat-b380-1-node:Vlan2325 which is used by process r-csscplat-b380-1-node.OSPF.default
No interface connected to r-csscplat-b380-1-node:Vlan2329 which is used by process r-csscplat-b380-1-node.OSPF.default
No interface connected to r-csscplat-b380-1-node:Vlan950 which is used by process r-csscplat-b380-1-node.OSPF.default
No interface connected to r-csscplat-b380-1-node:Vlan603 which is used by process r-csscplat-b380-1-node.OSPF.default
No interface connected to r-csscplat-b380-1-node:Vlan73 which is used by process r-csscplat-b380-1-node.OSPF.default
No interface connected to r-csscplat-b380-1-node:Vlan953 which is used by process r-csscplat-b380-1-node.STATIC.146.151.192.0
r-cssc-b280c-9-core does not have an interface to reach BGP peer 146.151.160.1
r-cssc-b280c-9-core does not have an interface to reach BGP peer 146.151.160.2
r-cssc-b280c-9-core does not have an interface to reach BGP peer 146.151.160.3
r-cssc-b280c-9-core does not have an interface to reach BGP peer 146.151.160.4
r-cssc-b280c-9-core does not have an interface to reach BGP peer 146.151.160.5
r-cssc-b280c-9-core does not have an interface to reach BGP peer 146.151.160.6
r-cssc-b280c-9-core does not have an interface to reach BGP peer 146.151.160.245
r-cssc-b280c-9-core does not have an interface to reach BGP peer 146.151.162.249
r-cssc-b280c-9-core does not have an interface to reach BGP peer 146.151.162.250
r-cssc-b280c-9-core does not have an interface to reach BGP peer 146.151.162.251
No interface connected to r-cssc-b280c-9-core:Vlan1627 which is used by process r-cssc-b280c-9-core.OSPF.default
No interface connected to r-chmbrln-1327-1-radial:Vlan2240 which is used by process r-chmbrln-1327-1-radial.OSPF.default
No interface connected to r-chmbrln-1327-1-radial:Vlan2241 which is used by process r-chmbrln-1327-1-radial.OSPF.default
No interface connected to r-csscplat-b380-7-node:Vlan2375 which is used by process r-csscplat-b380-7-node.OSPF.default
No interface connected to r-9161kemp-lab-1-radial:Serial0/0/0 which is used by process r-9161kemp-lab-1-radial.STATIC.0.0.0.0
No interface connected to r-primatebm-tc1-1-core:GigabitEthernet0/0 which is used by process r-primatebm-tc1-1-core.STATIC.0.0.0.0
No interface connected to r-aghall-13-1-node:Vlan1506 which is used by process r-aghall-13-1-node.OSPF.default
No interface connected to r-aghall-13-1-node:Vlan1605 which is used by process r-aghall-13-1-node.OSPF.default
No interface connected to r-aghall-13-1-node:Vlan735 which is used by process r-aghall-13-1-node.STATIC.144.92.84.0
No interface connected to r-aghall-13-1-node:Vlan735 which is used by process r-aghall-13-1-node.STATIC.144.92.248.0
No interface connected to r-exc8010-107-1-core:Vlan296 which is used by process r-exc8010-107-1-core.STATIC.144.92.148.128
r-animal-122a-1-core does not have an interface to reach BGP peer 146.151.162.248
r-animal-122a-1-core does not have an interface to reach BGP peer 146.151.162.251
No interface connected to r-animal-122a-1-core:Vlan1865 which is used by process r-animal-122a-1-core.OSPF.default
No interface connected to r-animal-122a-1-core:Vlan1751 which is used by process r-animal-122a-1-core.OSPF.default
No interface connected to r-animal-122a-1-core:Vlan775 which is used by process r-animal-122a-1-core.STATIC.144.92.72.32
No interface connected to r-animal-122a-1-core:Vlan777 which is used by process r-animal-122a-1-core.STATIC.144.92.185.0
No interface connected to r-cssc-b280c-3-blackhole:Vlan400 which is used by process r-cssc-b280c-3-blackhole.STATIC.10.0.0.0
No interface connected to r-cssc-b280c-3-blackhole:Vlan400 which is used by process r-cssc-b280c-3-blackhole.STATIC.10.128.0.0
No interface connected to r-cssc-b280c-3-blackhole:Vlan400 which is used by process r-cssc-b280c-3-blackhole.STATIC.10.128.0.0
No interface connected to r-cssc-b280c-3-blackhole:Vlan400 which is used by process r-cssc-b280c-3-blackhole.STATIC.10.144.0.0
No interface connected to r-cssc-b280c-3-blackhole:Vlan400 which is used by process r-cssc-b280c-3-blackhole.STATIC.72.33.0.0
No interface connected to r-cssc-b280c-3-blackhole:Vlan400 which is used by process r-cssc-b280c-3-blackhole.STATIC.72.33.128.0
No interface connected to r-cssc-b280c-3-blackhole:Vlan400 which is used by process r-cssc-b280c-3-blackhole.STATIC.128.104.0.0
No interface connected to r-cssc-b280c-3-blackhole:Vlan400 which is used by process r-cssc-b280c-3-blackhole.STATIC.128.104.128.0
No interface connected to r-cssc-b280c-3-blackhole:Vlan400 which is used by process r-cssc-b280c-3-blackhole.STATIC.128.105.0.0
No interface connected to r-cssc-b280c-3-blackhole:Vlan400 which is used by process r-cssc-b280c-3-blackhole.STATIC.128.105.128.0
No interface connected to r-cssc-b280c-3-blackhole:Vlan400 which is used by process r-cssc-b280c-3-blackhole.STATIC.144.92.0.0
No interface connected to r-cssc-b280c-3-blackhole:Vlan400 which is used by process r-cssc-b280c-3-blackhole.STATIC.144.92.128.0
No interface connected to r-cssc-b280c-3-blackhole:Vlan400 which is used by process r-cssc-b280c-3-blackhole.STATIC.146.151.128.0
No interface connected to r-cssc-8350-1-core:Tunnel0 which is used by process r-cssc-8350-1-core.STATIC.172.19.0.0
No interface connected to r-cssc-8350-1-core:Tunnel0 which is used by process r-cssc-8350-1-core.STATIC.172.19.2.0
No interface connected to r-cssc-8350-1-core:Tunnel0 which is used by process r-cssc-8350-1-core.STATIC.172.19.100.0
r-432nm-b3a-1-core does not have an interface to reach BGP peer 146.151.162.248
r-432nm-b3a-1-core does not have an interface to reach BGP peer 146.151.162.251
No interface connected to r-432nm-b3a-1-core:Vlan1823 which is used by process r-432nm-b3a-1-core.OSPF.default
No interface connected to r-432nm-b3a-1-core:Vlan1866 which is used by process r-432nm-b3a-1-core.OSPF.default
No interface connected to r-432nm-b3a-1-core:Vlan2022 which is used by process r-432nm-b3a-1-core.OSPF.default
No interface connected to r-432nm-b3a-1-core:Vlan602 which is used by process r-432nm-b3a-1-core.OSPF.default
No interface connected to r-432nm-b3a-1-core:Vlan3006 which is used by process r-432nm-b3a-1-core.STATIC.128.104.1.112
No interface connected to r-432nm-b3a-1-core:Vlan3006 which is used by process r-432nm-b3a-1-core.STATIC.128.104.1.113
No interface connected to r-432nm-b3a-1-core:Vlan51 which is used by process r-432nm-b3a-1-core.STATIC.144.92.68.128
No interface connected to r-432nm-b3a-1-core:Vlan233 which is used by process r-432nm-b3a-1-core.STATIC.144.92.72.16
No interface connected to r-432nm-b3a-1-core:Vlan2949 which is used by process r-432nm-b3a-1-core.STATIC.144.92.114.64
No interface connected to r-432nm-b3a-1-core:Vlan233 which is used by process r-432nm-b3a-1-core.STATIC.144.92.164.224
No interface connected to r-wa222-12-1-radial:Port-Channel11 which is used by process r-wa222-12-1-radial.STATIC.10.128.12.0
No interface connected to r-wa222-12-1-radial:Port-Channel11 which is used by process r-wa222-12-1-radial.STATIC.10.128.32.208
No interface connected to r-wa222-12-1-radial:TenGigabitEthernet1/2 which is used by process r-wa222-12-1-radial.STATIC.128.104.5.0
No interface connected to r-wa222-12-1-radial:TenGigabitEthernet1/2 which is used by process r-wa222-12-1-radial.STATIC.128.104.255.0
r-cssc-b280c-8-core does not have an interface to reach BGP peer 146.151.162.248
r-cssc-b280c-8-core does not have an interface to reach BGP peer 146.151.162.251
No interface connected to r-cssc-b280c-8-core:Vlan2047 which is used by process r-cssc-b280c-8-core.OSPF.default
No interface connected to r-cssc-b280c-8-core:Vlan2241 which is used by process r-cssc-b280c-8-core.OSPF.default
No interface connected to r-cssc-b280c-8-core:Vlan492 which is used by process r-cssc-b280c-8-core.OSPF.default
r-cssc-b280c-2-core does not have an interface to reach BGP peer 146.151.162.248
r-cssc-b280c-2-core does not have an interface to reach BGP peer 146.151.162.251
No interface connected to r-cssc-b280c-2-core:Vlan1558 which is used by process r-cssc-b280c-2-core.OSPF.default
No interface connected to r-cssc-b280c-2-core:Vlan1864 which is used by process r-cssc-b280c-2-core.OSPF.default
No interface connected to r-cssc-b280c-2-core:Vlan278 which is used by process r-cssc-b280c-2-core.OSPF.default
No interface connected to r-cssc-b280c-2-core:Vlan445 which is used by process r-cssc-b280c-2-core.OSPF.default
No interface connected to r-cssc-b280c-2-core:Vlan3324 which is used by process r-cssc-b280c-2-core.STATIC.128.104.1.117
No interface connected to r-krc51-79-1-core:GigabitEthernet0/1.1347 which is used by process r-krc51-79-1-core.STATIC.144.92.224.0
No interface connected to r-warfplat-b156-2-node:Vlan2325 which is used by process r-warfplat-b156-2-node.OSPF.default
No interface connected to r-warfplat-b156-2-node:Vlan2326 which is used by process r-warfplat-b156-2-node.OSPF.default
No interface connected to r-warfplat-b156-2-node:Vlan2330 which is used by process r-warfplat-b156-2-node.OSPF.default
No interface connected to r-warfplat-b156-2-node:Vlan603 which is used by process r-warfplat-b156-2-node.OSPF.default
No interface connected to r-warfplat-b156-2-node:Vlan73 which is used by process r-warfplat-b156-2-node.OSPF.default
No interface connected to r-warfplat-b156-2-node:Vlan953 which is used by process r-warfplat-b156-2-node.STATIC.146.151.192.0
r-animal-122a-2-core does not have an interface to reach BGP peer 146.151.162.248
r-animal-122a-2-core does not have an interface to reach BGP peer 146.151.162.251
No interface connected to r-animal-122a-2-core:Vlan1865 which is used by process r-animal-122a-2-core.OSPF.default
No interface connected to r-animal-122a-2-core:Vlan1918 which is used by process r-animal-122a-2-core.OSPF.default
No interface connected to r-animal-122a-2-core:Vlan2175 which is used by process r-animal-122a-2-core.OSPF.default
No interface connected to r-animal-122a-2-core:Vlan1777 which is used by process r-animal-122a-2-core.OSPF.default
No interface connected to r-animal-122a-2-core:Vlan775 which is used by process r-animal-122a-2-core.STATIC.144.92.72.32
No interface connected to r-aghall-13-2-node:Vlan1506 which is used by process r-aghall-13-2-node.OSPF.default
No interface connected to r-aghall-13-2-node:Vlan1606 which is used by process r-aghall-13-2-node.OSPF.default
No interface connected to r-aghall-13-2-node:Vlan735 which is used by process r-aghall-13-2-node.STATIC.144.92.84.0
No interface connected to r-aghall-13-2-node:Vlan735 which is used by process r-aghall-13-2-node.STATIC.144.92.248.0
No interface connected to r-csc-101h5-1-node:Vlan1515 which is used by process r-csc-101h5-1-node.OSPF.default
No interface connected to r-csc-101h5-1-node:Vlan221 which is used by process r-csc-101h5-1-node.OSPF.default
No interface connected to r-csc-101h5-1-node:Vlan462 which is used by process r-csc-101h5-1-node.OSPF.default
No interface connected to r-csc-101h5-1-node:Vlan695 which is used by process r-csc-101h5-1-node.STATIC.128.104.76.0
No interface connected to r-csc-101h5-1-node:Vlan731 which is used by process r-csc-101h5-1-node.STATIC.128.104.233.0
No interface connected to r-csc-101h5-1-node:Vlan731 which is used by process r-csc-101h5-1-node.STATIC.144.92.36.0
No interface connected to r-csc-101h5-1-node:Vlan731 which is used by process r-csc-101h5-1-node.STATIC.144.92.134.0
No interface connected to r-csc-101h5-1-node:Vlan731 which is used by process r-csc-101h5-1-node.STATIC.144.92.138.0
No interface connected to r-csc-101h5-1-node:Vlan731 which is used by process r-csc-101h5-1-node.STATIC.144.92.143.0
No interface connected to r-csc-101h5-1-node:Vlan731 which is used by process r-csc-101h5-1-node.STATIC.144.92.246.0
No interface connected to r-uwpic-tc1-1-core:Vlan469 which is used by process r-uwpic-tc1-1-core.OSPF.default
COUNT: baseETGVertices 576
COUNT: baseETGEdges 707
COUNT: ospfProcesses 34
COUNT: bgpProcesses 11
COUNT: staticProcesses 244
*** Generate instance-based ETG ***
COUNT: instanceETGVertices 226
COUNT: instanceETGEdges 208
COUNT: ospfInstances 6
COUNT: bgpInstances 8
COUNT: staticInstances 212
PROP: instanceIsDag false
Need to generate 37830 ETGs
TIME: flowETGs 40503 ms
COUNT: flows 37830
*** Check policies ****
COUNT: flowsWithPolicies 43053
COUNT: policies 43053
COUNT: policiesALWAYS_BLOCKED 0
COUNT: policiesALWAYS_REACHABLE 0
COUNT: policiesALWAYS_WAYPOINT 0
COUNT: policiesALWAYS_ISOLATED 0
COUNT: policiesPRIMARY_PATH 0
Violated: 10.128.13.0-10.128.13.255 -> 72.33.28.0-72.33.31.255 Blocked
Violated: 10.128.14.0-10.128.14.255 -> 72.33.28.0-72.33.31.255 Blocked
Violated: 10.128.21.0-10.128.21.255 -> 128.104.24.0-128.104.24.255 Blocked
Violated: 10.128.33.0-10.128.33.255 -> 128.104.24.0-128.104.24.255 Blocked
Violated: 10.128.37.0-10.128.37.255 -> 128.104.24.0-128.104.24.255 Blocked
Violated: 10.128.40.0-10.128.43.255 -> 72.33.140.0-72.33.143.255 Blocked
Violated: 10.128.57.0-10.128.57.255 -> 128.104.24.0-128.104.24.255 Blocked
Violated: 10.128.60.0-10.128.60.255 -> 72.33.140.0-72.33.143.255 Blocked
Violated: 10.128.64.0-10.128.71.255 -> 128.104.24.0-128.104.24.255 Blocked
Violated: 10.128.72.0-10.128.72.255 -> 72.33.140.0-72.33.143.255 Blocked
Violated: 10.128.76.0-10.128.76.255 -> 72.33.140.0-72.33.143.255 Blocked
Violated: 10.128.78.0-10.128.78.255 -> 72.33.28.0-72.33.31.255 Blocked
Violated: 10.128.80.0-10.128.80.255 -> 72.33.120.0-72.33.121.255 Blocked
Violated: 10.128.80.0-10.128.80.255 -> 72.33.122.0-72.33.122.255 Blocked
Violated: 10.128.250.0-10.128.250.255 -> 72.33.140.0-72.33.143.255 Blocked
Violated: 10.128.251.0-10.128.251.255 -> 72.33.140.0-72.33.143.255 Blocked
Violated: 10.151.50.0-10.151.50.255 -> 72.33.140.0-72.33.143.255 Blocked
Violated: 72.33.4.0-72.33.5.255 -> 72.33.140.0-72.33.143.255 Blocked
Violated: 72.33.27.0-72.33.27.255 -> 128.104.24.0-128.104.24.255 Blocked
Violated: 72.33.28.0-72.33.31.255 -> 10.128.13.0-10.128.13.255 Blocked
Violated: 72.33.28.0-72.33.31.255 -> 10.128.14.0-10.128.14.255 Blocked
Violated: 72.33.28.0-72.33.31.255 -> 10.128.34.0-10.128.34.255 Blocked
Violated: 72.33.28.0-72.33.31.255 -> 10.128.78.0-10.128.78.255 Blocked
Violated: 72.33.28.0-72.33.31.255 -> 128.104.75.0-128.104.75.255 Blocked
Violated: 72.33.28.0-72.33.31.255 -> 128.104.112.0-128.104.115.255 Blocked
Violated: 72.33.28.0-72.33.31.255 -> 128.104.212.0-128.104.215.255 Blocked
Violated: 72.33.28.0-72.33.31.255 -> 128.104.232.0-128.104.232.255 Blocked
Violated: 72.33.28.0-72.33.31.255 -> 128.104.238.0-128.104.239.255 Blocked
Violated: 72.33.28.0-72.33.31.255 -> 144.92.37.0-144.92.37.255 Blocked
Violated: 72.33.28.0-72.33.31.255 -> 144.92.56.0-144.92.57.255 Blocked
Violated: 72.33.28.0-72.33.31.255 -> 144.92.75.0-144.92.75.255 Blocked
Violated: 72.33.28.0-72.33.31.255 -> 144.92.117.0-144.92.117.255 Blocked
Violated: 72.33.28.0-72.33.31.255 -> 144.92.122.0-144.92.122.255 Blocked
Violated: 72.33.28.0-72.33.31.255 -> 144.92.132.0-144.92.132.255 Blocked
Violated: 72.33.28.0-72.33.31.255 -> 144.92.137.0-144.92.137.255 Blocked
Violated: 72.33.28.0-72.33.31.255 -> 144.92.156.0-144.92.156.255 Blocked
Violated: 72.33.28.0-72.33.31.255 -> 144.92.172.0-144.92.172.255 Blocked
Violated: 72.33.28.0-72.33.31.255 -> 144.92.182.0-144.92.183.255 Blocked
Violated: 72.33.28.0-72.33.31.255 -> 144.92.196.0-144.92.196.255 Blocked
Violated: 72.33.28.0-72.33.31.255 -> 144.92.198.0-144.92.199.255 Blocked
Violated: 72.33.28.0-72.33.31.255 -> 144.92.246.0-144.92.246.255 Blocked
Violated: 72.33.28.0-72.33.31.255 -> 144.92.247.0-144.92.247.255 Blocked
Violated: 72.33.28.0-72.33.31.255 -> 144.92.251.0-144.92.251.255 Blocked
Violated: 72.33.44.0-72.33.47.255 -> 128.104.28.0-128.104.29.255 Blocked
Violated: 72.33.44.0-72.33.47.255 -> 128.104.98.0-128.104.98.255 Blocked
Violated: 72.33.44.0-72.33.47.255 -> 128.104.106.0-128.104.106.255 Blocked
Violated: 72.33.44.0-72.33.47.255 -> 128.104.150.0-128.104.151.255 Blocked
Violated: 72.33.44.0-72.33.47.255 -> 144.92.34.0-144.92.34.255 Blocked
Violated: 72.33.44.0-72.33.47.255 -> 144.92.94.0-144.92.94.255 Blocked
Violated: 72.33.44.0-72.33.47.255 -> 144.92.110.0-144.92.110.255 Blocked
Violated: 72.33.44.0-72.33.47.255 -> 144.92.147.0-144.92.147.255 Blocked
Violated: 72.33.44.0-72.33.47.255 -> 144.92.158.0-144.92.158.255 Blocked
Violated: 72.33.44.0-72.33.47.255 -> 144.92.160.0-144.92.160.255 Blocked
Violated: 72.33.44.0-72.33.47.255 -> 144.92.165.0-144.92.165.255 Blocked
Violated: 72.33.44.0-72.33.47.255 -> 144.92.166.0-144.92.166.255 Blocked
Violated: 72.33.44.0-72.33.47.255 -> 144.92.171.0-144.92.171.255 Blocked
Violated: 72.33.44.0-72.33.47.255 -> 144.92.188.0-144.92.191.255 Blocked
Violated: 72.33.44.0-72.33.47.255 -> 144.92.200.0-144.92.200.255 Blocked
Violated: 72.33.66.0-72.33.67.255 -> 128.104.24.0-128.104.24.255 Blocked
Violated: 72.33.106.0-72.33.107.255 -> 128.104.24.0-128.104.24.255 Blocked
Violated: 72.33.120.0-72.33.121.255 -> 10.128.80.0-10.128.80.255 Blocked
Violated: 72.33.120.0-72.33.121.255 -> 144.92.231.0-144.92.231.255 Blocked
Violated: 72.33.122.0-72.33.122.255 -> 10.128.80.0-10.128.80.255 Blocked
Violated: 72.33.122.0-72.33.122.255 -> 144.92.231.0-144.92.231.255 Blocked
Violated: 72.33.140.0-72.33.143.255 -> 10.128.40.0-10.128.43.255 Blocked
Violated: 72.33.140.0-72.33.143.255 -> 10.128.60.0-10.128.60.255 Blocked
Violated: 72.33.140.0-72.33.143.255 -> 10.128.72.0-10.128.72.255 Blocked
Violated: 72.33.140.0-72.33.143.255 -> 10.128.76.0-10.128.76.255 Blocked
Violated: 72.33.140.0-72.33.143.255 -> 10.128.250.0-10.128.250.255 Blocked
Violated: 72.33.140.0-72.33.143.255 -> 10.128.251.0-10.128.251.255 Blocked
Violated: 72.33.140.0-72.33.143.255 -> 10.151.50.0-10.151.50.255 Blocked
Violated: 72.33.140.0-72.33.143.255 -> 72.33.4.0-72.33.5.255 Blocked
Violated: 72.33.140.0-72.33.143.255 -> 128.104.120.0-128.104.120.255 Blocked
Violated: 72.33.140.0-72.33.143.255 -> 128.104.130.0-128.104.131.255 Blocked
Violated: 72.33.140.0-72.33.143.255 -> 128.104.167.0-128.104.167.255 Blocked
Violated: 72.33.140.0-72.33.143.255 -> 128.104.176.0-128.104.179.255 Blocked
Violated: 72.33.140.0-72.33.143.255 -> 128.104.180.0-128.104.183.255 Blocked
Violated: 72.33.140.0-72.33.143.255 -> 128.104.200.0-128.104.200.255 Blocked
Violated: 72.33.140.0-72.33.143.255 -> 128.104.201.0-128.104.201.255 Blocked
Violated: 72.33.140.0-72.33.143.255 -> 144.92.4.0-144.92.4.255 Blocked
Violated: 72.33.140.0-72.33.143.255 -> 144.92.12.0-144.92.13.255 Blocked
Violated: 72.33.140.0-72.33.143.255 -> 144.92.52.0-144.92.53.255 Blocked
Violated: 72.33.140.0-72.33.143.255 -> 144.92.55.0-144.92.55.255 Blocked
Violated: 72.33.140.0-72.33.143.255 -> 144.92.67.0-144.92.67.255 Blocked
Violated: 72.33.140.0-72.33.143.255 -> 144.92.82.0-144.92.82.255 Blocked
Violated: 72.33.140.0-72.33.143.255 -> 144.92.90.0-144.92.91.255 Blocked
Violated: 72.33.140.0-72.33.143.255 -> 144.92.100.0-144.92.100.255 Blocked
Violated: 72.33.140.0-72.33.143.255 -> 144.92.101.0-144.92.101.255 Blocked
Violated: 72.33.140.0-72.33.143.255 -> 144.92.130.0-144.92.131.255 Blocked
Violated: 72.33.140.0-72.33.143.255 -> 144.92.162.0-144.92.163.255 Blocked
Violated: 72.33.140.0-72.33.143.255 -> 144.92.206.0-144.92.207.255 Blocked
Violated: 72.33.140.0-72.33.143.255 -> 144.92.240.0-144.92.243.255 Blocked
Violated: 72.33.140.0-72.33.143.255 -> 172.16.10.0-172.16.11.255 Blocked
Violated: 72.33.140.0-72.33.143.255 -> 172.16.12.0-172.16.12.255 Blocked
Violated: 72.33.144.0-72.33.147.255 -> 128.104.28.0-128.104.29.255 Blocked
Violated: 72.33.144.0-72.33.147.255 -> 128.104.98.0-128.104.98.255 Blocked
Violated: 72.33.144.0-72.33.147.255 -> 128.104.106.0-128.104.106.255 Blocked
Violated: 72.33.144.0-72.33.147.255 -> 128.104.150.0-128.104.151.255 Blocked
Violated: 72.33.144.0-72.33.147.255 -> 144.92.34.0-144.92.34.255 Blocked
Violated: 72.33.144.0-72.33.147.255 -> 144.92.94.0-144.92.94.255 Blocked
Violated: 72.33.144.0-72.33.147.255 -> 144.92.110.0-144.92.110.255 Blocked
Violated: 72.33.144.0-72.33.147.255 -> 144.92.147.0-144.92.147.255 Blocked
Violated: 72.33.144.0-72.33.147.255 -> 144.92.158.0-144.92.158.255 Blocked
Violated: 72.33.144.0-72.33.147.255 -> 144.92.160.0-144.92.160.255 Blocked
Violated: 72.33.144.0-72.33.147.255 -> 144.92.165.0-144.92.165.255 Blocked
Violated: 72.33.144.0-72.33.147.255 -> 144.92.166.0-144.92.166.255 Blocked
Violated: 72.33.144.0-72.33.147.255 -> 144.92.171.0-144.92.171.255 Blocked
Violated: 72.33.144.0-72.33.147.255 -> 144.92.188.0-144.92.191.255 Blocked
Violated: 72.33.144.0-72.33.147.255 -> 144.92.200.0-144.92.200.255 Blocked
Violated: 128.104.24.0-128.104.24.255 -> 10.128.21.0-10.128.21.255 Blocked
Violated: 128.104.24.0-128.104.24.255 -> 10.128.27.0-10.128.27.255 Blocked
Violated: 128.104.24.0-128.104.24.255 -> 10.128.30.0-10.128.30.255 Blocked
Violated: 128.104.24.0-128.104.24.255 -> 10.128.31.0-10.128.31.255 Blocked
Violated: 128.104.24.0-128.104.24.255 -> 10.128.33.0-10.128.33.255 Blocked
Violated: 128.104.24.0-128.104.24.255 -> 10.128.37.0-10.128.37.255 Blocked
Violated: 128.104.24.0-128.104.24.255 -> 10.128.57.0-10.128.57.255 Blocked
Violated: 128.104.24.0-128.104.24.255 -> 10.128.64.0-10.128.71.255 Blocked
Violated: 128.104.24.0-128.104.24.255 -> 72.33.27.0-72.33.27.255 Blocked
Violated: 128.104.24.0-128.104.24.255 -> 72.33.66.0-72.33.67.255 Blocked
Violated: 128.104.24.0-128.104.24.255 -> 72.33.106.0-72.33.107.255 Blocked
Violated: 128.104.24.0-128.104.24.255 -> 128.104.38.0-128.104.38.255 Blocked
Violated: 128.104.24.0-128.104.24.255 -> 128.104.63.0-128.104.63.255 Blocked
Violated: 128.104.24.0-128.104.24.255 -> 128.104.88.0-128.104.88.255 Blocked
Violated: 128.104.24.0-128.104.24.255 -> 128.104.122.0-128.104.123.255 Blocked
Violated: 128.104.24.0-128.104.24.255 -> 128.104.145.0-128.104.145.255 Blocked
Violated: 128.104.24.0-128.104.24.255 -> 128.104.161.0-128.104.161.255 Blocked
Violated: 128.104.24.0-128.104.24.255 -> 128.104.219.0-128.104.219.255 Blocked
Violated: 128.104.24.0-128.104.24.255 -> 128.104.244.0-128.104.245.255 Blocked
Violated: 128.104.24.0-128.104.24.255 -> 144.92.14.0-144.92.14.255 Blocked
Violated: 128.104.24.0-128.104.24.255 -> 144.92.25.0-144.92.25.255 Blocked
Violated: 128.104.24.0-128.104.24.255 -> 144.92.30.0-144.92.30.255 Blocked
Violated: 128.104.24.0-128.104.24.255 -> 144.92.70.0-144.92.70.255 Blocked
Violated: 128.104.24.0-128.104.24.255 -> 144.92.78.0-144.92.78.255 Blocked
Violated: 128.104.24.0-128.104.24.255 -> 144.92.79.0-144.92.79.255 Blocked
Violated: 128.104.24.0-128.104.24.255 -> 144.92.96.0-144.92.96.255 Blocked
Violated: 128.104.24.0-128.104.24.255 -> 144.92.109.0-144.92.109.255 Blocked
Violated: 128.104.24.0-128.104.24.255 -> 144.92.118.0-144.92.118.255 Blocked
Violated: 128.104.24.0-128.104.24.255 -> 144.92.120.0-144.92.120.255 Blocked
Violated: 128.104.24.0-128.104.24.255 -> 144.92.123.0-144.92.123.255 Blocked
Violated: 128.104.24.0-128.104.24.255 -> 144.92.141.0-144.92.141.255 Blocked
Violated: 128.104.24.0-128.104.24.255 -> 144.92.144.0-144.92.144.255 Blocked
Violated: 128.104.24.0-128.104.24.255 -> 144.92.146.0-144.92.146.255 Blocked
Violated: 128.104.24.0-128.104.24.255 -> 144.92.174.0-144.92.175.145 Blocked
Violated: 128.104.24.0-128.104.24.255 -> 144.92.184.0-144.92.184.255 Blocked
Violated: 128.104.24.0-128.104.24.255 -> 144.92.186.0-144.92.187.255 Blocked
Violated: 128.104.24.0-128.104.24.255 -> 144.92.192.0-144.92.192.255 Blocked
Violated: 128.104.24.0-128.104.24.255 -> 144.92.208.0-144.92.211.255 Blocked
Violated: 128.104.24.0-128.104.24.255 -> 144.92.212.0-144.92.213.255 Blocked
Violated: 128.104.24.0-128.104.24.255 -> 144.92.214.0-144.92.215.255 Blocked
Violated: 128.104.24.0-128.104.24.255 -> 144.92.225.0-144.92.225.255 Blocked
Violated: 128.104.24.0-128.104.24.255 -> 144.92.226.0-144.92.226.255 Blocked
Violated: 128.104.24.0-128.104.24.255 -> 144.92.235.0-144.92.235.255 Blocked
Violated: 128.104.24.0-128.104.24.255 -> 144.92.236.0-144.92.236.255 Blocked
Violated: 128.104.24.0-128.104.24.255 -> 144.92.244.0-144.92.244.255 Blocked
Violated: 128.104.24.0-128.104.24.255 -> 144.92.252.0-144.92.252.255 Blocked
Violated: 128.104.24.0-128.104.24.255 -> 144.92.255.0-144.92.255.255 Blocked
Violated: 128.104.28.0-128.104.29.255 -> 72.33.44.0-72.33.47.255 Blocked
Violated: 128.104.28.0-128.104.29.255 -> 72.33.144.0-72.33.147.255 Blocked
Violated: 128.104.38.0-128.104.38.255 -> 128.104.24.0-128.104.24.255 Blocked
Violated: 128.104.63.0-128.104.63.255 -> 128.104.24.0-128.104.24.255 Blocked
Violated: 128.104.75.0-128.104.75.255 -> 72.33.28.0-72.33.31.255 Blocked
Violated: 128.104.88.0-128.104.88.255 -> 128.104.24.0-128.104.24.255 Blocked
Violated: 128.104.98.0-128.104.98.255 -> 72.33.44.0-72.33.47.255 Blocked
Violated: 128.104.98.0-128.104.98.255 -> 72.33.144.0-72.33.147.255 Blocked
Violated: 128.104.106.0-128.104.106.255 -> 72.33.44.0-72.33.47.255 Blocked
Violated: 128.104.106.0-128.104.106.255 -> 72.33.144.0-72.33.147.255 Blocked
Violated: 128.104.112.0-128.104.115.255 -> 72.33.28.0-72.33.31.255 Blocked
Violated: 128.104.120.0-128.104.120.255 -> 72.33.140.0-72.33.143.255 Blocked
Violated: 128.104.122.0-128.104.123.255 -> 128.104.24.0-128.104.24.255 Blocked
Violated: 128.104.130.0-128.104.131.255 -> 72.33.140.0-72.33.143.255 Blocked
Violated: 128.104.145.0-128.104.145.255 -> 128.104.24.0-128.104.24.255 Blocked
Violated: 128.104.150.0-128.104.151.255 -> 72.33.44.0-72.33.47.255 Blocked
Violated: 128.104.150.0-128.104.151.255 -> 72.33.144.0-72.33.147.255 Blocked
Violated: 128.104.161.0-128.104.161.255 -> 128.104.24.0-128.104.24.255 Blocked
Violated: 128.104.167.0-128.104.167.255 -> 72.33.140.0-72.33.143.255 Blocked
Violated: 128.104.176.0-128.104.179.255 -> 72.33.140.0-72.33.143.255 Blocked
Violated: 128.104.180.0-128.104.183.255 -> 72.33.140.0-72.33.143.255 Blocked
Violated: 128.104.200.0-128.104.200.255 -> 72.33.140.0-72.33.143.255 Blocked
Violated: 128.104.201.0-128.104.201.255 -> 72.33.140.0-72.33.143.255 Blocked
Violated: 128.104.212.0-128.104.215.255 -> 72.33.28.0-72.33.31.255 Blocked
Violated: 128.104.219.0-128.104.219.255 -> 128.104.24.0-128.104.24.255 Blocked
Violated: 128.104.232.0-128.104.232.255 -> 72.33.28.0-72.33.31.255 Blocked
Violated: 128.104.238.0-128.104.239.255 -> 72.33.28.0-72.33.31.255 Blocked
Violated: 128.104.244.0-128.104.245.255 -> 128.104.24.0-128.104.24.255 Blocked
Violated: 144.92.4.0-144.92.4.255 -> 72.33.140.0-72.33.143.255 Blocked
Violated: 144.92.12.0-144.92.13.255 -> 72.33.140.0-72.33.143.255 Blocked
Violated: 144.92.14.0-144.92.14.255 -> 128.104.24.0-128.104.24.255 Blocked
Violated: 144.92.25.0-144.92.25.255 -> 128.104.24.0-128.104.24.255 Blocked
Violated: 144.92.30.0-144.92.30.255 -> 128.104.24.0-128.104.24.255 Blocked
Violated: 144.92.34.0-144.92.34.255 -> 72.33.44.0-72.33.47.255 Blocked
Violated: 144.92.34.0-144.92.34.255 -> 72.33.144.0-72.33.147.255 Blocked
Violated: 144.92.37.0-144.92.37.255 -> 72.33.28.0-72.33.31.255 Blocked
Violated: 144.92.52.0-144.92.53.255 -> 72.33.140.0-72.33.143.255 Blocked
Violated: 144.92.55.0-144.92.55.255 -> 72.33.140.0-72.33.143.255 Blocked
Violated: 144.92.56.0-144.92.57.255 -> 72.33.28.0-72.33.31.255 Blocked
Violated: 144.92.67.0-144.92.67.255 -> 72.33.140.0-72.33.143.255 Blocked
Violated: 144.92.70.0-144.92.70.255 -> 128.104.24.0-128.104.24.255 Blocked
Violated: 144.92.75.0-144.92.75.255 -> 72.33.28.0-72.33.31.255 Blocked
Violated: 144.92.78.0-144.92.78.255 -> 128.104.24.0-128.104.24.255 Blocked
Violated: 144.92.79.0-144.92.79.255 -> 128.104.24.0-128.104.24.255 Blocked
Violated: 144.92.82.0-144.92.82.255 -> 72.33.140.0-72.33.143.255 Blocked
Violated: 144.92.90.0-144.92.91.255 -> 72.33.140.0-72.33.143.255 Blocked
Violated: 144.92.94.0-144.92.94.255 -> 72.33.44.0-72.33.47.255 Blocked
Violated: 144.92.94.0-144.92.94.255 -> 72.33.144.0-72.33.147.255 Blocked
Violated: 144.92.96.0-144.92.96.255 -> 128.104.24.0-128.104.24.255 Blocked
Violated: 144.92.100.0-144.92.100.255 -> 72.33.140.0-72.33.143.255 Blocked
Violated: 144.92.101.0-144.92.101.255 -> 72.33.140.0-72.33.143.255 Blocked
Violated: 144.92.109.0-144.92.109.255 -> 128.104.24.0-128.104.24.255 Blocked
Violated: 144.92.110.0-144.92.110.255 -> 72.33.44.0-72.33.47.255 Blocked
Violated: 144.92.110.0-144.92.110.255 -> 72.33.144.0-72.33.147.255 Blocked
Violated: 144.92.117.0-144.92.117.255 -> 72.33.28.0-72.33.31.255 Blocked
Violated: 144.92.118.0-144.92.118.255 -> 128.104.24.0-128.104.24.255 Blocked
Violated: 144.92.120.0-144.92.120.255 -> 128.104.24.0-128.104.24.255 Blocked
Violated: 144.92.122.0-144.92.122.255 -> 72.33.28.0-72.33.31.255 Blocked
Violated: 144.92.123.0-144.92.123.255 -> 128.104.24.0-128.104.24.255 Blocked
Violated: 144.92.130.0-144.92.131.255 -> 72.33.140.0-72.33.143.255 Blocked
Violated: 144.92.132.0-144.92.132.255 -> 72.33.28.0-72.33.31.255 Blocked
Violated: 144.92.137.0-144.92.137.255 -> 72.33.28.0-72.33.31.255 Blocked
Violated: 144.92.141.0-144.92.141.255 -> 128.104.24.0-128.104.24.255 Blocked
Violated: 144.92.144.0-144.92.144.255 -> 128.104.24.0-128.104.24.255 Blocked
Violated: 144.92.146.0-144.92.146.255 -> 128.104.24.0-128.104.24.255 Blocked
Violated: 144.92.147.0-144.92.147.255 -> 72.33.44.0-72.33.47.255 Blocked
Violated: 144.92.147.0-144.92.147.255 -> 72.33.144.0-72.33.147.255 Blocked
Violated: 144.92.156.0-144.92.156.255 -> 72.33.28.0-72.33.31.255 Blocked
Violated: 144.92.158.0-144.92.158.255 -> 72.33.44.0-72.33.47.255 Blocked
Violated: 144.92.158.0-144.92.158.255 -> 72.33.144.0-72.33.147.255 Blocked
Violated: 144.92.160.0-144.92.160.255 -> 72.33.44.0-72.33.47.255 Blocked
Violated: 144.92.160.0-144.92.160.255 -> 72.33.144.0-72.33.147.255 Blocked
Violated: 144.92.162.0-144.92.163.255 -> 72.33.140.0-72.33.143.255 Blocked
Violated: 144.92.165.0-144.92.165.255 -> 72.33.44.0-72.33.47.255 Blocked
Violated: 144.92.165.0-144.92.165.255 -> 72.33.144.0-72.33.147.255 Blocked
Violated: 144.92.166.0-144.92.166.255 -> 72.33.44.0-72.33.47.255 Blocked
Violated: 144.92.166.0-144.92.166.255 -> 72.33.144.0-72.33.147.255 Blocked
Violated: 144.92.171.0-144.92.171.255 -> 72.33.44.0-72.33.47.255 Blocked
Violated: 144.92.171.0-144.92.171.255 -> 72.33.144.0-72.33.147.255 Blocked
Violated: 144.92.172.0-144.92.172.255 -> 72.33.28.0-72.33.31.255 Blocked
Violated: 144.92.174.0-144.92.175.145 -> 128.104.24.0-128.104.24.255 Blocked
Violated: 144.92.182.0-144.92.183.255 -> 72.33.28.0-72.33.31.255 Blocked
Violated: 144.92.184.0-144.92.184.255 -> 128.104.24.0-128.104.24.255 Blocked
Violated: 144.92.186.0-144.92.187.255 -> 128.104.24.0-128.104.24.255 Blocked
Violated: 144.92.188.0-144.92.191.255 -> 72.33.44.0-72.33.47.255 Blocked
Violated: 144.92.188.0-144.92.191.255 -> 72.33.144.0-72.33.147.255 Blocked
Violated: 144.92.192.0-144.92.192.255 -> 128.104.24.0-128.104.24.255 Blocked
Violated: 144.92.196.0-144.92.196.255 -> 72.33.28.0-72.33.31.255 Blocked
Violated: 144.92.198.0-144.92.199.255 -> 72.33.28.0-72.33.31.255 Blocked
Violated: 144.92.200.0-144.92.200.255 -> 72.33.44.0-72.33.47.255 Blocked
Violated: 144.92.200.0-144.92.200.255 -> 72.33.144.0-72.33.147.255 Blocked
Violated: 144.92.206.0-144.92.207.255 -> 72.33.140.0-72.33.143.255 Blocked
Violated: 144.92.208.0-144.92.211.255 -> 128.104.24.0-128.104.24.255 Blocked
Violated: 144.92.212.0-144.92.213.255 -> 128.104.24.0-128.104.24.255 Blocked
Violated: 144.92.214.0-144.92.215.255 -> 128.104.24.0-128.104.24.255 Blocked
Violated: 144.92.225.0-144.92.225.255 -> 128.104.24.0-128.104.24.255 Blocked
Violated: 144.92.226.0-144.92.226.255 -> 128.104.24.0-128.104.24.255 Blocked
Violated: 144.92.231.0-144.92.231.255 -> 72.33.120.0-72.33.121.255 Blocked
Violated: 144.92.231.0-144.92.231.255 -> 72.33.122.0-72.33.122.255 Blocked
Violated: 144.92.235.0-144.92.235.255 -> 128.104.24.0-128.104.24.255 Blocked
Violated: 144.92.236.0-144.92.236.255 -> 128.104.24.0-128.104.24.255 Blocked
Violated: 144.92.240.0-144.92.243.255 -> 72.33.140.0-72.33.143.255 Blocked
Violated: 144.92.244.0-144.92.244.255 -> 128.104.24.0-128.104.24.255 Blocked
Violated: 144.92.246.0-144.92.246.255 -> 72.33.28.0-72.33.31.255 Blocked
Violated: 144.92.247.0-144.92.247.255 -> 72.33.28.0-72.33.31.255 Blocked
Violated: 144.92.251.0-144.92.251.255 -> 72.33.28.0-72.33.31.255 Blocked
Violated: 144.92.252.0-144.92.252.255 -> 128.104.24.0-128.104.24.255 Blocked
Violated: 144.92.255.0-144.92.255.255 -> 128.104.24.0-128.104.24.255 Blocked
Violated: 172.16.10.0-172.16.11.255 -> 72.33.140.0-72.33.143.255 Blocked
Violated: 172.16.12.0-172.16.12.255 -> 72.33.140.0-72.33.143.255 Blocked
Violated: 10.128.13.0-10.128.13.255 -> 72.33.36.0-72.33.36.255 Reachable (< 2)
Violated: 10.128.13.0-10.128.13.255 -> 72.33.120.0-72.33.121.255 Reachable (< 2)
Violated: 10.128.13.0-10.128.13.255 -> 72.33.122.0-72.33.122.255 Reachable (< 2)
Violated: 10.128.14.0-10.128.14.255 -> 72.33.36.0-72.33.36.255 Reachable (< 2)
Violated: 10.128.14.0-10.128.14.255 -> 72.33.120.0-72.33.121.255 Reachable (< 2)
Violated: 10.128.14.0-10.128.14.255 -> 72.33.122.0-72.33.122.255 Reachable (< 2)
Violated: 10.128.36.0-10.128.36.255 -> 72.33.28.0-72.33.31.255 Reachable (< 2)
Violated: 10.128.36.0-10.128.36.255 -> 72.33.44.0-72.33.47.255 Reachable (< 2)
Violated: 10.128.36.0-10.128.36.255 -> 72.33.140.0-72.33.143.255 Reachable (< 2)
Violated: 10.128.36.0-10.128.36.255 -> 72.33.144.0-72.33.147.255 Reachable (< 2)
Violated: 10.128.38.0-10.128.38.255 -> 72.33.28.0-72.33.31.255 Reachable (< 2)
Violated: 10.128.38.0-10.128.38.255 -> 72.33.44.0-72.33.47.255 Reachable (< 2)
Violated: 10.128.38.0-10.128.38.255 -> 72.33.140.0-72.33.143.255 Reachable (< 2)
Violated: 10.128.38.0-10.128.38.255 -> 72.33.144.0-72.33.147.255 Reachable (< 2)
Violated: 10.128.58.0-10.128.59.255 -> 72.33.28.0-72.33.31.255 Reachable (< 2)
Violated: 10.128.58.0-10.128.59.255 -> 72.33.44.0-72.33.47.255 Reachable (< 2)
Violated: 10.128.58.0-10.128.59.255 -> 72.33.140.0-72.33.143.255 Reachable (< 2)
Violated: 10.128.58.0-10.128.59.255 -> 72.33.144.0-72.33.147.255 Reachable (< 2)
Violated: 10.128.75.0-10.128.75.255 -> 72.33.28.0-72.33.31.255 Reachable (< 2)
Violated: 10.128.75.0-10.128.75.255 -> 72.33.44.0-72.33.47.255 Reachable (< 2)
Violated: 10.128.75.0-10.128.75.255 -> 72.33.140.0-72.33.143.255 Reachable (< 2)
Violated: 10.128.75.0-10.128.75.255 -> 72.33.144.0-72.33.147.255 Reachable (< 2)
Violated: 10.128.77.0-10.128.77.255 -> 72.33.28.0-72.33.31.255 Reachable (< 2)
Violated: 10.128.77.0-10.128.77.255 -> 72.33.44.0-72.33.47.255 Reachable (< 2)
Violated: 10.128.77.0-10.128.77.255 -> 72.33.140.0-72.33.143.255 Reachable (< 2)
Violated: 10.128.77.0-10.128.77.255 -> 72.33.144.0-72.33.147.255 Reachable (< 2)
Violated: 10.128.78.0-10.128.78.255 -> 72.33.36.0-72.33.36.255 Reachable (< 2)
Violated: 10.128.78.0-10.128.78.255 -> 72.33.120.0-72.33.121.255 Reachable (< 2)
Violated: 10.128.78.0-10.128.78.255 -> 72.33.122.0-72.33.122.255 Reachable (< 2)
Violated: 10.128.79.0-10.128.79.255 -> 72.33.28.0-72.33.31.255 Reachable (< 2)
Violated: 10.128.79.0-10.128.79.255 -> 72.33.44.0-72.33.47.255 Reachable (< 2)
Violated: 10.128.79.0-10.128.79.255 -> 72.33.140.0-72.33.143.255 Reachable (< 2)
Violated: 10.128.79.0-10.128.79.255 -> 72.33.144.0-72.33.147.255 Reachable (< 2)
Violated: 10.128.82.0-10.128.82.255 -> 72.33.28.0-72.33.31.255 Reachable (< 2)
Violated: 10.128.82.0-10.128.82.255 -> 72.33.44.0-72.33.47.255 Reachable (< 2)
Violated: 10.128.82.0-10.128.82.255 -> 72.33.140.0-72.33.143.255 Reachable (< 2)
Violated: 10.128.82.0-10.128.82.255 -> 72.33.144.0-72.33.147.255 Reachable (< 2)
Violated: 72.33.28.0-72.33.31.255 -> 10.128.26.0-10.128.26.255 Reachable (< 2)
Violated: 72.33.28.0-72.33.31.255 -> 10.128.36.0-10.128.36.255 Reachable (< 2)
Violated: 72.33.28.0-72.33.31.255 -> 10.128.38.0-10.128.38.255 Reachable (< 2)
Violated: 72.33.28.0-72.33.31.255 -> 10.128.58.0-10.128.59.255 Reachable (< 2)
Violated: 72.33.28.0-72.33.31.255 -> 10.128.75.0-10.128.75.255 Reachable (< 2)
Violated: 72.33.28.0-72.33.31.255 -> 10.128.77.0-10.128.77.255 Reachable (< 2)
Violated: 72.33.28.0-72.33.31.255 -> 10.128.79.0-10.128.79.255 Reachable (< 2)
Violated: 72.33.28.0-72.33.31.255 -> 10.128.82.0-10.128.82.255 Reachable (< 2)
Violated: 72.33.28.0-72.33.31.255 -> 72.33.44.0-72.33.47.255 Reachable (< 2)
Violated: 72.33.28.0-72.33.31.255 -> 72.33.140.0-72.33.143.255 Reachable (< 2)
Violated: 72.33.28.0-72.33.31.255 -> 72.33.144.0-72.33.147.255 Reachable (< 2)
Violated: 72.33.28.0-72.33.31.255 -> 72.33.160.0-72.33.163.255 Reachable (< 2)
Violated: 72.33.28.0-72.33.31.255 -> 72.33.164.0-72.33.167.255 Reachable (< 2)
Violated: 72.33.28.0-72.33.31.255 -> 72.33.168.0-72.33.171.255 Reachable (< 2)
Violated: 72.33.28.0-72.33.31.255 -> 72.33.172.0-72.33.175.255 Reachable (< 2)
Violated: 72.33.28.0-72.33.31.255 -> 72.33.176.0-72.33.179.255 Reachable (< 2)
Violated: 72.33.28.0-72.33.31.255 -> 72.33.180.0-72.33.183.255 Reachable (< 2)
Violated: 72.33.28.0-72.33.31.255 -> 72.33.184.0-72.33.187.255 Reachable (< 2)
Violated: 72.33.28.0-72.33.31.255 -> 72.33.188.0-72.33.191.255 Reachable (< 2)
Violated: 72.33.28.0-72.33.31.255 -> 72.33.192.0-72.33.195.255 Reachable (< 2)
Violated: 72.33.28.0-72.33.31.255 -> 72.33.196.0-72.33.199.255 Reachable (< 2)
Violated: 72.33.28.0-72.33.31.255 -> 72.33.200.0-72.33.203.255 Reachable (< 2)
Violated: 72.33.28.0-72.33.31.255 -> 72.33.204.0-72.33.207.255 Reachable (< 2)
Violated: 72.33.28.0-72.33.31.255 -> 72.33.208.0-72.33.211.255 Reachable (< 2)
Violated: 72.33.28.0-72.33.31.255 -> 72.33.212.0-72.33.215.255 Reachable (< 2)
Violated: 72.33.28.0-72.33.31.255 -> 72.33.216.0-72.33.219.255 Reachable (< 2)
Violated: 72.33.28.0-72.33.31.255 -> 72.33.220.0-72.33.223.255 Reachable (< 2)
Violated: 72.33.28.0-72.33.31.255 -> 72.33.224.0-72.33.227.255 Reachable (< 2)
Violated: 72.33.28.0-72.33.31.255 -> 72.33.228.0-72.33.231.255 Reachable (< 2)
Violated: 72.33.28.0-72.33.31.255 -> 72.33.232.0-72.33.235.255 Reachable (< 2)
Violated: 72.33.28.0-72.33.31.255 -> 72.33.236.0-72.33.239.255 Reachable (< 2)
Violated: 72.33.28.0-72.33.31.255 -> 72.33.240.0-72.33.243.255 Reachable (< 2)
Violated: 72.33.28.0-72.33.31.255 -> 72.33.244.0-72.33.247.255 Reachable (< 2)
Violated: 72.33.28.0-72.33.31.255 -> 72.33.248.0-72.33.251.255 Reachable (< 2)
Violated: 72.33.28.0-72.33.31.255 -> 144.92.74.0-144.92.74.255 Reachable (< 2)
Violated: 72.33.28.0-72.33.31.255 -> 144.92.176.0-144.92.176.255 Reachable (< 2)
Violated: 72.33.36.0-72.33.36.255 -> 10.128.13.0-10.128.13.255 Reachable (< 2)
Violated: 72.33.36.0-72.33.36.255 -> 10.128.14.0-10.128.14.255 Reachable (< 2)
Violated: 72.33.36.0-72.33.36.255 -> 10.128.34.0-10.128.34.255 Reachable (< 2)
Violated: 72.33.36.0-72.33.36.255 -> 10.128.78.0-10.128.78.255 Reachable (< 2)
Violated: 72.33.36.0-72.33.36.255 -> 72.33.120.0-72.33.121.255 Reachable (< 2)
Violated: 72.33.36.0-72.33.36.255 -> 72.33.122.0-72.33.122.255 Reachable (< 2)
Violated: 72.33.36.0-72.33.36.255 -> 128.104.75.0-128.104.75.255 Reachable (< 2)
Violated: 72.33.36.0-72.33.36.255 -> 128.104.112.0-128.104.115.255 Reachable (< 2)
Violated: 72.33.36.0-72.33.36.255 -> 128.104.212.0-128.104.215.255 Reachable (< 2)
Violated: 72.33.36.0-72.33.36.255 -> 128.104.232.0-128.104.232.255 Reachable (< 2)
Violated: 72.33.36.0-72.33.36.255 -> 128.104.238.0-128.104.239.255 Reachable (< 2)
Violated: 72.33.36.0-72.33.36.255 -> 144.92.37.0-144.92.37.255 Reachable (< 2)
Violated: 72.33.36.0-72.33.36.255 -> 144.92.56.0-144.92.57.255 Reachable (< 2)
Violated: 72.33.36.0-72.33.36.255 -> 144.92.75.0-144.92.75.255 Reachable (< 2)
Violated: 72.33.36.0-72.33.36.255 -> 144.92.117.0-144.92.117.255 Reachable (< 2)
Violated: 72.33.36.0-72.33.36.255 -> 144.92.122.0-144.92.122.255 Reachable (< 2)
Violated: 72.33.36.0-72.33.36.255 -> 144.92.132.0-144.92.132.255 Reachable (< 2)
Violated: 72.33.36.0-72.33.36.255 -> 144.92.137.0-144.92.137.255 Reachable (< 2)
Violated: 72.33.36.0-72.33.36.255 -> 144.92.156.0-144.92.156.255 Reachable (< 2)
Violated: 72.33.36.0-72.33.36.255 -> 144.92.172.0-144.92.172.255 Reachable (< 2)
Violated: 72.33.36.0-72.33.36.255 -> 144.92.182.0-144.92.183.255 Reachable (< 2)
Violated: 72.33.36.0-72.33.36.255 -> 144.92.196.0-144.92.196.255 Reachable (< 2)
Violated: 72.33.36.0-72.33.36.255 -> 144.92.198.0-144.92.199.255 Reachable (< 2)
Violated: 72.33.36.0-72.33.36.255 -> 144.92.246.0-144.92.246.255 Reachable (< 2)
Violated: 72.33.36.0-72.33.36.255 -> 144.92.247.0-144.92.247.255 Reachable (< 2)
Violated: 72.33.36.0-72.33.36.255 -> 144.92.251.0-144.92.251.255 Reachable (< 2)
Violated: 72.33.44.0-72.33.47.255 -> 10.128.26.0-10.128.26.255 Reachable (< 2)
Violated: 72.33.44.0-72.33.47.255 -> 10.128.36.0-10.128.36.255 Reachable (< 2)
Violated: 72.33.44.0-72.33.47.255 -> 10.128.38.0-10.128.38.255 Reachable (< 2)
Violated: 72.33.44.0-72.33.47.255 -> 10.128.58.0-10.128.59.255 Reachable (< 2)
Violated: 72.33.44.0-72.33.47.255 -> 10.128.75.0-10.128.75.255 Reachable (< 2)
Violated: 72.33.44.0-72.33.47.255 -> 10.128.77.0-10.128.77.255 Reachable (< 2)
Violated: 72.33.44.0-72.33.47.255 -> 10.128.79.0-10.128.79.255 Reachable (< 2)
Violated: 72.33.44.0-72.33.47.255 -> 10.128.82.0-10.128.82.255 Reachable (< 2)
Violated: 72.33.44.0-72.33.47.255 -> 72.33.28.0-72.33.31.255 Reachable (< 2)
Violated: 72.33.44.0-72.33.47.255 -> 72.33.140.0-72.33.143.255 Reachable (< 2)
Violated: 72.33.44.0-72.33.47.255 -> 72.33.160.0-72.33.163.255 Reachable (< 2)
Violated: 72.33.44.0-72.33.47.255 -> 72.33.164.0-72.33.167.255 Reachable (< 2)
Violated: 72.33.44.0-72.33.47.255 -> 72.33.168.0-72.33.171.255 Reachable (< 2)
Violated: 72.33.44.0-72.33.47.255 -> 72.33.172.0-72.33.175.255 Reachable (< 2)
Violated: 72.33.44.0-72.33.47.255 -> 72.33.176.0-72.33.179.255 Reachable (< 2)
Violated: 72.33.44.0-72.33.47.255 -> 72.33.180.0-72.33.183.255 Reachable (< 2)
Violated: 72.33.44.0-72.33.47.255 -> 72.33.184.0-72.33.187.255 Reachable (< 2)
Violated: 72.33.44.0-72.33.47.255 -> 72.33.188.0-72.33.191.255 Reachable (< 2)
Violated: 72.33.44.0-72.33.47.255 -> 72.33.192.0-72.33.195.255 Reachable (< 2)
Violated: 72.33.44.0-72.33.47.255 -> 72.33.196.0-72.33.199.255 Reachable (< 2)
Violated: 72.33.44.0-72.33.47.255 -> 72.33.200.0-72.33.203.255 Reachable (< 2)
Violated: 72.33.44.0-72.33.47.255 -> 72.33.204.0-72.33.207.255 Reachable (< 2)
Violated: 72.33.44.0-72.33.47.255 -> 72.33.208.0-72.33.211.255 Reachable (< 2)
Violated: 72.33.44.0-72.33.47.255 -> 72.33.212.0-72.33.215.255 Reachable (< 2)
Violated: 72.33.44.0-72.33.47.255 -> 72.33.216.0-72.33.219.255 Reachable (< 2)
Violated: 72.33.44.0-72.33.47.255 -> 72.33.220.0-72.33.223.255 Reachable (< 2)
Violated: 72.33.44.0-72.33.47.255 -> 72.33.224.0-72.33.227.255 Reachable (< 2)
Violated: 72.33.44.0-72.33.47.255 -> 72.33.228.0-72.33.231.255 Reachable (< 2)
Violated: 72.33.44.0-72.33.47.255 -> 72.33.232.0-72.33.235.255 Reachable (< 2)
Violated: 72.33.44.0-72.33.47.255 -> 72.33.236.0-72.33.239.255 Reachable (< 2)
Violated: 72.33.44.0-72.33.47.255 -> 72.33.240.0-72.33.243.255 Reachable (< 2)
Violated: 72.33.44.0-72.33.47.255 -> 72.33.244.0-72.33.247.255 Reachable (< 2)
Violated: 72.33.44.0-72.33.47.255 -> 72.33.248.0-72.33.251.255 Reachable (< 2)
Violated: 72.33.44.0-72.33.47.255 -> 144.92.74.0-144.92.74.255 Reachable (< 2)
Violated: 72.33.44.0-72.33.47.255 -> 144.92.176.0-144.92.176.255 Reachable (< 2)
Violated: 72.33.120.0-72.33.121.255 -> 10.128.13.0-10.128.13.255 Reachable (< 2)
Violated: 72.33.120.0-72.33.121.255 -> 10.128.14.0-10.128.14.255 Reachable (< 2)
Violated: 72.33.120.0-72.33.121.255 -> 10.128.34.0-10.128.34.255 Reachable (< 2)
Violated: 72.33.120.0-72.33.121.255 -> 10.128.78.0-10.128.78.255 Reachable (< 2)
Violated: 72.33.120.0-72.33.121.255 -> 72.33.36.0-72.33.36.255 Reachable (< 2)
Violated: 72.33.120.0-72.33.121.255 -> 128.104.75.0-128.104.75.255 Reachable (< 2)
Violated: 72.33.120.0-72.33.121.255 -> 128.104.112.0-128.104.115.255 Reachable (< 2)
Violated: 72.33.120.0-72.33.121.255 -> 128.104.212.0-128.104.215.255 Reachable (< 2)
Violated: 72.33.120.0-72.33.121.255 -> 128.104.232.0-128.104.232.255 Reachable (< 2)
Violated: 72.33.120.0-72.33.121.255 -> 128.104.238.0-128.104.239.255 Reachable (< 2)
Violated: 72.33.120.0-72.33.121.255 -> 144.92.37.0-144.92.37.255 Reachable (< 2)
Violated: 72.33.120.0-72.33.121.255 -> 144.92.56.0-144.92.57.255 Reachable (< 2)
Violated: 72.33.120.0-72.33.121.255 -> 144.92.75.0-144.92.75.255 Reachable (< 2)
Violated: 72.33.120.0-72.33.121.255 -> 144.92.117.0-144.92.117.255 Reachable (< 2)
Violated: 72.33.120.0-72.33.121.255 -> 144.92.122.0-144.92.122.255 Reachable (< 2)
Violated: 72.33.120.0-72.33.121.255 -> 144.92.132.0-144.92.132.255 Reachable (< 2)
Violated: 72.33.120.0-72.33.121.255 -> 144.92.137.0-144.92.137.255 Reachable (< 2)
Violated: 72.33.120.0-72.33.121.255 -> 144.92.156.0-144.92.156.255 Reachable (< 2)
Violated: 72.33.120.0-72.33.121.255 -> 144.92.172.0-144.92.172.255 Reachable (< 2)
Violated: 72.33.120.0-72.33.121.255 -> 144.92.182.0-144.92.183.255 Reachable (< 2)
Violated: 72.33.120.0-72.33.121.255 -> 144.92.196.0-144.92.196.255 Reachable (< 2)
Violated: 72.33.120.0-72.33.121.255 -> 144.92.198.0-144.92.199.255 Reachable (< 2)
Violated: 72.33.120.0-72.33.121.255 -> 144.92.246.0-144.92.246.255 Reachable (< 2)
Violated: 72.33.120.0-72.33.121.255 -> 144.92.247.0-144.92.247.255 Reachable (< 2)
Violated: 72.33.120.0-72.33.121.255 -> 144.92.251.0-144.92.251.255 Reachable (< 2)
Violated: 72.33.122.0-72.33.122.255 -> 10.128.13.0-10.128.13.255 Reachable (< 2)
Violated: 72.33.122.0-72.33.122.255 -> 10.128.14.0-10.128.14.255 Reachable (< 2)
Violated: 72.33.122.0-72.33.122.255 -> 10.128.34.0-10.128.34.255 Reachable (< 2)
Violated: 72.33.122.0-72.33.122.255 -> 10.128.78.0-10.128.78.255 Reachable (< 2)
Violated: 72.33.122.0-72.33.122.255 -> 72.33.36.0-72.33.36.255 Reachable (< 2)
Violated: 72.33.122.0-72.33.122.255 -> 128.104.75.0-128.104.75.255 Reachable (< 2)
Violated: 72.33.122.0-72.33.122.255 -> 128.104.112.0-128.104.115.255 Reachable (< 2)
Violated: 72.33.122.0-72.33.122.255 -> 128.104.212.0-128.104.215.255 Reachable (< 2)
Violated: 72.33.122.0-72.33.122.255 -> 128.104.232.0-128.104.232.255 Reachable (< 2)
Violated: 72.33.122.0-72.33.122.255 -> 128.104.238.0-128.104.239.255 Reachable (< 2)
Violated: 72.33.122.0-72.33.122.255 -> 144.92.37.0-144.92.37.255 Reachable (< 2)
Violated: 72.33.122.0-72.33.122.255 -> 144.92.56.0-144.92.57.255 Reachable (< 2)
Violated: 72.33.122.0-72.33.122.255 -> 144.92.75.0-144.92.75.255 Reachable (< 2)
Violated: 72.33.122.0-72.33.122.255 -> 144.92.117.0-144.92.117.255 Reachable (< 2)
Violated: 72.33.122.0-72.33.122.255 -> 144.92.122.0-144.92.122.255 Reachable (< 2)
Violated: 72.33.122.0-72.33.122.255 -> 144.92.132.0-144.92.132.255 Reachable (< 2)
Violated: 72.33.122.0-72.33.122.255 -> 144.92.137.0-144.92.137.255 Reachable (< 2)
Violated: 72.33.122.0-72.33.122.255 -> 144.92.156.0-144.92.156.255 Reachable (< 2)
Violated: 72.33.122.0-72.33.122.255 -> 144.92.172.0-144.92.172.255 Reachable (< 2)
Violated: 72.33.122.0-72.33.122.255 -> 144.92.182.0-144.92.183.255 Reachable (< 2)
Violated: 72.33.122.0-72.33.122.255 -> 144.92.196.0-144.92.196.255 Reachable (< 2)
Violated: 72.33.122.0-72.33.122.255 -> 144.92.198.0-144.92.199.255 Reachable (< 2)
Violated: 72.33.122.0-72.33.122.255 -> 144.92.246.0-144.92.246.255 Reachable (< 2)
Violated: 72.33.122.0-72.33.122.255 -> 144.92.247.0-144.92.247.255 Reachable (< 2)
Violated: 72.33.122.0-72.33.122.255 -> 144.92.251.0-144.92.251.255 Reachable (< 2)
Violated: 72.33.140.0-72.33.143.255 -> 10.128.26.0-10.128.26.255 Reachable (< 2)
Violated: 72.33.140.0-72.33.143.255 -> 10.128.36.0-10.128.36.255 Reachable (< 2)
Violated: 72.33.140.0-72.33.143.255 -> 10.128.38.0-10.128.38.255 Reachable (< 2)
Violated: 72.33.140.0-72.33.143.255 -> 10.128.58.0-10.128.59.255 Reachable (< 2)
Violated: 72.33.140.0-72.33.143.255 -> 10.128.75.0-10.128.75.255 Reachable (< 2)
Violated: 72.33.140.0-72.33.143.255 -> 10.128.77.0-10.128.77.255 Reachable (< 2)
Violated: 72.33.140.0-72.33.143.255 -> 10.128.79.0-10.128.79.255 Reachable (< 2)
Violated: 72.33.140.0-72.33.143.255 -> 10.128.82.0-10.128.82.255 Reachable (< 2)
Violated: 72.33.140.0-72.33.143.255 -> 72.33.28.0-72.33.31.255 Reachable (< 2)
Violated: 72.33.140.0-72.33.143.255 -> 72.33.44.0-72.33.47.255 Reachable (< 2)
Violated: 72.33.140.0-72.33.143.255 -> 72.33.144.0-72.33.147.255 Reachable (< 2)
Violated: 72.33.140.0-72.33.143.255 -> 72.33.160.0-72.33.163.255 Reachable (< 2)
Violated: 72.33.140.0-72.33.143.255 -> 72.33.164.0-72.33.167.255 Reachable (< 2)
Violated: 72.33.140.0-72.33.143.255 -> 72.33.168.0-72.33.171.255 Reachable (< 2)
Violated: 72.33.140.0-72.33.143.255 -> 72.33.172.0-72.33.175.255 Reachable (< 2)
Violated: 72.33.140.0-72.33.143.255 -> 72.33.176.0-72.33.179.255 Reachable (< 2)
Violated: 72.33.140.0-72.33.143.255 -> 72.33.180.0-72.33.183.255 Reachable (< 2)
Violated: 72.33.140.0-72.33.143.255 -> 72.33.184.0-72.33.187.255 Reachable (< 2)
Violated: 72.33.140.0-72.33.143.255 -> 72.33.188.0-72.33.191.255 Reachable (< 2)
Violated: 72.33.140.0-72.33.143.255 -> 72.33.192.0-72.33.195.255 Reachable (< 2)
Violated: 72.33.140.0-72.33.143.255 -> 72.33.196.0-72.33.199.255 Reachable (< 2)
Violated: 72.33.140.0-72.33.143.255 -> 72.33.200.0-72.33.203.255 Reachable (< 2)
Violated: 72.33.140.0-72.33.143.255 -> 72.33.204.0-72.33.207.255 Reachable (< 2)
Violated: 72.33.140.0-72.33.143.255 -> 72.33.208.0-72.33.211.255 Reachable (< 2)
Violated: 72.33.140.0-72.33.143.255 -> 72.33.212.0-72.33.215.255 Reachable (< 2)
Violated: 72.33.140.0-72.33.143.255 -> 72.33.216.0-72.33.219.255 Reachable (< 2)
Violated: 72.33.140.0-72.33.143.255 -> 72.33.220.0-72.33.223.255 Reachable (< 2)
Violated: 72.33.140.0-72.33.143.255 -> 72.33.224.0-72.33.227.255 Reachable (< 2)
Violated: 72.33.140.0-72.33.143.255 -> 72.33.228.0-72.33.231.255 Reachable (< 2)
Violated: 72.33.140.0-72.33.143.255 -> 72.33.232.0-72.33.235.255 Reachable (< 2)
Violated: 72.33.140.0-72.33.143.255 -> 72.33.236.0-72.33.239.255 Reachable (< 2)
Violated: 72.33.140.0-72.33.143.255 -> 72.33.240.0-72.33.243.255 Reachable (< 2)
Violated: 72.33.140.0-72.33.143.255 -> 72.33.244.0-72.33.247.255 Reachable (< 2)
Violated: 72.33.140.0-72.33.143.255 -> 72.33.248.0-72.33.251.255 Reachable (< 2)
Violated: 72.33.140.0-72.33.143.255 -> 144.92.74.0-144.92.74.255 Reachable (< 2)
Violated: 72.33.140.0-72.33.143.255 -> 144.92.176.0-144.92.176.255 Reachable (< 2)
Violated: 72.33.144.0-72.33.147.255 -> 10.128.26.0-10.128.26.255 Reachable (< 2)
Violated: 72.33.144.0-72.33.147.255 -> 10.128.36.0-10.128.36.255 Reachable (< 2)
Violated: 72.33.144.0-72.33.147.255 -> 10.128.38.0-10.128.38.255 Reachable (< 2)
Violated: 72.33.144.0-72.33.147.255 -> 10.128.58.0-10.128.59.255 Reachable (< 2)
Violated: 72.33.144.0-72.33.147.255 -> 10.128.75.0-10.128.75.255 Reachable (< 2)
Violated: 72.33.144.0-72.33.147.255 -> 10.128.77.0-10.128.77.255 Reachable (< 2)
Violated: 72.33.144.0-72.33.147.255 -> 10.128.79.0-10.128.79.255 Reachable (< 2)
Violated: 72.33.144.0-72.33.147.255 -> 10.128.82.0-10.128.82.255 Reachable (< 2)
Violated: 72.33.144.0-72.33.147.255 -> 72.33.28.0-72.33.31.255 Reachable (< 2)
Violated: 72.33.144.0-72.33.147.255 -> 72.33.140.0-72.33.143.255 Reachable (< 2)
Violated: 72.33.144.0-72.33.147.255 -> 72.33.160.0-72.33.163.255 Reachable (< 2)
Violated: 72.33.144.0-72.33.147.255 -> 72.33.164.0-72.33.167.255 Reachable (< 2)
Violated: 72.33.144.0-72.33.147.255 -> 72.33.168.0-72.33.171.255 Reachable (< 2)
Violated: 72.33.144.0-72.33.147.255 -> 72.33.172.0-72.33.175.255 Reachable (< 2)
Violated: 72.33.144.0-72.33.147.255 -> 72.33.176.0-72.33.179.255 Reachable (< 2)
Violated: 72.33.144.0-72.33.147.255 -> 72.33.180.0-72.33.183.255 Reachable (< 2)
Violated: 72.33.144.0-72.33.147.255 -> 72.33.184.0-72.33.187.255 Reachable (< 2)
Violated: 72.33.144.0-72.33.147.255 -> 72.33.188.0-72.33.191.255 Reachable (< 2)
Violated: 72.33.144.0-72.33.147.255 -> 72.33.192.0-72.33.195.255 Reachable (< 2)
Violated: 72.33.144.0-72.33.147.255 -> 72.33.196.0-72.33.199.255 Reachable (< 2)
Violated: 72.33.144.0-72.33.147.255 -> 72.33.200.0-72.33.203.255 Reachable (< 2)
Violated: 72.33.144.0-72.33.147.255 -> 72.33.204.0-72.33.207.255 Reachable (< 2)
Violated: 72.33.144.0-72.33.147.255 -> 72.33.208.0-72.33.211.255 Reachable (< 2)
Violated: 72.33.144.0-72.33.147.255 -> 72.33.212.0-72.33.215.255 Reachable (< 2)
Violated: 72.33.144.0-72.33.147.255 -> 72.33.216.0-72.33.219.255 Reachable (< 2)
Violated: 72.33.144.0-72.33.147.255 -> 72.33.220.0-72.33.223.255 Reachable (< 2)
Violated: 72.33.144.0-72.33.147.255 -> 72.33.224.0-72.33.227.255 Reachable (< 2)
Violated: 72.33.144.0-72.33.147.255 -> 72.33.228.0-72.33.231.255 Reachable (< 2)
Violated: 72.33.144.0-72.33.147.255 -> 72.33.232.0-72.33.235.255 Reachable (< 2)
Violated: 72.33.144.0-72.33.147.255 -> 72.33.236.0-72.33.239.255 Reachable (< 2)
Violated: 72.33.144.0-72.33.147.255 -> 72.33.240.0-72.33.243.255 Reachable (< 2)
Violated: 72.33.144.0-72.33.147.255 -> 72.33.244.0-72.33.247.255 Reachable (< 2)
Violated: 72.33.144.0-72.33.147.255 -> 72.33.248.0-72.33.251.255 Reachable (< 2)
Violated: 72.33.144.0-72.33.147.255 -> 144.92.74.0-144.92.74.255 Reachable (< 2)
Violated: 72.33.144.0-72.33.147.255 -> 144.92.176.0-144.92.176.255 Reachable (< 2)
Violated: 72.33.160.0-72.33.163.255 -> 72.33.28.0-72.33.31.255 Reachable (< 2)
Violated: 72.33.160.0-72.33.163.255 -> 72.33.44.0-72.33.47.255 Reachable (< 2)
Violated: 72.33.160.0-72.33.163.255 -> 72.33.140.0-72.33.143.255 Reachable (< 2)
Violated: 72.33.160.0-72.33.163.255 -> 72.33.144.0-72.33.147.255 Reachable (< 2)
Violated: 72.33.164.0-72.33.167.255 -> 72.33.28.0-72.33.31.255 Reachable (< 2)
Violated: 72.33.164.0-72.33.167.255 -> 72.33.44.0-72.33.47.255 Reachable (< 2)
Violated: 72.33.164.0-72.33.167.255 -> 72.33.140.0-72.33.143.255 Reachable (< 2)
Violated: 72.33.164.0-72.33.167.255 -> 72.33.144.0-72.33.147.255 Reachable (< 2)
Violated: 72.33.168.0-72.33.171.255 -> 72.33.28.0-72.33.31.255 Reachable (< 2)
Violated: 72.33.168.0-72.33.171.255 -> 72.33.44.0-72.33.47.255 Reachable (< 2)
Violated: 72.33.168.0-72.33.171.255 -> 72.33.140.0-72.33.143.255 Reachable (< 2)
Violated: 72.33.168.0-72.33.171.255 -> 72.33.144.0-72.33.147.255 Reachable (< 2)
Violated: 72.33.172.0-72.33.175.255 -> 72.33.28.0-72.33.31.255 Reachable (< 2)
Violated: 72.33.172.0-72.33.175.255 -> 72.33.44.0-72.33.47.255 Reachable (< 2)
Violated: 72.33.172.0-72.33.175.255 -> 72.33.140.0-72.33.143.255 Reachable (< 2)
Violated: 72.33.172.0-72.33.175.255 -> 72.33.144.0-72.33.147.255 Reachable (< 2)
Violated: 72.33.176.0-72.33.179.255 -> 72.33.28.0-72.33.31.255 Reachable (< 2)
Violated: 72.33.176.0-72.33.179.255 -> 72.33.44.0-72.33.47.255 Reachable (< 2)
Violated: 72.33.176.0-72.33.179.255 -> 72.33.140.0-72.33.143.255 Reachable (< 2)
Violated: 72.33.176.0-72.33.179.255 -> 72.33.144.0-72.33.147.255 Reachable (< 2)
Violated: 72.33.180.0-72.33.183.255 -> 72.33.28.0-72.33.31.255 Reachable (< 2)
Violated: 72.33.180.0-72.33.183.255 -> 72.33.44.0-72.33.47.255 Reachable (< 2)
Violated: 72.33.180.0-72.33.183.255 -> 72.33.140.0-72.33.143.255 Reachable (< 2)
Violated: 72.33.180.0-72.33.183.255 -> 72.33.144.0-72.33.147.255 Reachable (< 2)
Violated: 72.33.184.0-72.33.187.255 -> 72.33.28.0-72.33.31.255 Reachable (< 2)
Violated: 72.33.184.0-72.33.187.255 -> 72.33.44.0-72.33.47.255 Reachable (< 2)
Violated: 72.33.184.0-72.33.187.255 -> 72.33.140.0-72.33.143.255 Reachable (< 2)
Violated: 72.33.184.0-72.33.187.255 -> 72.33.144.0-72.33.147.255 Reachable (< 2)
Violated: 72.33.188.0-72.33.191.255 -> 72.33.28.0-72.33.31.255 Reachable (< 2)
Violated: 72.33.188.0-72.33.191.255 -> 72.33.44.0-72.33.47.255 Reachable (< 2)
Violated: 72.33.188.0-72.33.191.255 -> 72.33.140.0-72.33.143.255 Reachable (< 2)
Violated: 72.33.188.0-72.33.191.255 -> 72.33.144.0-72.33.147.255 Reachable (< 2)
Violated: 72.33.192.0-72.33.195.255 -> 72.33.28.0-72.33.31.255 Reachable (< 2)
Violated: 72.33.192.0-72.33.195.255 -> 72.33.44.0-72.33.47.255 Reachable (< 2)
Violated: 72.33.192.0-72.33.195.255 -> 72.33.140.0-72.33.143.255 Reachable (< 2)
Violated: 72.33.192.0-72.33.195.255 -> 72.33.144.0-72.33.147.255 Reachable (< 2)
Violated: 72.33.196.0-72.33.199.255 -> 72.33.28.0-72.33.31.255 Reachable (< 2)
Violated: 72.33.196.0-72.33.199.255 -> 72.33.44.0-72.33.47.255 Reachable (< 2)
Violated: 72.33.196.0-72.33.199.255 -> 72.33.140.0-72.33.143.255 Reachable (< 2)
Violated: 72.33.196.0-72.33.199.255 -> 72.33.144.0-72.33.147.255 Reachable (< 2)
Violated: 72.33.200.0-72.33.203.255 -> 72.33.28.0-72.33.31.255 Reachable (< 2)
Violated: 72.33.200.0-72.33.203.255 -> 72.33.44.0-72.33.47.255 Reachable (< 2)
Violated: 72.33.200.0-72.33.203.255 -> 72.33.140.0-72.33.143.255 Reachable (< 2)
Violated: 72.33.200.0-72.33.203.255 -> 72.33.144.0-72.33.147.255 Reachable (< 2)
Violated: 72.33.204.0-72.33.207.255 -> 72.33.28.0-72.33.31.255 Reachable (< 2)
Violated: 72.33.204.0-72.33.207.255 -> 72.33.44.0-72.33.47.255 Reachable (< 2)
Violated: 72.33.204.0-72.33.207.255 -> 72.33.140.0-72.33.143.255 Reachable (< 2)
Violated: 72.33.204.0-72.33.207.255 -> 72.33.144.0-72.33.147.255 Reachable (< 2)
Violated: 72.33.208.0-72.33.211.255 -> 72.33.28.0-72.33.31.255 Reachable (< 2)
Violated: 72.33.208.0-72.33.211.255 -> 72.33.44.0-72.33.47.255 Reachable (< 2)
Violated: 72.33.208.0-72.33.211.255 -> 72.33.140.0-72.33.143.255 Reachable (< 2)
Violated: 72.33.208.0-72.33.211.255 -> 72.33.144.0-72.33.147.255 Reachable (< 2)
Violated: 72.33.212.0-72.33.215.255 -> 72.33.28.0-72.33.31.255 Reachable (< 2)
Violated: 72.33.212.0-72.33.215.255 -> 72.33.44.0-72.33.47.255 Reachable (< 2)
Violated: 72.33.212.0-72.33.215.255 -> 72.33.140.0-72.33.143.255 Reachable (< 2)
Violated: 72.33.212.0-72.33.215.255 -> 72.33.144.0-72.33.147.255 Reachable (< 2)
Violated: 72.33.216.0-72.33.219.255 -> 72.33.28.0-72.33.31.255 Reachable (< 2)
Violated: 72.33.216.0-72.33.219.255 -> 72.33.44.0-72.33.47.255 Reachable (< 2)
Violated: 72.33.216.0-72.33.219.255 -> 72.33.140.0-72.33.143.255 Reachable (< 2)
Violated: 72.33.216.0-72.33.219.255 -> 72.33.144.0-72.33.147.255 Reachable (< 2)
Violated: 72.33.220.0-72.33.223.255 -> 72.33.28.0-72.33.31.255 Reachable (< 2)
Violated: 72.33.220.0-72.33.223.255 -> 72.33.44.0-72.33.47.255 Reachable (< 2)
Violated: 72.33.220.0-72.33.223.255 -> 72.33.140.0-72.33.143.255 Reachable (< 2)
Violated: 72.33.220.0-72.33.223.255 -> 72.33.144.0-72.33.147.255 Reachable (< 2)
Violated: 72.33.224.0-72.33.227.255 -> 72.33.28.0-72.33.31.255 Reachable (< 2)
Violated: 72.33.224.0-72.33.227.255 -> 72.33.44.0-72.33.47.255 Reachable (< 2)
Violated: 72.33.224.0-72.33.227.255 -> 72.33.140.0-72.33.143.255 Reachable (< 2)
Violated: 72.33.224.0-72.33.227.255 -> 72.33.144.0-72.33.147.255 Reachable (< 2)
Violated: 72.33.228.0-72.33.231.255 -> 72.33.28.0-72.33.31.255 Reachable (< 2)
Violated: 72.33.228.0-72.33.231.255 -> 72.33.44.0-72.33.47.255 Reachable (< 2)
Violated: 72.33.228.0-72.33.231.255 -> 72.33.140.0-72.33.143.255 Reachable (< 2)
Violated: 72.33.228.0-72.33.231.255 -> 72.33.144.0-72.33.147.255 Reachable (< 2)
Violated: 72.33.232.0-72.33.235.255 -> 72.33.28.0-72.33.31.255 Reachable (< 2)
Violated: 72.33.232.0-72.33.235.255 -> 72.33.44.0-72.33.47.255 Reachable (< 2)
Violated: 72.33.232.0-72.33.235.255 -> 72.33.140.0-72.33.143.255 Reachable (< 2)
Violated: 72.33.232.0-72.33.235.255 -> 72.33.144.0-72.33.147.255 Reachable (< 2)
Violated: 72.33.236.0-72.33.239.255 -> 72.33.28.0-72.33.31.255 Reachable (< 2)
Violated: 72.33.236.0-72.33.239.255 -> 72.33.44.0-72.33.47.255 Reachable (< 2)
Violated: 72.33.236.0-72.33.239.255 -> 72.33.140.0-72.33.143.255 Reachable (< 2)
Violated: 72.33.236.0-72.33.239.255 -> 72.33.144.0-72.33.147.255 Reachable (< 2)
Violated: 72.33.240.0-72.33.243.255 -> 72.33.28.0-72.33.31.255 Reachable (< 2)
Violated: 72.33.240.0-72.33.243.255 -> 72.33.44.0-72.33.47.255 Reachable (< 2)
Violated: 72.33.240.0-72.33.243.255 -> 72.33.140.0-72.33.143.255 Reachable (< 2)
Violated: 72.33.240.0-72.33.243.255 -> 72.33.144.0-72.33.147.255 Reachable (< 2)
Violated: 72.33.244.0-72.33.247.255 -> 72.33.28.0-72.33.31.255 Reachable (< 2)
Violated: 72.33.244.0-72.33.247.255 -> 72.33.44.0-72.33.47.255 Reachable (< 2)
Violated: 72.33.244.0-72.33.247.255 -> 72.33.140.0-72.33.143.255 Reachable (< 2)
Violated: 72.33.244.0-72.33.247.255 -> 72.33.144.0-72.33.147.255 Reachable (< 2)
Violated: 72.33.248.0-72.33.251.255 -> 72.33.28.0-72.33.31.255 Reachable (< 2)
Violated: 72.33.248.0-72.33.251.255 -> 72.33.44.0-72.33.47.255 Reachable (< 2)
Violated: 72.33.248.0-72.33.251.255 -> 72.33.140.0-72.33.143.255 Reachable (< 2)
Violated: 72.33.248.0-72.33.251.255 -> 72.33.144.0-72.33.147.255 Reachable (< 2)
Violated: 128.104.75.0-128.104.75.255 -> 72.33.36.0-72.33.36.255 Reachable (< 2)
Violated: 128.104.75.0-128.104.75.255 -> 72.33.120.0-72.33.121.255 Reachable (< 2)
Violated: 128.104.75.0-128.104.75.255 -> 72.33.122.0-72.33.122.255 Reachable (< 2)
Violated: 128.104.112.0-128.104.115.255 -> 72.33.36.0-72.33.36.255 Reachable (< 2)
Violated: 128.104.112.0-128.104.115.255 -> 72.33.120.0-72.33.121.255 Reachable (< 2)
Violated: 128.104.112.0-128.104.115.255 -> 72.33.122.0-72.33.122.255 Reachable (< 2)
Violated: 128.104.212.0-128.104.215.255 -> 72.33.36.0-72.33.36.255 Reachable (< 2)
Violated: 128.104.212.0-128.104.215.255 -> 72.33.120.0-72.33.121.255 Reachable (< 2)
Violated: 128.104.212.0-128.104.215.255 -> 72.33.122.0-72.33.122.255 Reachable (< 2)
Violated: 128.104.232.0-128.104.232.255 -> 72.33.36.0-72.33.36.255 Reachable (< 2)
Violated: 128.104.232.0-128.104.232.255 -> 72.33.120.0-72.33.121.255 Reachable (< 2)
Violated: 128.104.232.0-128.104.232.255 -> 72.33.122.0-72.33.122.255 Reachable (< 2)
Violated: 128.104.238.0-128.104.239.255 -> 72.33.36.0-72.33.36.255 Reachable (< 2)
Violated: 128.104.238.0-128.104.239.255 -> 72.33.120.0-72.33.121.255 Reachable (< 2)
Violated: 128.104.238.0-128.104.239.255 -> 72.33.122.0-72.33.122.255 Reachable (< 2)
Violated: 144.92.37.0-144.92.37.255 -> 72.33.36.0-72.33.36.255 Reachable (< 2)
Violated: 144.92.37.0-144.92.37.255 -> 72.33.120.0-72.33.121.255 Reachable (< 2)
Violated: 144.92.37.0-144.92.37.255 -> 72.33.122.0-72.33.122.255 Reachable (< 2)
Violated: 144.92.56.0-144.92.57.255 -> 72.33.36.0-72.33.36.255 Reachable (< 2)
Violated: 144.92.56.0-144.92.57.255 -> 72.33.120.0-72.33.121.255 Reachable (< 2)
Violated: 144.92.56.0-144.92.57.255 -> 72.33.122.0-72.33.122.255 Reachable (< 2)
Violated: 144.92.74.0-144.92.74.255 -> 72.33.28.0-72.33.31.255 Reachable (< 2)
Violated: 144.92.74.0-144.92.74.255 -> 72.33.44.0-72.33.47.255 Reachable (< 2)
Violated: 144.92.74.0-144.92.74.255 -> 72.33.140.0-72.33.143.255 Reachable (< 2)
Violated: 144.92.74.0-144.92.74.255 -> 72.33.144.0-72.33.147.255 Reachable (< 2)
Violated: 144.92.75.0-144.92.75.255 -> 72.33.36.0-72.33.36.255 Reachable (< 2)
Violated: 144.92.75.0-144.92.75.255 -> 72.33.120.0-72.33.121.255 Reachable (< 2)
Violated: 144.92.75.0-144.92.75.255 -> 72.33.122.0-72.33.122.255 Reachable (< 2)
Violated: 144.92.117.0-144.92.117.255 -> 72.33.36.0-72.33.36.255 Reachable (< 2)
Violated: 144.92.117.0-144.92.117.255 -> 72.33.120.0-72.33.121.255 Reachable (< 2)
Violated: 144.92.117.0-144.92.117.255 -> 72.33.122.0-72.33.122.255 Reachable (< 2)
Violated: 144.92.122.0-144.92.122.255 -> 72.33.36.0-72.33.36.255 Reachable (< 2)
Violated: 144.92.122.0-144.92.122.255 -> 72.33.120.0-72.33.121.255 Reachable (< 2)
Violated: 144.92.122.0-144.92.122.255 -> 72.33.122.0-72.33.122.255 Reachable (< 2)
Violated: 144.92.132.0-144.92.132.255 -> 72.33.36.0-72.33.36.255 Reachable (< 2)
Violated: 144.92.132.0-144.92.132.255 -> 72.33.120.0-72.33.121.255 Reachable (< 2)
Violated: 144.92.132.0-144.92.132.255 -> 72.33.122.0-72.33.122.255 Reachable (< 2)
Violated: 144.92.137.0-144.92.137.255 -> 72.33.36.0-72.33.36.255 Reachable (< 2)
Violated: 144.92.137.0-144.92.137.255 -> 72.33.120.0-72.33.121.255 Reachable (< 2)
Violated: 144.92.137.0-144.92.137.255 -> 72.33.122.0-72.33.122.255 Reachable (< 2)
Violated: 144.92.156.0-144.92.156.255 -> 72.33.36.0-72.33.36.255 Reachable (< 2)
Violated: 144.92.156.0-144.92.156.255 -> 72.33.120.0-72.33.121.255 Reachable (< 2)
Violated: 144.92.156.0-144.92.156.255 -> 72.33.122.0-72.33.122.255 Reachable (< 2)
Violated: 144.92.172.0-144.92.172.255 -> 72.33.36.0-72.33.36.255 Reachable (< 2)
Violated: 144.92.172.0-144.92.172.255 -> 72.33.120.0-72.33.121.255 Reachable (< 2)
Violated: 144.92.172.0-144.92.172.255 -> 72.33.122.0-72.33.122.255 Reachable (< 2)
Violated: 144.92.176.0-144.92.176.255 -> 72.33.28.0-72.33.31.255 Reachable (< 2)
Violated: 144.92.176.0-144.92.176.255 -> 72.33.44.0-72.33.47.255 Reachable (< 2)
Violated: 144.92.176.0-144.92.176.255 -> 72.33.140.0-72.33.143.255 Reachable (< 2)
Violated: 144.92.176.0-144.92.176.255 -> 72.33.144.0-72.33.147.255 Reachable (< 2)
Violated: 144.92.182.0-144.92.183.255 -> 72.33.36.0-72.33.36.255 Reachable (< 2)
Violated: 144.92.182.0-144.92.183.255 -> 72.33.120.0-72.33.121.255 Reachable (< 2)
Violated: 144.92.182.0-144.92.183.255 -> 72.33.122.0-72.33.122.255 Reachable (< 2)
Violated: 144.92.196.0-144.92.196.255 -> 72.33.36.0-72.33.36.255 Reachable (< 2)
Violated: 144.92.196.0-144.92.196.255 -> 72.33.120.0-72.33.121.255 Reachable (< 2)
Violated: 144.92.196.0-144.92.196.255 -> 72.33.122.0-72.33.122.255 Reachable (< 2)
Violated: 144.92.198.0-144.92.199.255 -> 72.33.36.0-72.33.36.255 Reachable (< 2)
Violated: 144.92.198.0-144.92.199.255 -> 72.33.120.0-72.33.121.255 Reachable (< 2)
Violated: 144.92.198.0-144.92.199.255 -> 72.33.122.0-72.33.122.255 Reachable (< 2)
Violated: 144.92.246.0-144.92.246.255 -> 72.33.36.0-72.33.36.255 Reachable (< 2)
Violated: 144.92.246.0-144.92.246.255 -> 72.33.120.0-72.33.121.255 Reachable (< 2)
Violated: 144.92.246.0-144.92.246.255 -> 72.33.122.0-72.33.122.255 Reachable (< 2)
Violated: 144.92.247.0-144.92.247.255 -> 72.33.36.0-72.33.36.255 Reachable (< 2)
Violated: 144.92.247.0-144.92.247.255 -> 72.33.120.0-72.33.121.255 Reachable (< 2)
Violated: 144.92.247.0-144.92.247.255 -> 72.33.122.0-72.33.122.255 Reachable (< 2)
Violated: 144.92.251.0-144.92.251.255 -> 72.33.36.0-72.33.36.255 Reachable (< 2)
Violated: 144.92.251.0-144.92.251.255 -> 72.33.120.0-72.33.121.255 Reachable (< 2)
Violated: 144.92.251.0-144.92.251.255 -> 72.33.122.0-72.33.122.255 Reachable (< 2)
COUNT: policiesViolated 681
COUNT: violatedALWAYS_BLOCKED 266
COUNT: violatedALWAYS_REACHABLE 415
COUNT: violatedALWAYS_WAYPOINT 0
COUNT: violatedALWAYS_ISOLATED 0
COUNT: violatedPRIMARY_PATH 0
