Plano 1440 2376
1232 1918
1424 2338
1424 2338

Tulsa 9240 19110
3200 4116
9036 18552
9124 18820

Alpharetta 4092 8649
1784 2842
3932 8220
4022 8439

fattree-6 28152 80478
9540 11466
9540 11466
28152 80478

CityCenter 111888 298620
9228 13270
13328 26454
28600 76944

('Tulsa21', 1, 1.0097400000000003)
('Tulsa21', 2, 1.23818)
('Tulsa21', 3, 1.18426)
('fattree-6', 1, 2.01214)
('fattree-6', 2, 19.608459999999994)
('fattree-6', 3, 1.8914199999999999)
('Plano9', 1, 0.39092857142857157)
('Plano9', 2, 0.416857142857143)
('Plano9', 3, 0.4212545454545454)
('Alpharetta21', 1, 0.48106000000000004)
('Alpharetta21', 2, 0.5780200000000001)
('Alpharetta21', 3, 0.6330800000000001)
