fattree-6	gravity	2	2500598	120370	OPT	45588	30657	1.112378504195849	0.5637887645975554
fattree-6	gravity	2	2483484	110746	OPT	43891	5765	1.0065138143931494	0.5685049047657665
fattree-6	gravity	2	2525393	667837	OPT	45815	35608	1.059045769969581	0.5635122480961614
fattree-6	gravity	2	2489774	103277	OPT	45309	24305	1.2531857593248248	0.5532540138660859
fattree-6	gravity	2	2526066	781215	OPT	45499	28280	1.122379718261611	0.5612169092715734
fattree-6	gravity	2	2708174	451866	OPT	45112	32956	0.9724648044157813	0.5663834381230645
fattree-6	gravity	2	2531660	163172	OPT	46173	4228	1.0957934566399106	0.5628821169660546
fattree-6	gravity	2	2735650	130172	OPT	45227	34419	1.2478411373921698	0.558781255911475
fattree-6	gravity	2	2529275	867424	OPT	48134	84182	1.2776336996386497	0.553632386868937
fattree-6	gravity	2	2835615	551978	OPT	45789	36476	1.095707410494425	0.567852828410423
fattree-6	gravity	2	2482314	556604	OPT	43868	33956	1.0296373501377512	0.5688939407954549
fattree-6	gravity	2	2470394	520846	OPT	46672	24984	1.0493309211431319	0.5687881794279753
fattree-6	gravity	2	3600001	1	OPT	44873	76936	0.9991501886386297	0.5636413991965935
fattree-6	gravity	2	2835653	52878	OPT	45827	3122	1.2130558947027477	0.5678915218833536
fattree-6	gravity	2	2503489	133977	OPT	47181	4220	1.178446726500379	0.5653502571731005
fattree-6	gravity	2	2837859	574421	OPT	46778	34773	1.2254611104739563	0.5555029203649104
fattree-6	gravity	2	2523884	217208	OPT	44008	17687	1.42437193870718	0.5598548439214893
fattree-6	gravity	2	2721068	63044	OPT	44624	2544	1.1916985518190648	0.5707619258891453
fattree-6	gravity	2	2553548	561085	OPT	46986	30761	0.8676061115979121	0.570830858640754
fattree-6	gravity	2	2729669	129595	OPT	44819	2860	0.9968611162654142	0.571104416588536
fattree-6	gravity	2	2498420	976235	OPT	46217	63027	1.1187075921547371	0.5618114832020719
Tulsa21	gravity	2	250226	4223	OPT	246475	38781.657058928646603	0.5189399907593927
Tulsa21	gravity	2	261022	4097	OPT	243021	3793	1.4683788840540535	0.5024880176599391
Tulsa21	gravity	2	258533	4384	OPT	242863	4059	1.6632689649919785	0.5240919255536947
Tulsa21	gravity	2	257877	4111	OPT	247688	3851	1.7407238811073864	0.5156039807499668
Tulsa21	gravity	2	243128	4240	OPT	242631	3920	1.4255132908652746	0.5380809224153416
Tulsa21	gravity	2	246241	3702	OPT	245322	4697	1.1614479658578114	0.5313262258461879
Tulsa21	gravity	2	255671	5120	OPT	237638	4842	1.2576450276942936	0.48445294409388046
Tulsa21	gravity	2	255883	4329	OPT	241628	4095	1.6326898507674261	0.5293755082472791
Tulsa21	gravity	2	245005	4208	OPT	241236	5085	1.2189720120091498	0.5352414881940312
Tulsa21	gravity	2	249067	7858	OPT	245183	7238	1.5420797159954294	0.5350193237953829
Tulsa21	gravity	2	251094	3181	OPT	242541	3267	1.9028328980890405	0.5520791638840282
Tulsa21	gravity	2	238263	4148	OPT	245197	4281	1.4795687666287591	0.5126704267321367
Tulsa21	gravity	2	250467	7898	OPT	237725	8046	1.5997575746779364	0.5134435836211694
Tulsa21	gravity	2	247946	5457	OPT	245000	5236	1.777667401199337	0.545877480999503
Tulsa21	gravity	2	246702	4189	OPT	239422	5707	1.555867082000295	0.5285019363457297
Tulsa21	gravity	2	260531	5378	OPT	243129	5136	1.6566255464171808	0.5280071430359472
Tulsa21	gravity	2	239253	5713	OPT	240346	4619	1.313229245145334	0.5453591372444481
Tulsa21	gravity	2	249931	4735	OPT	244055	4703	1.6578590268317992	0.49336474532289903
Tulsa21	gravity	2	236663	5740	OPT	238890	5344	1.7118138314006348	0.588929873887895
Tulsa21	gravity	2	254890	7560	OPT	240624	6922	1.608015582527726	0.5602599912099602
Tulsa21	gravity	2	247146	3812	OPT	238478	3837	1.9427510409498283	0.5408693550523155
Alpharetta21	gravity	2	92939	1206	OPT	88165	980	0.930447640990766	0.277705692025657
Alpharetta21	gravity	2	92768	1619	OPT	86964	1486	1.0398838500655847	0.2632389863326535
Alpharetta21	gravity	2	90711	1127	OPT	86962	1092	1.001393720198784	0.30136992512922056
Alpharetta21	gravity	2	92305	1205	OPT	86270	1101	1.0047214284341583	0.27033212864680717
Alpharetta21	gravity	2	94602	1310	OPT	85604	1224	1.0704443929460354	0.3079635181676835
Alpharetta21	gravity	2	92770	1229	OPT	85089	1105	1.1637086316355905	0.28588415392729455
Alpharetta21	gravity	2	92823	1253	OPT	89493	1267	1.1284055091025227	0.2936880917309991
Alpharetta21	gravity	2	91582	1663	OPT	83099	1452	1.0585079510310589	0.31737526408888295
Alpharetta21	gravity	2	93244	1419	OPT	88698	1288	1.4141030911056434	0.32305546544468217
Alpharetta21	gravity	2	92088	1481	OPT	87793	1245	1.2598166416735768	0.28279841696483543
Alpharetta21	gravity	2	90857	1463	OPT	87522	1325	1.2317761261858393	0.2632979174057244
Alpharetta21	gravity	2	93102	1192	OPT	87702	1064	1.1360156040792833	0.2694294178787719
Alpharetta21	gravity	2	91351	1407	OPT	85841	1311	1.4294371361720792	0.297989775329494
Alpharetta21	gravity	2	94132	1438	OPT	86859	1271	1.5689451812451238	0.3389163201100071
Alpharetta21	gravity	2	91729	1385	OPT	83361	1293	1.5179292872105088	0.306956779148197
Alpharetta21	gravity	2	91101	1562	OPT	84974	1471	1.4300709472019613	0.3303710852251136
Alpharetta21	gravity	2	91730	1290	OPT	87951	1294	1.108471162574579	0.3026574782268062
Alpharetta21	gravity	2	92036	1264	OPT	89514	1305	1.3902623734913886	0.29729322734168323
Alpharetta21	gravity	2	93718	1585	OPT	87297	1548	1.1980760554368097	0.3264997334559501
Alpharetta21	gravity	2	91707	1393	OPT	88773	1317	1.4862488329917667	0.31063508608311335
fattree-6	gravity	2	3428829	133589	OPT	52862	2776	1.1032304018831534	0.553213651847316
fattree-6	gravity	2	3600001	1	OPT	52665	45769	1.2270722810837926	0.5436980433433442
fattree-6	gravity	2	3433868	147993	OPT	53178	5303	0.9472387192942914	0.554424283441732
fattree-6	gravity	2	3414178	53420	OPT	53493	2772	1.0267565027350372	0.5529482744753463
fattree-6	gravity	2	3600001	1	OPT	53924	38082	1.1163102368910625	0.5454944707193786
fattree-6	gravity	2	3600001	1	OPT	53870	47776	1.0174112611879758	0.5476305113122476
fattree-6	gravity	2	3404318	104562	OPT	52238	3251	1.0375500469429906	0.5522179958991795
fattree-6	gravity	2	3600001	1	OPT	53596	51229	1.4813804856745947	0.5364644119452329
fattree-6	gravity	2	3600001	1	OPT	53915	25124	1.1862372310663016	0.5464260937643302
fattree-6	gravity	2	3600001	1	OPT	52118	41202	1.2119899754020735	0.5427007698166842
fattree-6	gravity	2	3600001	1	OPT	53103	28946	1.1176402800774203	0.5443695670956284
fattree-6	gravity	2	3600001	1	OPT	53885	32874	0.9293760842612996	0.5550200394606571
fattree-6	gravity	2	3416511	87666	OPT	52469	3090	1.0312951058680158	0.5538222730607663
fattree-6	gravity	2	3410211	65771	OPT	52143	2797	0.9450548995441	0.5557141683219404
fattree-6	gravity	2	3600001	1	OPT	53023	52429	1.1293756877520025	0.5457651084819227
fattree-6	gravity	2	3419423	148902	OPT	52982	31167	1.2124123810368224	0.5505820242315428
fattree-6	gravity	2	3600001	1	OPT	53439	35235	0.9887439698428875	0.550150427685199
fattree-6	gravity	2	3600001	1	OPT	52181	5422	0.8972628018308891	0.5544114295577414
fattree-6	gravity	2	3600001	1	OPT	53448	47333	1.4184272010286778	0.522010543846902
fattree-6	gravity	2	3600001	1	OPT	52677	40170	1.1618716087560939	0.546339245963433
CityCenter73	gravity	2	52677	40170	OPT	955300	57376	1.1451906546797312	0.41482225362096364
CityCenter73	gravity	2	955300	57376	OPT	959464	19710	1.1230912538590565	0.38960489549922894
CityCenter73	gravity	2	959464	19710	OPT	922360	109437	1.070214045289705	0.40312240379533054
CityCenter73	gravity	2	922360	109437	OPT	963614	43396	1.0830669352513755	0.362887452757911
CityCenter73	gravity	2	963614	43396	OPT	961966	55136	1.1327002439127134	0.397886939050548
CityCenter73	gravity	2	961966	55136	OPT	962618	38550	1.6856819260431084	0.42396398156031917
CityCenter73	gravity	2	962618	38550	OPT	991972	276910	1.3372102994756316	0.4103851314219068
CityCenter73	gravity	2	991972	276910	OPT	960581	35054	0.9379902318007296	0.3323814187390347
CityCenter73	gravity	2	960581	35054	OPT	952420	16048	1.1434858702885484	0.3140720742408588
CityCenter73	gravity	2	952420	16048	OPT	942457	38607	1.6818694271240933	0.3901490698012643
CityCenter73	gravity	2	942457	38607	OPT	962346	58631	1.7296510998896957	0.4188624737459382
CityCenter73	gravity	2	962346	58631	OPT	954698	107885	1.4057791334635976	0.47609251948118037
CityCenter73	gravity	2	954698	107885	OPT	945769	465390	1.4449006296716724	0.40621274387932915
CityCenter73	gravity	2	945769	465390	OPT	966775	63903	1.2564017069538216	0.39683499707965636
CityCenter73	gravity	2	966775	63903	OPT	939597	111683	1.288078851980404	0.37652271687878736
CityCenter73	gravity	2	939597	111683	OPT	963685	31967	1.5585416815633624	0.4092118765228057
CityCenter73	gravity	2	963685	31967	OPT	947341	52927	0.821032208009271	0.3246092123490415
CityCenter73	gravity	2	947341	52927	OPT	963447	6460	0.7495546434076066	0.3101099183670627
CityCenter73	gravity	2	963447	6460	OPT	963011	51331	1.2976007975239485	0.36351970976069997
CityCenter73	gravity	2	963011	51331	OPT	960891	120398	1.4128633448977397	0.41944989770164554
CityCenter73	gravity	2	51947	9591	OPT	1083255	14959	1.3945784177775877	0.36005483892599544
CityCenter73	gravity	2	1083255	14959	OPT	1129022	48973	1.0893728681342312	0.3872529102751137
CityCenter73	gravity	2	1129022	48973	OPT	1094571	7075	1.5468495370435233	0.3735244699860545
CityCenter73	gravity	2	1094571	7075	OPT	1091372	63661	1.3962144166458248	0.40757703175563886
CityCenter73	gravity	2	1091372	63661	OPT	1080363	59280	1.2683058373917369	0.3998371544235806
CityCenter73	gravity	2	1080363	59280	OPT	1086549	18075	1.3282419782011445	0.3729257505125931
CityCenter73	gravity	2	1086549	18075	OPT	1087601	402093	1.8230136786246403	0.528565938241738
CityCenter73	gravity	2	1087601	402093	OPT	1100312	16527	1.241764963758714	0.3579524513159814
CityCenter73	gravity	2	1100312	16527	OPT	1088233	692467	1.8875752966281736	0.5285842559696735
CityCenter73	gravity	2	1088233	692467	OPT	1087361	5902	1.981429214050605	0.4661369383935596
CityCenter73	gravity	2	1087361	5902	OPT	1089802	43700	1.5535672953457276	0.4142949535754328
CityCenter73	gravity	2	1089802	43700	OPT	1091657	23149	1.3916096214983948	0.3411570374810358
CityCenter73	gravity	2	1091657	23149	OPT	1087122	29198	1.3819620819144796	0.3503188946551385
CityCenter73	gravity	2	1087122	29198	OPT	1097288	30555	1.058756629375479	0.308551233934177
CityCenter73	gravity	2	1097288	30555	OPT	1093729	51950	1.5906483463319816	0.4099887525583473
CityCenter73	gravity	2	1093729	51950	OPT	1084695	9048	1.423951227829637	0.3794897054134922
CityCenter73	gravity	2	1084695	9048	OPT	1098422	20273	1.3430173349748358	0.33498130127565034
CityCenter73	gravity	2	1098422	20273	OPT	1088978	23308	1.4521082551531586	0.3874718851195732
CityCenter73	gravity	2	1088978	23308	OPT	1079188	18126	1.3580400685043998	0.39014738653715464
CityCenter73	gravity	2	1079188	18126	OPT	1090749	241913	1.4280645333306219	0.38616921300706664
