digraph {
	"a.bgp.default.OUT" -> "b.bgp.default.IN" [label="10.0"]
	"a.bgp.default.OUT" -> "c.bgp.default.IN" [label="10.0"]
	"b.bgp.default.OUT" -> "a.bgp.default.IN" [label="10.0"]
	"b.bgp.default.OUT" -> "d.bgp.default.IN" [label="10.0"]
	"b.bgp.default.OUT" -> "e.bgp.default.IN" [label="10.0"]
	"c.bgp.default.OUT" -> "g.bgp.default.IN" [label="10.0"]
	"c.bgp.default.OUT" -> "a.bgp.default.IN" [label="10.0"]
	"c.bgp.default.OUT" -> "e.bgp.default.IN" [label="10.0"]
	"d.bgp.default.OUT" -> "f.bgp.default.IN" [label="10.0"]
	"d.bgp.default.OUT" -> "b.bgp.default.IN" [label="10.0"]
	"e.bgp.default.OUT" -> "c.bgp.default.IN" [label="10.0"]
	"e.bgp.default.OUT" -> "g.bgp.default.IN" [label="10.0"]
	"e.bgp.default.OUT" -> "b.bgp.default.IN" [label="10.0"]
	"f.bgp.default.OUT" -> "d.bgp.default.IN" [label="10.0"]
	"f.bgp.default.OUT" -> "g.bgp.default.IN" [label="10.0"]
	"g.bgp.default.OUT" -> "f.bgp.default.IN" [label="10.0"]
	"g.bgp.default.OUT" -> "c.bgp.default.IN" [label="10.0"]
	"g.bgp.default.OUT" -> "e.bgp.default.IN" [label="10.0"]
	"a.bgp.default.IN" -> "a.bgp.default.OUT" [label="0.0"]
	"b.bgp.default.IN" -> "b.bgp.default.OUT" [label="0.0"]
	"c.bgp.default.IN" -> "c.bgp.default.OUT" [label="0.0"]
	"d.bgp.default.IN" -> "d.bgp.default.OUT" [label="0.0"]
	"e.bgp.default.IN" -> "e.bgp.default.OUT" [label="0.0"]
	"f.bgp.default.IN" -> "f.bgp.default.OUT" [label="0.0"]
	"g.bgp.default.IN" -> "g.bgp.default.OUT" [label="0.0"]
	"SOURCE" -> "d.bgp.default.OUT" [label="0.0"]
	"SOURCE" -> "DESTINATION" [label="0.0"]
	"a.bgp.default.IN"[shape=oval, style=filled, fillcolor=blue]
	"a.bgp.default.OUT"[shape=oval, style=filled, fillcolor=blue]
	"b.bgp.default.IN"[shape=oval, style=filled, fillcolor=blue]
	"b.bgp.default.OUT"[shape=oval, style=filled, fillcolor=blue]
	"c.bgp.default.IN"[shape=oval, style=filled, fillcolor=blue]
	"c.bgp.default.OUT"[shape=oval, style=filled, fillcolor=blue]
	"d.bgp.default.IN"[shape=oval, style=filled, fillcolor=blue]
	"d.bgp.default.OUT"[shape=oval, style=filled, fillcolor=blue]
	"e.bgp.default.IN"[shape=oval, style=filled, fillcolor=blue]
	"e.bgp.default.OUT"[shape=oval, style=filled, fillcolor=blue]
	"f.bgp.default.IN"[shape=oval, style=filled, fillcolor=blue]
	"f.bgp.default.OUT"[shape=oval, style=filled, fillcolor=blue]
	"g.bgp.default.IN"[shape=oval, style=filled, fillcolor=blue]
	"g.bgp.default.OUT"[shape=oval, style=filled, fillcolor=blue]
	"SOURCE"[shape=oval, style=filled, fillcolor=red]
	"DESTINATION"[shape=oval, style=filled, fillcolor=red]
label="3.0.0.0-3.0.255.255 -> 4.0.0.0-4.0.255.255"
}