digraph {
	"a.ospf.1.OUT" -> "d.ospf.1.IN" [label="10.0"]
	"a.ospf.1.OUT" -> "b.ospf.1.IN" [label="20.0"]
	"a.ospf.1.OUT" -> "c.ospf.1.IN" [label="70.0"]
	"a.ospf.1.OUT" -> "g.ospf.2.IN" [label="1.0"]
	"b.ospf.1.OUT" -> "c.ospf.1.IN" [label="20.0"]
	"b.ospf.1.OUT" -> "a.ospf.1.IN" [label="20.0"]
	"c.ospf.1.OUT" -> "b.ospf.1.IN" [label="20.0"]
	"c.ospf.1.OUT" -> "d.ospf.1.IN" [label="10.0"]
	"c.ospf.1.OUT" -> "a.ospf.1.IN" [label="70.0"]
	"d.ospf.1.OUT" -> "c.ospf.1.IN" [label="10.0"]
	"d.ospf.1.OUT" -> "a.ospf.1.IN" [label="10.0"]
	"d.ospf.2.OUT" -> "e.ospf.2.IN" [label="10.0"]
	"d.ospf.2.OUT" -> "g.ospf.2.IN" [label="10.0"]
	"e.ospf.2.OUT" -> "d.ospf.2.IN" [label="10.0"]
	"e.ospf.2.OUT" -> "f.ospf.2.IN" [label="20.0"]
	"e.ospf.2.OUT" -> "g.ospf.2.IN" [label="70.0"]
	"f.ospf.2.OUT" -> "e.ospf.2.IN" [label="20.0"]
	"f.ospf.2.OUT" -> "g.ospf.2.IN" [label="20.0"]
	"g.ospf.2.OUT" -> "f.ospf.2.IN" [label="20.0"]
	"g.ospf.2.OUT" -> "d.ospf.2.IN" [label="10.0"]
	"g.ospf.2.OUT" -> "e.ospf.2.IN" [label="70.0"]
	"g.ospf.2.OUT" -> "a.ospf.1.IN" [label="1.0"]
	"a.ospf.1.IN" -> "a.ospf.1.OUT" [label="0.0"]
	"b.ospf.1.IN" -> "b.ospf.1.OUT" [label="0.0"]
	"c.ospf.1.IN" -> "c.ospf.1.OUT" [label="0.0"]
	"d.ospf.1.IN" -> "d.ospf.1.OUT" [label="0.0"]
	"d.ospf.2.IN" -> "d.ospf.2.OUT" [label="560.0"]
	"e.ospf.2.IN" -> "e.ospf.2.OUT" [label="0.0"]
	"f.ospf.2.IN" -> "f.ospf.2.OUT" [label="0.0"]
	"g.ospf.2.IN" -> "g.ospf.2.OUT" [label="0.0"]
	"SOURCE.2.0.0.0-2.255.255.255 1-65535 [TCP, UDP]" -> "d.ospf.1.OUT" [label="0.0"]
	"SOURCE.2.0.0.0-2.255.255.255 1-65535 [TCP, UDP]" -> "d.ospf.2.OUT" [label="0.0"]
	"SOURCE.2.0.0.0-2.255.255.255 1-65535 [TCP, UDP]" -> "c.ospf.1.OUT" [label="0.0"]
	"SOURCE.1.0.0.0-1.255.255.255 1-65535 [TCP, UDP]" -> "c.ospf.1.OUT" [label="0.0"]
	"SOURCE.1.0.0.0-1.255.255.255 1-65535 [TCP, UDP]" -> "b.ospf.1.OUT" [label="0.0"]
	"SOURCE.20.0.0.0-20.255.255.255 1-65535 [TCP, UDP]" -> "a.ospf.1.OUT" [label="0.0"]
	"SOURCE.20.0.0.0-20.255.255.255 1-65535 [TCP, UDP]" -> "g.ospf.2.OUT" [label="0.0"]
	"g.ospf.2.OUT" -> "DESTINATION.15.0.0.0-15.255.255.255 1-65535 [TCP, UDP]" [label="0.0"]
	"SOURCE.3.0.0.0-3.255.255.255 1-65535 [TCP, UDP]" -> "a.ospf.1.OUT" [label="0.0"]
	"SOURCE.3.0.0.0-3.255.255.255 1-65535 [TCP, UDP]" -> "d.ospf.1.OUT" [label="0.0"]
	"SOURCE.3.0.0.0-3.255.255.255 1-65535 [TCP, UDP]" -> "d.ospf.2.OUT" [label="0.0"]
	"SOURCE.4.0.0.0-4.255.255.255 1-65535 [TCP, UDP]" -> "b.ospf.1.OUT" [label="0.0"]
	"SOURCE.4.0.0.0-4.255.255.255 1-65535 [TCP, UDP]" -> "a.ospf.1.OUT" [label="0.0"]
	"SOURCE.5.0.0.0-5.255.255.255 1-65535 [TCP, UDP]" -> "a.ospf.1.OUT" [label="0.0"]
	"SOURCE.5.0.0.0-5.255.255.255 1-65535 [TCP, UDP]" -> "c.ospf.1.OUT" [label="0.0"]
	"SOURCE.6.0.0.0-6.255.255.255 1-65535 [TCP, UDP]" -> "b.ospf.1.OUT" [label="0.0"]
	"SOURCE.11.0.0.0-11.255.255.255 1-65535 [TCP, UDP]" -> "e.ospf.2.OUT" [label="0.0"]
	"e.ospf.2.OUT" -> "DESTINATION.15.0.0.0-15.255.255.255 1-65535 [TCP, UDP]" [label="0.0"]
	"SOURCE.11.0.0.0-11.255.255.255 1-65535 [TCP, UDP]" -> "d.ospf.1.OUT" [label="0.0"]
	"SOURCE.11.0.0.0-11.255.255.255 1-65535 [TCP, UDP]" -> "d.ospf.2.OUT" [label="0.0"]
	"SOURCE.12.0.0.0-12.255.255.255 1-65535 [TCP, UDP]" -> "f.ospf.2.OUT" [label="0.0"]
	"SOURCE.12.0.0.0-12.255.255.255 1-65535 [TCP, UDP]" -> "e.ospf.2.OUT" [label="0.0"]
	"SOURCE.13.0.0.0-13.255.255.255 1-65535 [TCP, UDP]" -> "f.ospf.2.OUT" [label="0.0"]
	"SOURCE.13.0.0.0-13.255.255.255 1-65535 [TCP, UDP]" -> "g.ospf.2.OUT" [label="0.0"]
	"SOURCE.14.0.0.0-14.255.255.255 1-65535 [TCP, UDP]" -> "g.ospf.2.OUT" [label="0.0"]
	"SOURCE.14.0.0.0-14.255.255.255 1-65535 [TCP, UDP]" -> "d.ospf.1.OUT" [label="0.0"]
	"SOURCE.14.0.0.0-14.255.255.255 1-65535 [TCP, UDP]" -> "d.ospf.2.OUT" [label="0.0"]
	"SOURCE.16.0.0.0-16.255.255.255 1-65535 [TCP, UDP]" -> "f.ospf.2.OUT" [label="0.0"]
	"g.ospf.2.IN" -> "DESTINATION.15.0.0.0-15.255.255.255 1-65535 [TCP, UDP]" [label="0.0"]
	"e.ospf.2.IN" -> "DESTINATION.15.0.0.0-15.255.255.255 1-65535 [TCP, UDP]" [label="0.0"]
	"a.ospf.1.IN"[shape=oval, style=filled, fillcolor=orange]
	"a.ospf.1.OUT"[shape=oval, style=filled, fillcolor=orange]
	"b.ospf.1.IN"[shape=oval, style=filled, fillcolor=orange]
	"b.ospf.1.OUT"[shape=oval, style=filled, fillcolor=orange]
	"c.ospf.1.IN"[shape=oval, style=filled, fillcolor=orange]
	"c.ospf.1.OUT"[shape=oval, style=filled, fillcolor=orange]
	"d.ospf.1.IN"[shape=oval, style=filled, fillcolor=orange]
	"d.ospf.1.OUT"[shape=oval, style=filled, fillcolor=orange]
	"d.ospf.2.IN"[shape=oval, style=filled, fillcolor=orange]
	"d.ospf.2.OUT"[shape=oval, style=filled, fillcolor=orange]
	"e.ospf.2.IN"[shape=oval, style=filled, fillcolor=orange]
	"e.ospf.2.OUT"[shape=oval, style=filled, fillcolor=orange]
	"f.ospf.2.IN"[shape=oval, style=filled, fillcolor=orange]
	"f.ospf.2.OUT"[shape=oval, style=filled, fillcolor=orange]
	"g.ospf.2.IN"[shape=oval, style=filled, fillcolor=orange]
	"g.ospf.2.OUT"[shape=oval, style=filled, fillcolor=orange]
	"SOURCE.2.0.0.0-2.255.255.255 1-65535 [TCP, UDP]"[shape=oval, style=filled, fillcolor=red]
	"SOURCE.1.0.0.0-1.255.255.255 1-65535 [TCP, UDP]"[shape=oval, style=filled, fillcolor=red]
	"SOURCE.20.0.0.0-20.255.255.255 1-65535 [TCP, UDP]"[shape=oval, style=filled, fillcolor=red]
	"SOURCE.3.0.0.0-3.255.255.255 1-65535 [TCP, UDP]"[shape=oval, style=filled, fillcolor=red]
	"SOURCE.4.0.0.0-4.255.255.255 1-65535 [TCP, UDP]"[shape=oval, style=filled, fillcolor=red]
	"SOURCE.5.0.0.0-5.255.255.255 1-65535 [TCP, UDP]"[shape=oval, style=filled, fillcolor=red]
	"SOURCE.6.0.0.0-6.255.255.255 1-65535 [TCP, UDP]"[shape=oval, style=filled, fillcolor=red]
	"SOURCE.11.0.0.0-11.255.255.255 1-65535 [TCP, UDP]"[shape=oval, style=filled, fillcolor=red]
	"SOURCE.12.0.0.0-12.255.255.255 1-65535 [TCP, UDP]"[shape=oval, style=filled, fillcolor=red]
	"SOURCE.13.0.0.0-13.255.255.255 1-65535 [TCP, UDP]"[shape=oval, style=filled, fillcolor=red]
	"SOURCE.14.0.0.0-14.255.255.255 1-65535 [TCP, UDP]"[shape=oval, style=filled, fillcolor=red]
	"SOURCE.16.0.0.0-16.255.255.255 1-65535 [TCP, UDP]"[shape=oval, style=filled, fillcolor=red]
	"DESTINATION.15.0.0.0-15.255.255.255 1-65535 [TCP, UDP]"[shape=oval, style=filled, fillcolor=red]
label="* -> 15.0.0.0-15.255.255.255 1-65535 [TCP, UDP]"
}