digraph {
	"a.OSPF.default.OUT" -> "f.OSPF.default.IN" [label="0.0"]
	"a.OSPF.default.OUT" -> "d.OSPF.default.IN" [label="0.0"]
	"b.OSPF.default.OUT" -> "d.OSPF.default.IN" [label="0.0"]
	"b.OSPF.default.OUT" -> "g.OSPF.default.IN" [label="0.0"]
	"c.OSPF.default.OUT" -> "f.OSPF.default.IN" [label="0.0"]
	"c.OSPF.default.OUT" -> "e.OSPF.default.IN" [label="0.0"]
	"c.OSPF.default.OUT" -> "g.OSPF.default.IN" [label="0.0"]
	"d.OSPF.default.OUT" -> "a.OSPF.default.IN" [label="0.0"]
	"d.OSPF.default.OUT" -> "e.OSPF.default.IN" [label="0.0"]
	"d.OSPF.default.OUT" -> "b.OSPF.default.IN" [label="0.0"]
	"e.OSPF.default.OUT" -> "d.OSPF.default.IN" [label="0.0"]
	"e.OSPF.default.OUT" -> "c.OSPF.default.IN" [label="0.0"]
	"f.OSPF.default.OUT" -> "a.OSPF.default.IN" [label="0.0"]
	"f.OSPF.default.OUT" -> "c.OSPF.default.IN" [label="0.0"]
	"g.OSPF.default.OUT" -> "c.OSPF.default.IN" [label="0.0"]
	"g.OSPF.default.OUT" -> "b.OSPF.default.IN" [label="0.0"]
	"a.OSPF.default.IN" -> "a.OSPF.default.OUT" [label="0.0"]
	"b.OSPF.default.IN" -> "b.OSPF.default.OUT" [label="0.0"]
	"c.OSPF.default.IN" -> "c.OSPF.default.OUT" [label="0.0"]
	"d.OSPF.default.IN" -> "d.OSPF.default.OUT" [label="0.0"]
	"e.OSPF.default.IN" -> "e.OSPF.default.OUT" [label="0.0"]
	"f.OSPF.default.IN" -> "f.OSPF.default.OUT" [label="0.0"]
	"g.OSPF.default.IN" -> "g.OSPF.default.OUT" [label="0.0"]
	"SOURCE" -> "g.OSPF.default.OUT" [label="0.0"]
	"SOURCE" -> "b.OSPF.default.OUT" [label="0.0"]
	"a.OSPF.default.IN"[shape=oval, style=filled, fillcolor=orange]
	"a.OSPF.default.OUT"[shape=oval, style=filled, fillcolor=orange]
	"b.OSPF.default.IN"[shape=oval, style=filled, fillcolor=orange]
	"b.OSPF.default.OUT"[shape=oval, style=filled, fillcolor=orange]
	"c.OSPF.default.IN"[shape=oval, style=filled, fillcolor=orange]
	"c.OSPF.default.OUT"[shape=oval, style=filled, fillcolor=orange]
	"d.OSPF.default.IN"[shape=oval, style=filled, fillcolor=orange]
	"d.OSPF.default.OUT"[shape=oval, style=filled, fillcolor=orange]
	"e.OSPF.default.IN"[shape=oval, style=filled, fillcolor=orange]
	"e.OSPF.default.OUT"[shape=oval, style=filled, fillcolor=orange]
	"f.OSPF.default.IN"[shape=oval, style=filled, fillcolor=orange]
	"f.OSPF.default.OUT"[shape=oval, style=filled, fillcolor=orange]
	"g.OSPF.default.IN"[shape=oval, style=filled, fillcolor=orange]
	"g.OSPF.default.OUT"[shape=oval, style=filled, fillcolor=orange]
	"SOURCE"[shape=oval, style=filled, fillcolor=red]
	"DESTINATION"[shape=oval, style=filled, fillcolor=red]
label="8.0.0.0-8.0.255.255 -> 4.1.0.0-4.255.255.255"
}